<?xml version="1.0" encoding="utf-8"?>
<!-- Generator: Adobe Illustrator 16.0.0, SVG Export Plug-In . SVG Version: 6.00 Build 0)  -->
<!DOCTYPE svg PUBLIC "-//W3C//DTD SVG 1.1//EN" "http://www.w3.org/Graphics/SVG/1.1/DTD/svg11.dtd" [
	<!ENTITY ns_extend "http://ns.adobe.com/Extensibility/1.0/">
	<!ENTITY ns_ai "http://ns.adobe.com/AdobeIllustrator/10.0/">
	<!ENTITY ns_graphs "http://ns.adobe.com/Graphs/1.0/">
	<!ENTITY ns_vars "http://ns.adobe.com/Variables/1.0/">
	<!ENTITY ns_imrep "http://ns.adobe.com/ImageReplacement/1.0/">
	<!ENTITY ns_sfw "http://ns.adobe.com/SaveForWeb/1.0/">
	<!ENTITY ns_custom "http://ns.adobe.com/GenericCustomNamespace/1.0/">
	<!ENTITY ns_adobe_xpath "http://ns.adobe.com/XPath/1.0/">
]>
<svg version="1.1" id="Layer_1" xmlns:x="&ns_extend;" xmlns:i="&ns_ai;" xmlns:graph="&ns_graphs;"
	 xmlns="http://www.w3.org/2000/svg" xmlns:xlink="http://www.w3.org/1999/xlink" x="0px" y="0px" width="260px" height="541px"
	 viewBox="0 0 260 541" enable-background="new 0 0 260 541" xml:space="preserve">
<metadata>
	<sfw  xmlns="&ns_sfw;">
		<slices></slices>
		<sliceSourceBounds  width="2857.654" height="4704.053" bottomLeftOrigin="true" y="-4967.661" x="79.346"></sliceSourceBounds>
	</sfw>
</metadata>
<g>
	<g>
		<path opacity="0" fill="#FFFFFF" d="M206.71,58.693c0,15.654-12.704,28.346-28.372,28.346c-15.671,0-28.377-12.691-28.377-28.346
			c0-15.656,12.706-28.348,28.377-28.348C194.006,30.346,206.71,43.037,206.71,58.693z"/>
		<ellipse opacity="0.0208" fill="#FEFEFE" cx="177.744" cy="58.103" rx="28.374" ry="28.346"/>
		<path opacity="0.0417" fill="#FDFDFD" d="M205.527,57.513c0,15.654-12.704,28.345-28.371,28.345
			c-15.672,0-28.378-12.69-28.378-28.345c0-15.656,12.706-28.349,28.378-28.349C192.823,29.164,205.527,41.856,205.527,57.513z"/>
		<path opacity="0.0625" fill="#FCFCFC" d="M204.937,56.922c0,15.654-12.704,28.346-28.372,28.346
			c-15.67,0-28.377-12.691-28.377-28.346c0-15.656,12.707-28.348,28.377-28.348C192.232,28.574,204.937,41.266,204.937,56.922z"/>
		<path opacity="0.0833" fill="#FBFBFB" d="M204.346,56.331c0,15.654-12.704,28.346-28.372,28.346
			c-15.671,0-28.377-12.691-28.377-28.346c0-15.656,12.706-28.348,28.377-28.348C191.642,27.983,204.346,40.675,204.346,56.331z"/>
		<path opacity="0.1042" fill="#FAFAFA" d="M203.755,55.74c0,15.655-12.704,28.347-28.372,28.347
			c-15.671,0-28.377-12.691-28.377-28.347c0-15.656,12.706-28.348,28.377-28.348C191.051,27.393,203.755,40.084,203.755,55.74z"/>
		<path opacity="0.125" fill="#F9F9FA" d="M203.164,55.15c0,15.654-12.704,28.346-28.372,28.346
			c-15.671,0-28.377-12.691-28.377-28.346c0-15.656,12.706-28.348,28.377-28.348C190.46,26.803,203.164,39.494,203.164,55.15z"/>
		<path opacity="0.1458" fill="#F8F8F9" d="M202.572,54.56c0,15.654-12.704,28.346-28.372,28.346
			c-15.671,0-28.377-12.691-28.377-28.346c0-15.656,12.706-28.348,28.377-28.348C189.868,26.212,202.572,38.903,202.572,54.56z"/>
		<path opacity="0.1667" fill="#F7F8F8" d="M201.981,53.969c0,15.654-12.704,28.346-28.372,28.346
			c-15.671,0-28.377-12.691-28.377-28.346c0-15.656,12.706-28.348,28.377-28.348C189.277,25.621,201.981,38.312,201.981,53.969z"/>
		<ellipse opacity="0.1875" fill="#F6F7F7" cx="173.016" cy="53.379" rx="28.375" ry="28.346"/>
		<path opacity="0.2083" fill="#F5F6F6" d="M200.799,52.787c0,15.654-12.704,28.346-28.372,28.346
			c-15.671,0-28.377-12.691-28.377-28.346c0-15.656,12.706-28.348,28.377-28.348C188.095,24.439,200.799,37.131,200.799,52.787z"/>
		<path opacity="0.2292" fill="#F4F5F5" d="M200.208,52.197c0,15.654-12.704,28.346-28.372,28.346
			c-15.671,0-28.377-12.691-28.377-28.346c0-15.656,12.706-28.348,28.377-28.348C187.504,23.85,200.208,36.541,200.208,52.197z"/>
		<ellipse opacity="0.25" fill="#F3F4F4" cx="171.243" cy="51.607" rx="28.375" ry="28.346"/>
		<path opacity="0.2708" fill="#F2F3F3" d="M199.025,51.017c0,15.654-12.703,28.345-28.372,28.345
			c-15.67,0-28.377-12.69-28.377-28.345c0-15.656,12.707-28.349,28.377-28.349C186.322,22.668,199.025,35.36,199.025,51.017z"/>
		<path opacity="0.2917" fill="#F1F2F2" d="M198.435,50.426c0,15.654-12.704,28.346-28.372,28.346
			c-15.67,0-28.377-12.691-28.377-28.346c0-15.656,12.707-28.348,28.377-28.348C185.73,22.078,198.435,34.77,198.435,50.426z"/>
		<ellipse opacity="0.3125" fill="#F0F1F1" cx="169.47" cy="49.836" rx="28.374" ry="28.346"/>
		<ellipse opacity="0.3333" fill="#EFF0F0" cx="168.878" cy="49.245" rx="28.375" ry="28.345"/>
		<path opacity="0.3542" fill="#EEEFEF" d="M196.661,48.654c0,15.654-12.704,28.346-28.372,28.346
			c-15.67,0-28.377-12.691-28.377-28.346c0-15.656,12.707-28.348,28.377-28.348C183.957,20.307,196.661,32.998,196.661,48.654z"/>
		<ellipse opacity="0.375" fill="#EDEEEE" cx="167.696" cy="48.063" rx="28.374" ry="28.346"/>
		<ellipse opacity="0.3958" fill="#ECEDEE" cx="167.105" cy="47.474" rx="28.375" ry="28.346"/>
		<ellipse opacity="0.4167" fill="#EBECED" cx="166.514" cy="46.883" rx="28.375" ry="28.346"/>
		<ellipse opacity="0.4375" fill="#EAEBEC" cx="165.923" cy="46.291" rx="28.374" ry="28.347"/>
		<path opacity="0.4583" fill="#E9EAEB" d="M193.706,45.701c0,15.654-12.704,28.346-28.372,28.346
			c-15.67,0-28.377-12.691-28.377-28.346c0-15.656,12.707-28.348,28.377-28.348C181.002,17.354,193.706,30.045,193.706,45.701z"/>
		<ellipse opacity="0.4792" fill="#E8E9EA" cx="164.741" cy="45.111" rx="28.374" ry="28.346"/>
		<ellipse opacity="0.5" fill="#E7E8E9" cx="164.149" cy="44.521" rx="28.374" ry="28.346"/>
		<path opacity="0.5208" fill="#E7E8E8" d="M191.933,43.93c0,15.654-12.704,28.346-28.372,28.346
			c-15.67,0-28.377-12.691-28.377-28.346c0-15.656,12.707-28.348,28.377-28.348C179.229,15.582,191.933,28.273,191.933,43.93z"/>
		<ellipse opacity="0.5417" fill="#E6E7E7" cx="162.968" cy="43.34" rx="28.374" ry="28.346"/>
		<ellipse opacity="0.5625" fill="#E5E6E6" cx="162.376" cy="42.749" rx="28.374" ry="28.346"/>
		<ellipse opacity="0.5833" fill="#E4E5E5" cx="161.786" cy="42.158" rx="28.375" ry="28.346"/>
		<ellipse opacity="0.6042" fill="#E3E4E4" cx="161.194" cy="41.567" rx="28.374" ry="28.346"/>
		<ellipse opacity="0.625" fill="#E2E3E3" cx="160.603" cy="40.978" rx="28.375" ry="28.346"/>
		<ellipse opacity="0.6458" fill="#E1E2E3" cx="160.012" cy="40.387" rx="28.375" ry="28.346"/>
		<ellipse opacity="0.6667" fill="#E0E1E2" cx="159.421" cy="39.797" rx="28.374" ry="28.345"/>
		<ellipse opacity="0.6875" fill="#DFE0E1" cx="158.83" cy="39.205" rx="28.374" ry="28.346"/>
		<ellipse opacity="0.7083" fill="#DEDFE0" cx="158.239" cy="38.615" rx="28.375" ry="28.346"/>
		<ellipse opacity="0.7292" fill="#DDDEDF" cx="157.647" cy="38.024" rx="28.374" ry="28.346"/>
		<ellipse opacity="0.75" fill="#DCDDDE" cx="157.057" cy="37.435" rx="28.375" ry="28.346"/>
		<ellipse opacity="0.7708" fill="#DBDCDD" cx="156.466" cy="36.844" rx="28.374" ry="28.346"/>
		<ellipse opacity="0.7917" fill="#DADBDC" cx="155.875" cy="36.253" rx="28.374" ry="28.346"/>
		<ellipse opacity="0.8125" fill="#D9DADB" cx="155.284" cy="35.662" rx="28.375" ry="28.346"/>
		<ellipse opacity="0.8333" fill="#D8DADA" cx="154.692" cy="35.072" rx="28.374" ry="28.345"/>
		<ellipse opacity="0.8542" fill="#D7D9D9" cx="154.102" cy="34.481" rx="28.374" ry="28.346"/>
		<ellipse opacity="0.875" fill="#D6D8D9" cx="153.51" cy="33.892" rx="28.375" ry="28.345"/>
		<ellipse opacity="0.8958" fill="#D5D7D8" cx="152.92" cy="33.301" rx="28.374" ry="28.346"/>
		<ellipse opacity="0.9167" fill="#D4D6D7" cx="152.328" cy="32.709" rx="28.374" ry="28.347"/>
		<ellipse opacity="0.9375" fill="#D3D5D6" cx="151.737" cy="32.119" rx="28.374" ry="28.346"/>
		<path opacity="0.9583" fill="#D2D4D5" d="M179.521,31.528c0,15.654-12.703,28.347-28.374,28.347
			c-15.667,0-28.374-12.692-28.374-28.347c0-15.656,12.707-28.347,28.374-28.347C166.817,3.182,179.521,15.872,179.521,31.528z"/>
		<ellipse opacity="0.9792" fill="#D1D3D4" cx="150.555" cy="30.938" rx="28.374" ry="28.345"/>
		<ellipse fill="#D0D2D3" cx="149.964" cy="30.348" rx="28.374" ry="28.346"/>
	</g>
	<g>
		<path opacity="0" fill="#FFFFFF" d="M206.71,285.465c0,15.654-12.704,28.346-28.372,28.346c-15.671,0-28.377-12.691-28.377-28.346
			c0-15.656,12.706-28.348,28.377-28.348C194.006,257.117,206.71,269.809,206.71,285.465z"/>
		<ellipse opacity="0.0208" fill="#FEFEFE" cx="177.744" cy="284.874" rx="28.374" ry="28.346"/>
		<path opacity="0.0417" fill="#FDFDFD" d="M205.527,284.284c0,15.653-12.704,28.346-28.371,28.346
			c-15.672,0-28.378-12.692-28.378-28.346c0-15.656,12.706-28.348,28.378-28.348C192.823,255.937,205.527,268.628,205.527,284.284z"
			/>
		<path opacity="0.0625" fill="#FCFCFC" d="M204.937,283.693c0,15.654-12.704,28.347-28.372,28.347
			c-15.67,0-28.377-12.692-28.377-28.347c0-15.656,12.707-28.348,28.377-28.348C192.232,255.346,204.937,268.037,204.937,283.693z"
			/>
		<path opacity="0.0833" fill="#FBFBFB" d="M204.346,283.103c0,15.654-12.704,28.346-28.372,28.346
			c-15.671,0-28.377-12.691-28.377-28.346c0-15.656,12.706-28.348,28.377-28.348C191.642,254.755,204.346,267.446,204.346,283.103z"
			/>
		<path opacity="0.1042" fill="#FAFAFA" d="M203.755,282.512c0,15.654-12.704,28.347-28.372,28.347
			c-15.671,0-28.377-12.692-28.377-28.347c0-15.656,12.706-28.348,28.377-28.348C191.051,254.164,203.755,266.855,203.755,282.512z"
			/>
		<path opacity="0.125" fill="#F9F9FA" d="M203.164,281.922c0,15.654-12.704,28.346-28.372,28.346
			c-15.671,0-28.377-12.691-28.377-28.346c0-15.656,12.706-28.348,28.377-28.348C190.46,253.574,203.164,266.266,203.164,281.922z"
			/>
		<path opacity="0.1458" fill="#F8F8F9" d="M202.572,281.331c0,15.654-12.704,28.346-28.372,28.346
			c-15.671,0-28.377-12.691-28.377-28.346c0-15.656,12.706-28.348,28.377-28.348C189.868,252.983,202.572,265.675,202.572,281.331z"
			/>
		<path opacity="0.1667" fill="#F7F8F8" d="M201.981,280.74c0,15.654-12.704,28.346-28.372,28.346
			c-15.671,0-28.377-12.691-28.377-28.346c0-15.656,12.706-28.348,28.377-28.348C189.277,252.393,201.981,265.084,201.981,280.74z"
			/>
		<ellipse opacity="0.1875" fill="#F6F7F7" cx="173.016" cy="280.15" rx="28.375" ry="28.346"/>
		<path opacity="0.2083" fill="#F5F6F6" d="M200.799,279.559c0,15.654-12.704,28.346-28.372,28.346
			c-15.671,0-28.377-12.691-28.377-28.346c0-15.656,12.706-28.348,28.377-28.348C188.095,251.211,200.799,263.902,200.799,279.559z"
			/>
		<path opacity="0.2292" fill="#F4F5F5" d="M200.208,278.969c0,15.654-12.704,28.346-28.372,28.346
			c-15.671,0-28.377-12.691-28.377-28.346c0-15.656,12.706-28.348,28.377-28.348C187.504,250.621,200.208,263.312,200.208,278.969z"
			/>
		<ellipse opacity="0.25" fill="#F3F4F4" cx="171.243" cy="278.379" rx="28.375" ry="28.346"/>
		<ellipse opacity="0.2708" fill="#F2F3F3" cx="170.651" cy="277.787" rx="28.375" ry="28.346"/>
		<path opacity="0.2917" fill="#F1F2F2" d="M198.435,277.197c0,15.654-12.704,28.346-28.372,28.346
			c-15.67,0-28.377-12.691-28.377-28.346c0-15.656,12.707-28.348,28.377-28.348C185.73,248.85,198.435,261.541,198.435,277.197z"/>
		<ellipse opacity="0.3125" fill="#F0F1F1" cx="169.47" cy="276.607" rx="28.374" ry="28.346"/>
		<ellipse opacity="0.3333" fill="#EFF0F0" cx="168.878" cy="276.016" rx="28.375" ry="28.347"/>
		<path opacity="0.3542" fill="#EEEFEF" d="M196.661,275.426c0,15.654-12.704,28.346-28.372,28.346
			c-15.67,0-28.377-12.691-28.377-28.346c0-15.656,12.707-28.348,28.377-28.348C183.957,247.078,196.661,259.77,196.661,275.426z"/>
		<ellipse opacity="0.375" fill="#EDEEEE" cx="167.696" cy="274.836" rx="28.374" ry="28.345"/>
		<ellipse opacity="0.3958" fill="#ECEDEE" cx="167.105" cy="274.245" rx="28.375" ry="28.346"/>
		<ellipse opacity="0.4167" fill="#EBECED" cx="166.514" cy="273.654" rx="28.375" ry="28.346"/>
		<ellipse opacity="0.4375" fill="#EAEBEC" cx="165.923" cy="273.063" rx="28.374" ry="28.345"/>
		<path opacity="0.4583" fill="#E9EAEB" d="M193.706,272.473c0,15.654-12.704,28.346-28.372,28.346
			c-15.67,0-28.377-12.691-28.377-28.346c0-15.656,12.707-28.348,28.377-28.348C181.002,244.125,193.706,256.816,193.706,272.473z"
			/>
		<ellipse opacity="0.4792" fill="#E8E9EA" cx="164.741" cy="271.883" rx="28.374" ry="28.346"/>
		<ellipse opacity="0.5" fill="#E7E8E9" cx="164.149" cy="271.292" rx="28.374" ry="28.346"/>
		<path opacity="0.5208" fill="#E7E8E8" d="M191.933,270.701c0,15.654-12.704,28.346-28.372,28.346
			c-15.67,0-28.377-12.691-28.377-28.346c0-15.656,12.707-28.348,28.377-28.348C179.229,242.354,191.933,255.045,191.933,270.701z"
			/>
		<ellipse opacity="0.5417" fill="#E6E7E7" cx="162.968" cy="270.111" rx="28.374" ry="28.346"/>
		<ellipse opacity="0.5625" fill="#E5E6E6" cx="162.376" cy="269.521" rx="28.374" ry="28.346"/>
		<ellipse opacity="0.5833" fill="#E4E5E5" cx="161.786" cy="268.93" rx="28.375" ry="28.346"/>
		<ellipse opacity="0.6042" fill="#E3E4E4" cx="161.194" cy="268.339" rx="28.374" ry="28.346"/>
		<ellipse opacity="0.625" fill="#E2E3E3" cx="160.603" cy="267.749" rx="28.375" ry="28.346"/>
		<ellipse opacity="0.6458" fill="#E1E2E3" cx="160.012" cy="267.158" rx="28.375" ry="28.346"/>
		<ellipse opacity="0.6667" fill="#E0E1E2" cx="159.421" cy="266.567" rx="28.374" ry="28.347"/>
		<ellipse opacity="0.6875" fill="#DFE0E1" cx="158.83" cy="265.978" rx="28.374" ry="28.345"/>
		<ellipse opacity="0.7083" fill="#DEDFE0" cx="158.239" cy="265.387" rx="28.375" ry="28.346"/>
		<ellipse opacity="0.7292" fill="#DDDEDF" cx="157.647" cy="264.796" rx="28.374" ry="28.346"/>
		<ellipse opacity="0.75" fill="#DCDDDE" cx="157.057" cy="264.205" rx="28.375" ry="28.346"/>
		<ellipse opacity="0.7708" fill="#DBDCDD" cx="156.466" cy="263.615" rx="28.374" ry="28.346"/>
		<ellipse opacity="0.7917" fill="#DADBDC" cx="155.875" cy="263.024" rx="28.374" ry="28.346"/>
		<ellipse opacity="0.8125" fill="#D9DADB" cx="155.284" cy="262.434" rx="28.375" ry="28.346"/>
		<ellipse opacity="0.8333" fill="#D8DADA" cx="154.692" cy="261.844" rx="28.374" ry="28.346"/>
		<ellipse opacity="0.8542" fill="#D7D9D9" cx="154.102" cy="261.253" rx="28.374" ry="28.346"/>
		<ellipse opacity="0.875" fill="#D6D8D9" cx="153.51" cy="260.662" rx="28.375" ry="28.346"/>
		<ellipse opacity="0.8958" fill="#D5D7D8" cx="152.92" cy="260.072" rx="28.374" ry="28.346"/>
		<ellipse opacity="0.9167" fill="#D4D6D7" cx="152.328" cy="259.481" rx="28.374" ry="28.345"/>
		<ellipse opacity="0.9375" fill="#D3D5D6" cx="151.737" cy="258.891" rx="28.374" ry="28.346"/>
		<path opacity="0.9583" fill="#D2D4D5" d="M179.521,258.301c0,15.654-12.703,28.345-28.374,28.345
			c-15.667,0-28.374-12.69-28.374-28.345c0-15.656,12.707-28.349,28.374-28.349C166.817,229.952,179.521,242.645,179.521,258.301z"
			/>
		<ellipse opacity="0.9792" fill="#D1D3D4" cx="150.555" cy="257.709" rx="28.374" ry="28.347"/>
		<ellipse fill="#D0D2D3" cx="149.964" cy="257.119" rx="28.374" ry="28.346"/>
	</g>
	<g>
		<ellipse fill="#FFFFFF" cx="149.461" cy="257.119" rx="28.375" ry="28.346"/>
		<path fill="#231F20" d="M149.462,287.465c-16.75,0-30.377-13.613-30.377-30.346c0-16.733,13.627-30.348,30.377-30.348
			c16.749,0,30.376,13.614,30.376,30.348C179.838,273.852,166.211,287.465,149.462,287.465z M149.462,230.771
			c-14.543,0-26.373,11.819-26.373,26.348c0,14.527,11.83,26.346,26.373,26.346c14.542,0,26.372-11.818,26.372-26.346
			C175.834,242.591,164.004,230.771,149.462,230.771z"/>
	</g>
	<g>
		<path fill="#EC1C24" d="M171.811,366.051c0-0.816,0.623-1.465,1.44-1.465s1.467,0.648,1.467,1.465v0.792
			c0.937-1.32,2.258-2.377,4.324-2.377c2.979,0,5.887,2.353,5.887,6.577v0.048c0,4.2-2.884,6.576-5.887,6.576
			c-2.115,0-3.437-1.056-4.324-2.231v4.488c0,0.815-0.649,1.439-1.467,1.439c-0.792,0-1.44-0.624-1.44-1.439V366.051z
			 M181.973,371.091v-0.048c0-2.448-1.658-4.057-3.629-4.057c-1.969,0-3.698,1.632-3.698,4.057v0.048
			c0,2.424,1.729,4.057,3.698,4.057C180.338,375.147,181.973,373.587,181.973,371.091z"/>
		<path fill="#EC1C24" d="M189.491,373.755v-0.048c0-2.736,2.138-4.08,5.238-4.08c1.417,0,2.426,0.216,3.411,0.527v-0.312
			c0-1.8-1.106-2.761-3.147-2.761c-1.106,0-2.018,0.192-2.812,0.505c-0.168,0.048-0.312,0.071-0.457,0.071
			c-0.673,0-1.225-0.527-1.225-1.2c0-0.527,0.36-0.983,0.792-1.151c1.202-0.456,2.427-0.744,4.084-0.744
			c1.898,0,3.316,0.504,4.206,1.416c0.937,0.912,1.368,2.256,1.368,3.912v6.24c0,0.792-0.624,1.393-1.417,1.393
			c-0.841,0-1.418-0.576-1.418-1.225v-0.479c-0.864,1.032-2.186,1.848-4.131,1.848C191.605,377.667,189.491,376.299,189.491,373.755
			z M198.188,372.843v-0.864c-0.745-0.288-1.73-0.504-2.882-0.504c-1.875,0-2.979,0.792-2.979,2.112v0.048
			c0,1.225,1.081,1.92,2.474,1.92C196.724,375.555,198.188,374.451,198.188,372.843z"/>
		<path fill="#EC1C24" d="M206.835,366.051c0-0.816,0.625-1.465,1.442-1.465c0.815,0,1.465,0.648,1.465,1.465v1.296
			c0.672-1.584,1.922-2.784,3.196-2.784c0.913,0,1.44,0.6,1.44,1.439c0,0.769-0.504,1.272-1.153,1.393
			c-2.066,0.36-3.483,1.944-3.483,4.944v3.744c0,0.792-0.649,1.44-1.465,1.44c-0.794,0-1.442-0.624-1.442-1.44V366.051z"/>
		<path fill="#EC1C24" d="M224.542,377.691c-3.676,0-6.511-2.664-6.511-6.576v-0.049c0-3.624,2.571-6.601,6.197-6.601
			c4.037,0,6.031,3.312,6.031,6.241c0,0.815-0.625,1.392-1.37,1.392h-7.951c0.312,2.064,1.777,3.217,3.652,3.217
			c1.224,0,2.186-0.433,3.003-1.104c0.215-0.168,0.408-0.264,0.744-0.264c0.649,0,1.153,0.504,1.153,1.176
			c0,0.36-0.168,0.672-0.385,0.888C227.953,377.043,226.513,377.691,224.542,377.691z M227.425,370.179
			c-0.191-1.872-1.298-3.336-3.22-3.336c-1.777,0-3.026,1.368-3.29,3.336H227.425z"/>
		<path fill="#EC1C24" d="M235.641,366.051c0-0.816,0.623-1.465,1.44-1.465s1.467,0.648,1.467,1.465v0.624
			c0.816-1.177,1.994-2.209,3.963-2.209c2.859,0,4.518,1.921,4.518,4.849v6.769c0,0.816-0.626,1.44-1.442,1.44
			c-0.815,0-1.465-0.624-1.465-1.44v-5.88c0-1.969-0.985-3.097-2.716-3.097c-1.681,0-2.857,1.176-2.857,3.145v5.832
			c0,0.816-0.649,1.44-1.467,1.44c-0.792,0-1.44-0.624-1.44-1.44V366.051z"/>
		<path fill="#EC1C24" d="M253.537,373.899v-6.673h-0.481c-0.696,0-1.249-0.552-1.249-1.248s0.553-1.248,1.249-1.248h0.481v-2.16
			c0-0.792,0.648-1.44,1.466-1.44c0.792,0,1.44,0.648,1.44,1.44v2.16h2.282c0.697,0,1.274,0.552,1.274,1.248
			s-0.577,1.248-1.274,1.248h-2.282v6.217c0,1.128,0.577,1.584,1.562,1.584c0.336,0,0.624-0.072,0.72-0.072
			c0.648,0,1.226,0.528,1.226,1.2c0,0.528-0.359,0.96-0.769,1.128c-0.625,0.216-1.226,0.336-1.994,0.336
			C255.05,377.619,253.537,376.684,253.537,373.899z"/>
	</g>
	<g>
		<path opacity="0" fill="#FFFFFF" d="M206.712,512.236c0,15.654-12.704,28.346-28.372,28.346
			c-15.671,0-28.377-12.691-28.377-28.346c0-15.656,12.706-28.348,28.377-28.348C194.008,483.889,206.712,496.58,206.712,512.236z"
			/>
		<ellipse opacity="0.0208" fill="#FEFEFE" cx="177.747" cy="511.646" rx="28.375" ry="28.346"/>
		<path opacity="0.0417" fill="#FDFDFD" d="M205.529,511.055c0,15.654-12.704,28.347-28.371,28.347
			c-15.672,0-28.378-12.692-28.378-28.347c0-15.656,12.706-28.347,28.378-28.347C192.825,482.708,205.529,495.398,205.529,511.055z"
			/>
		<path opacity="0.0625" fill="#FCFCFC" d="M204.938,510.465c0,15.654-12.704,28.346-28.372,28.346
			c-15.67,0-28.377-12.691-28.377-28.346c0-15.656,12.707-28.348,28.377-28.348C192.234,482.117,204.938,494.809,204.938,510.465z"
			/>
		<ellipse opacity="0.0833" fill="#FBFBFB" cx="175.973" cy="509.873" rx="28.374" ry="28.347"/>
		<ellipse opacity="0.1042" fill="#FAFAFA" cx="175.382" cy="509.283" rx="28.374" ry="28.347"/>
		<ellipse opacity="0.125" fill="#F9F9FA" cx="174.792" cy="508.693" rx="28.375" ry="28.346"/>
		<path opacity="0.1458" fill="#F8F8F9" d="M202.574,508.102c0,15.655-12.704,28.346-28.372,28.346
			c-15.671,0-28.377-12.69-28.377-28.346c0-15.656,12.706-28.347,28.377-28.347C189.87,479.755,202.574,492.445,202.574,508.102z"/>
		<path opacity="0.1667" fill="#F7F8F8" d="M201.983,507.512c0,15.654-12.704,28.346-28.372,28.346
			c-15.671,0-28.377-12.691-28.377-28.346c0-15.656,12.706-28.348,28.377-28.348C189.279,479.164,201.983,491.855,201.983,507.512z"
			/>
		<path opacity="0.1875" fill="#F6F7F7" d="M201.393,506.922c0,15.654-12.704,28.346-28.372,28.346
			c-15.671,0-28.377-12.691-28.377-28.346c0-15.656,12.706-28.348,28.377-28.348C188.688,478.574,201.393,491.266,201.393,506.922z"
			/>
		<path opacity="0.2083" fill="#F5F6F6" d="M200.801,506.33c0,15.654-12.704,28.346-28.372,28.346
			c-15.671,0-28.377-12.691-28.377-28.346c0-15.656,12.706-28.348,28.377-28.348C188.097,477.982,200.801,490.674,200.801,506.33z"
			/>
		<path opacity="0.2292" fill="#F4F5F5" d="M200.21,505.74c0,15.654-12.704,28.346-28.372,28.346
			c-15.67,0-28.377-12.691-28.377-28.346c0-15.656,12.707-28.348,28.377-28.348C187.506,477.393,200.21,490.084,200.21,505.74z"/>
		<ellipse opacity="0.25" fill="#F3F4F4" cx="171.245" cy="505.149" rx="28.375" ry="28.347"/>
		<ellipse opacity="0.2708" fill="#F2F3F3" cx="170.653" cy="504.559" rx="28.375" ry="28.347"/>
		<path opacity="0.2917" fill="#F1F2F2" d="M198.438,503.969c0,15.654-12.705,28.346-28.373,28.346
			c-15.67,0-28.376-12.691-28.376-28.346c0-15.656,12.706-28.348,28.376-28.348C185.732,475.621,198.438,488.312,198.438,503.969z"
			/>
		<ellipse opacity="0.3125" fill="#F0F1F1" cx="169.472" cy="503.378" rx="28.374" ry="28.347"/>
		<ellipse opacity="0.3333" fill="#EFF0F0" cx="168.88" cy="502.787" rx="28.374" ry="28.346"/>
		<path opacity="0.3542" fill="#EEEFEF" d="M196.663,502.196c0,15.655-12.704,28.347-28.372,28.347
			c-15.67,0-28.377-12.691-28.377-28.347c0-15.656,12.707-28.347,28.377-28.347C183.959,473.85,196.663,486.54,196.663,502.196z"/>
		<ellipse opacity="0.375" fill="#EDEEEE" cx="167.698" cy="501.605" rx="28.374" ry="28.347"/>
		<path opacity="0.3958" fill="#ECEDEE" d="M195.481,501.016c0,15.655-12.704,28.347-28.372,28.347
			c-15.67,0-28.377-12.691-28.377-28.347c0-15.656,12.707-28.347,28.377-28.347C182.777,472.669,195.481,485.359,195.481,501.016z"
			/>
		<ellipse opacity="0.4167" fill="#EBECED" cx="166.516" cy="500.425" rx="28.375" ry="28.347"/>
		<ellipse opacity="0.4375" fill="#EAEBEC" cx="165.924" cy="499.834" rx="28.375" ry="28.347"/>
		<path opacity="0.4583" fill="#E9EAEB" d="M193.708,499.244c0,15.654-12.704,28.346-28.372,28.346
			c-15.67,0-28.377-12.691-28.377-28.346c0-15.656,12.707-28.348,28.377-28.348C181.004,470.896,193.708,483.588,193.708,499.244z"
			/>
		<ellipse opacity="0.4792" fill="#E8E9EA" cx="164.743" cy="498.653" rx="28.374" ry="28.347"/>
		<ellipse opacity="0.5" fill="#E7E8E9" cx="164.151" cy="498.062" rx="28.374" ry="28.347"/>
		<ellipse opacity="0.5208" fill="#E7E8E8" cx="163.561" cy="497.473" rx="28.375" ry="28.346"/>
		<ellipse opacity="0.5417" fill="#E6E7E7" cx="162.97" cy="496.881" rx="28.374" ry="28.348"/>
		<ellipse opacity="0.5625" fill="#E5E6E6" cx="162.378" cy="496.291" rx="28.374" ry="28.347"/>
		<ellipse opacity="0.5833" fill="#E4E5E5" cx="161.788" cy="495.7" rx="28.375" ry="28.347"/>
		<ellipse opacity="0.6042" fill="#E3E4E4" cx="161.196" cy="495.109" rx="28.374" ry="28.348"/>
		<ellipse opacity="0.625" fill="#E2E3E3" cx="160.605" cy="494.52" rx="28.375" ry="28.347"/>
		<ellipse opacity="0.6458" fill="#E1E2E3" cx="160.014" cy="493.929" rx="28.375" ry="28.347"/>
		<ellipse opacity="0.6667" fill="#E0E1E2" cx="159.423" cy="493.338" rx="28.374" ry="28.348"/>
		<ellipse opacity="0.6875" fill="#DFE0E1" cx="158.832" cy="492.747" rx="28.374" ry="28.348"/>
		<ellipse opacity="0.7083" fill="#DEDFE0" cx="158.241" cy="492.156" rx="28.374" ry="28.348"/>
		<ellipse opacity="0.7292" fill="#DDDEDF" cx="157.649" cy="491.566" rx="28.374" ry="28.348"/>
		<ellipse opacity="0.75" fill="#DCDDDE" cx="157.059" cy="490.976" rx="28.375" ry="28.347"/>
		<ellipse opacity="0.7708" fill="#DBDCDD" cx="156.468" cy="490.385" rx="28.374" ry="28.348"/>
		<ellipse opacity="0.7917" fill="#DADBDC" cx="155.876" cy="489.795" rx="28.374" ry="28.347"/>
		<ellipse opacity="0.8125" fill="#D9DADB" cx="155.286" cy="489.203" rx="28.375" ry="28.348"/>
		<ellipse opacity="0.8333" fill="#D8DADA" cx="154.694" cy="488.613" rx="28.374" ry="28.348"/>
		<ellipse opacity="0.8542" fill="#D7D9D9" cx="154.104" cy="488.022" rx="28.374" ry="28.348"/>
		<ellipse opacity="0.875" fill="#D6D8D9" cx="153.513" cy="487.432" rx="28.374" ry="28.348"/>
		<ellipse opacity="0.8958" fill="#D5D7D8" cx="152.921" cy="486.842" rx="28.374" ry="28.347"/>
		<ellipse opacity="0.9167" fill="#D4D6D7" cx="152.33" cy="486.251" rx="28.374" ry="28.347"/>
		<ellipse opacity="0.9375" fill="#D3D5D6" cx="151.739" cy="485.66" rx="28.374" ry="28.348"/>
		<path opacity="0.9583" fill="#D2D4D5" d="M179.522,485.069c0,15.656-12.703,28.349-28.374,28.349
			c-15.667,0-28.374-12.692-28.374-28.349s12.707-28.345,28.374-28.345C166.819,456.725,179.522,469.413,179.522,485.069z"/>
		<ellipse opacity="0.9792" fill="#D1D3D4" cx="150.557" cy="484.479" rx="28.374" ry="28.348"/>
		<ellipse fill="#D0D2D3" cx="149.966" cy="483.889" rx="28.374" ry="28.348"/>
	</g>
	<g>
		<ellipse fill="#FFFFFF" cx="149.966" cy="483.889" rx="28.374" ry="28.348"/>
		<path fill="#231F20" d="M149.967,514.236c-16.751,0-30.377-13.614-30.377-30.348c0-16.732,13.626-30.346,30.377-30.346
			c16.749,0,30.375,13.613,30.375,30.346C180.342,500.622,166.716,514.236,149.967,514.236z M149.967,457.543
			c-14.544,0-26.373,11.818-26.373,26.346c0,14.528,11.829,26.348,26.373,26.348c14.542,0,26.371-11.819,26.371-26.348
			C176.338,469.361,164.509,457.543,149.967,457.543z"/>
	</g>
	<g>
		<g>
			<path fill="#EC1C24" d="M149.965,451.205c-1.106,0-2.002-0.896-2.002-2v-163.74c0-1.104,0.896-2,2.002-2
				c1.104,0,2.002,0.896,2.002,2v163.74C151.967,450.31,151.069,451.205,149.965,451.205z"/>
		</g>
		<g>
			<polygon fill="#EC1C24" points="133.59,435.951 136.522,433.223 149.961,447.67 163.403,433.223 166.336,435.951 
				149.961,453.543 			"/>
		</g>
	</g>
	<g>
		<g>
			<path fill="#231F20" d="M149.965,224.434c-1.106,0-2.002-0.896-2.002-2V58.693c0-1.104,0.896-2,2.002-2
				c1.104,0,2.002,0.896,2.002,2v163.74C151.967,223.538,151.069,224.434,149.965,224.434z"/>
		</g>
		<g>
			<polygon fill="#231F20" points="133.59,209.18 136.522,206.451 149.961,220.898 163.403,206.451 166.336,209.18 149.961,226.771 
							"/>
		</g>
	</g>
	<g>
		<path fill="#231F20" d="M148.252,486.323l-6.754-9.268c-0.224-0.336-0.394-0.729-0.394-1.204c0-0.924,0.759-1.652,1.738-1.652
			c0.757,0,1.261,0.42,1.682,1.036l5.466,7.868l5.551-7.896c0.42-0.616,0.924-1.036,1.651-1.036c1.009,0,1.682,0.756,1.682,1.68
			c0,0.476-0.223,0.896-0.476,1.232l-6.699,9.155v6.132c0,0.952-0.757,1.708-1.736,1.708c-0.954,0-1.711-0.756-1.711-1.708V486.323z
			"/>
	</g>
	<g>
		<g>
			<path fill="#231F20" d="M113.251,470.213L113.251,470.213c-0.851-0.699-0.972-1.96-0.271-2.819l0,0
				c0.702-0.851,1.963-0.98,2.813-0.28l0,0l0,0l0,0c0.862,0.71,0.981,1.97,0.281,2.82l0,0c-0.391,0.479-0.972,0.729-1.552,0.729l0,0
				C114.082,470.663,113.631,470.514,113.251,470.213z M107.085,465.054c-0.841-0.721-0.94-1.98-0.221-2.82l0,0
				c0.712-0.84,1.982-0.94,2.823-0.22l0,0c0,0,0,0,0-0.011l0,0c0.841,0.721,0.94,1.98,0.221,2.82l0,0
				c-0.391,0.47-0.962,0.71-1.523,0.71l0,0C107.926,465.533,107.464,465.373,107.085,465.054z M101.019,459.764v0.01
				c-0.831-0.74-0.901-2-0.17-2.83l0,0c0.741-0.82,2.002-0.9,2.833-0.16l0,0c0.82,0.73,0.901,1.99,0.16,2.82l0,0
				c-0.392,0.439-0.94,0.67-1.492,0.67l0,0C101.869,460.273,101.399,460.104,101.019,459.764z M95.063,454.363h-0.01
				c-0.812-0.75-0.853-2.02-0.102-2.83l0,0c0.751-0.81,2.012-0.859,2.833-0.1l0,0c0,0,0,0-0.01,0l0,0
				c0.812,0.74,0.862,2.01,0.111,2.819l0,0c-0.392,0.431-0.933,0.641-1.473,0.641l0,0C95.934,454.894,95.442,454.724,95.063,454.363
				z M89.206,448.833c-0.79-0.77-0.81-2.029-0.039-2.83l0,0c0.771-0.79,2.031-0.81,2.833-0.04l0,0c0.79,0.761,0.812,2.03,0.039,2.82
				l0,0c-0.389,0.41-0.909,0.61-1.431,0.61l0,0C90.107,449.394,89.598,449.203,89.206,448.833z M83.491,443.184h-0.01
				c-0.77-0.79-0.77-2.061,0.021-2.83l0,0c0.779-0.78,2.053-0.771,2.832,0.01l0,0c0.78,0.79,0.771,2.05-0.01,2.83l0,0
				c-0.391,0.39-0.901,0.58-1.411,0.58l0,0C84.393,443.773,83.883,443.573,83.491,443.184z M77.887,437.403L77.887,437.403
				c-0.761-0.8-0.722-2.07,0.08-2.83l0,0c0.8-0.76,2.061-0.72,2.823,0.08l0,0c0,0,0,0,0.01,0l0,0c0.751,0.8,0.72,2.06-0.08,2.82l0,0
				c-0.392,0.37-0.882,0.55-1.383,0.55l0,0C78.808,438.023,78.275,437.813,77.887,437.403z M72.42,431.493L72.42,431.493
				c-0.74-0.819-0.68-2.08,0.142-2.819l0,0c0.82-0.75,2.082-0.681,2.832,0.14l0,0c0.741,0.82,0.671,2.08-0.15,2.82l0,0
				c-0.379,0.35-0.86,0.52-1.341,0.52l0,0C73.362,432.153,72.812,431.934,72.42,431.493z M67.085,425.463
				c-0.72-0.84-0.63-2.1,0.211-2.819l0,0c0.841-0.72,2.102-0.63,2.823,0.21l0,0c0.72,0.84,0.63,2.1-0.211,2.82l0,0
				c-0.379,0.319-0.841,0.479-1.3,0.479l0,0C68.037,426.153,67.485,425.924,67.085,425.463z M61.9,419.304
				c-0.7-0.851-0.581-2.11,0.279-2.811l0,0c0.853-0.7,2.113-0.58,2.813,0.271l0,0c0.702,0.859,0.581,2.12-0.27,2.819l0,0
				c-0.382,0.301-0.831,0.45-1.271,0.45l0,0C62.872,420.033,62.301,419.783,61.9,419.304z M56.866,413.023
				c-0.681-0.87-0.521-2.13,0.35-2.811l0,0c0.87-0.68,2.133-0.52,2.813,0.351l0,0c0.681,0.87,0.521,2.13-0.352,2.81l0,0
				c-0.36,0.28-0.8,0.42-1.23,0.42l0,0C57.857,413.793,57.267,413.523,56.866,413.023z M51.99,406.613L51.99,406.613
				c-0.661-0.89-0.469-2.14,0.42-2.8l0,0c0.892-0.66,2.144-0.47,2.804,0.42l0,0l0,0l0,0c0.651,0.89,0.472,2.14-0.42,2.8l0,0
				c-0.36,0.26-0.78,0.391-1.19,0.391l0,0C52.991,407.424,52.381,407.144,51.99,406.613z M47.286,400.073
				c-0.641-0.899-0.41-2.149,0.491-2.78l0,0c0.901-0.63,2.152-0.409,2.792,0.49l0,0c0.631,0.9,0.41,2.15-0.501,2.79l0,0
				c-0.35,0.24-0.751,0.36-1.14,0.36l0,0C48.297,400.934,47.678,400.634,47.286,400.073z M42.753,393.424
				c-0.612-0.931-0.362-2.171,0.568-2.78l0,0c0.921-0.601,2.162-0.351,2.774,0.569l0,0c0.601,0.921,0.35,2.16-0.57,2.771l0,0
				c-0.341,0.229-0.722,0.33-1.102,0.33l0,0C43.773,394.313,43.132,394.003,42.753,393.424z M38.396,386.634
				c-0.58-0.931-0.289-2.171,0.651-2.75l0,0c0.931-0.591,2.172-0.301,2.753,0.64l0,0l0,0l0,0c0.58,0.939,0.301,2.17-0.642,2.76l0,0
				c-0.328,0.2-0.7,0.3-1.06,0.3l0,0C39.438,387.583,38.778,387.243,38.396,386.634z M34.244,379.733
				c-0.561-0.95-0.24-2.18,0.72-2.73l0,0c0.952-0.56,2.182-0.239,2.733,0.721l0,0l0,0l0,0c0.561,0.95,0.24,2.18-0.722,2.739l0,0
				c-0.309,0.181-0.661,0.271-1.001,0.271l0,0C35.284,380.733,34.614,380.373,34.244,379.733z M30.279,372.713
				c-0.52-0.97-0.17-2.18,0.802-2.71l0,0c0.97-0.529,2.191-0.17,2.712,0.801l0,0c0.531,0.97,0.18,2.189-0.79,2.71l0,0
				c-0.311,0.17-0.642,0.25-0.962,0.25l0,0C31.331,373.764,30.649,373.384,30.279,372.713z M26.526,365.583L26.526,365.583
				c-0.491-0.979-0.101-2.189,0.891-2.689l0,0c0.979-0.5,2.183-0.101,2.683,0.89l0,0c0.501,0.98,0.109,2.18-0.882,2.68l0,0
				c-0.289,0.15-0.6,0.221-0.899,0.221l0,0C27.588,366.684,26.886,366.283,26.526,365.583z M22.993,358.344L22.993,358.344
				c-0.471-1-0.041-2.19,0.96-2.66l0,0c1.001-0.471,2.191-0.04,2.663,0.96l0,0c0.471,1,0.041,2.189-0.96,2.66l0,0
				c-0.272,0.13-0.562,0.189-0.853,0.189l0,0C24.053,359.493,23.333,359.063,22.993,358.344z M19.689,351.003
				c-0.44-1.01,0.029-2.189,1.052-2.619l0,0c1.011-0.44,2.191,0.02,2.621,1.04l0,0l0,0l0,0c0.44,1.01-0.029,2.189-1.04,2.63l0,0
				c-0.26,0.109-0.531,0.159-0.791,0.159l0,0C20.751,352.213,20.02,351.764,19.689,351.003z M16.616,343.573
				c-0.401-1.03,0.1-2.189,1.132-2.6l0,0c1.03-0.4,2.182,0.1,2.592,1.13l0,0c0.411,1.03-0.1,2.189-1.132,2.59l0,0
				c-0.24,0.1-0.479,0.14-0.729,0.14l0,0C17.678,344.833,16.927,344.354,16.616,343.573z M13.783,336.033
				c-0.37-1.04,0.17-2.18,1.212-2.55l0,0c1.04-0.38,2.182,0.16,2.552,1.21l0,0c0.381,1.03-0.161,2.18-1.211,2.55l0,0
				c-0.221,0.08-0.451,0.12-0.67,0.12l0,0C14.845,337.363,14.074,336.854,13.783,336.033z M11.19,328.403
				c-0.33-1.05,0.25-2.18,1.302-2.51l0,0c1.051-0.34,2.183,0.24,2.513,1.29l0,0c0.34,1.05-0.24,2.18-1.292,2.52l0,0
				c-0.199,0.061-0.409,0.09-0.61,0.09l0,0C12.252,329.793,11.46,329.253,11.19,328.403z M8.858,320.693
				c-0.299-1.06,0.311-2.17,1.382-2.47l0,0c1.062-0.3,2.172,0.31,2.472,1.38l0,0l0,0l0,0c0.301,1.06-0.319,2.17-1.381,2.47l0,0
				c-0.18,0.05-0.359,0.08-0.541,0.08l0,0C9.91,322.153,9.108,321.573,8.858,320.693z M6.786,312.903
				c-0.26-1.07,0.391-2.16,1.462-2.42l0,0c1.071-0.271,2.162,0.39,2.423,1.46l0,0c0.27,1.07-0.392,2.16-1.463,2.42l0,0
				c-0.158,0.04-0.318,0.061-0.479,0.061l0,0C7.828,314.424,7.017,313.813,6.786,312.903z M4.985,305.043
				c-0.23-1.08,0.459-2.14,1.541-2.369l0,0c1.081-0.23,2.143,0.46,2.373,1.539l0,0c0.229,1.08-0.462,2.15-1.543,2.37l0,0
				c-0.139,0.03-0.279,0.051-0.42,0.051l0,0C6.016,306.634,5.185,305.983,4.985,305.043z M3.452,297.123
				c-0.189-1.09,0.532-2.12,1.623-2.31l0,0c1.091-0.19,2.131,0.53,2.322,1.62l0,0c0.19,1.09-0.541,2.12-1.632,2.319l0,0
				c-0.109,0.021-0.23,0.03-0.341,0.03l0,0C4.465,298.783,3.623,298.094,3.452,297.123z M2.191,289.153
				c-0.148-1.1,0.612-2.11,1.713-2.26l0,0c1.091-0.15,2.102,0.609,2.252,1.71l0,0c0.16,1.09-0.609,2.1-1.703,2.25l0,0
				c-0.09,0.02-0.189,0.02-0.279,0.02l0,0C3.192,290.873,2.332,290.153,2.191,289.153z M1.222,281.134
				c-0.121-1.101,0.681-2.08,1.781-2.19l0,0c1.101-0.12,2.082,0.68,2.201,1.78l0,0c0.111,1.1-0.689,2.08-1.791,2.2l0,0
				c-0.061,0-0.131,0.01-0.199,0.01l0,0C2.191,282.934,1.321,282.163,1.222,281.134z M0.53,273.094L0.53,273.094
				c-0.081-1.11,0.75-2.061,1.862-2.141l0,0c1.101-0.069,2.051,0.76,2.132,1.86l0,0l0,0l0,0c0.07,1.1-0.761,2.06-1.861,2.13l0,0
				c-0.051,0.01-0.09,0.01-0.141,0.01l0,0C1.481,274.953,0.601,274.144,0.53,273.094z M0.119,265.014L0.119,265.014
				c-0.039-1.101,0.831-2.03,1.934-2.061l0,0c1.11-0.04,2.031,0.83,2.07,1.931l0,0l0,0l0,0c0.031,1.1-0.829,2.029-1.932,2.069l0,0
				c-0.029,0-0.049,0-0.07,0l0,0C1.042,266.953,0.15,266.094,0.119,265.014z M1.992,258.934c-1.101,0-1.992-0.891-1.992-2l0,0
				c0-1.101,0.901-2,2.002-1.99l0,0c1.11,0,2.002,0.89,2.002,2l0,0c-0.01,1.1-0.901,1.99-2.002,1.99l0,0H1.992z M2.082,250.943
				c-1.101-0.04-1.963-0.97-1.922-2.08v0.01c0.039-1.109,0.972-1.97,2.072-1.93l0,0c1.11,0.04,1.971,0.97,1.932,2.08l0,0l0,0l0,0
				c-0.041,1.07-0.931,1.92-2.002,1.92l0,0C2.133,250.943,2.111,250.943,2.082,250.943z M2.451,242.974
				c-1.101-0.09-1.931-1.04-1.851-2.141l0,0c0.08-1.109,1.042-1.93,2.152-1.85l0,0c1.101,0.08,1.932,1.04,1.842,2.14l0,0
				c-0.07,1.051-0.95,1.851-1.992,1.851l0,0C2.554,242.974,2.503,242.974,2.451,242.974z M3.112,235.014
				c-1.101-0.12-1.9-1.11-1.781-2.21l0,0c0.119-1.101,1.11-1.891,2.214-1.771l0,0c1.091,0.12,1.89,1.11,1.771,2.2l0,0l0,0l0,0
				c-0.111,1.03-0.981,1.79-1.992,1.79l0,0C3.253,235.023,3.183,235.023,3.112,235.014z M4.033,227.083
				c-1.091-0.17-1.852-1.18-1.691-2.27l0,0c0.161-1.101,1.172-1.851,2.272-1.7l0,0c1.091,0.16,1.853,1.18,1.692,2.271l0,0
				c-0.141,1-1.001,1.72-1.982,1.72l0,0C4.234,227.104,4.135,227.094,4.033,227.083z M5.245,219.184
				c-1.081-0.2-1.812-1.24-1.61-2.33l0,0c0.199-1.08,1.239-1.811,2.32-1.61l0,0c1.093,0.19,1.812,1.23,1.623,2.32l0,0l0,0l0,0
				c-0.181,0.97-1.021,1.649-1.973,1.649l0,0C5.485,219.213,5.364,219.203,5.245,219.184z M6.737,211.323
				c-1.081-0.24-1.771-1.3-1.533-2.38l0,0c0.23-1.08,1.303-1.76,2.374-1.53l0,0c1.081,0.23,1.771,1.3,1.54,2.38l0,0
				c-0.199,0.931-1.04,1.57-1.961,1.57l0,0C7.017,211.363,6.876,211.354,6.737,211.323z M8.498,203.523
				c-1.071-0.28-1.722-1.36-1.45-2.43l0,0c0.27-1.07,1.36-1.721,2.432-1.45l0,0c1.061,0.27,1.721,1.35,1.441,2.43l0,0
				c-0.221,0.9-1.042,1.51-1.932,1.51l0,0C8.819,203.583,8.659,203.563,8.498,203.523z M10.521,195.773
				c-1.062-0.3-1.672-1.41-1.361-2.47l0,0c0.299-1.061,1.412-1.681,2.472-1.37l0,0c1.062,0.31,1.673,1.42,1.372,2.479l0,0l0,0l0,0
				c-0.26,0.87-1.062,1.44-1.932,1.44l0,0C10.892,195.854,10.7,195.833,10.521,195.773z M12.813,188.104
				c-1.052-0.34-1.633-1.47-1.292-2.521l0,0c0.34-1.05,1.472-1.62,2.521-1.279l0,0c1.052,0.34,1.633,1.47,1.292,2.52l0,0l0,0l0,0
				c-0.279,0.851-1.062,1.38-1.912,1.38l0,0C13.224,188.203,13.013,188.174,12.813,188.104z M15.354,180.514
				c-1.04-0.38-1.581-1.521-1.2-2.561l0,0c0.38-1.04,1.521-1.58,2.562-1.2l0,0c1.042,0.381,1.581,1.521,1.202,2.561l0,0l0,0l0,0
				c-0.291,0.82-1.062,1.32-1.883,1.32l0,0C15.807,180.634,15.576,180.594,15.354,180.514z M18.148,173.003
				c-1.032-0.409-1.532-1.569-1.122-2.6l0,0c0.41-1.02,1.582-1.52,2.603-1.11l0,0c1.032,0.41,1.532,1.57,1.122,2.601l0,0
				c-0.321,0.78-1.071,1.26-1.863,1.26l0,0C18.638,173.153,18.387,173.104,18.148,173.003z M21.181,165.594
				c-1.011-0.45-1.481-1.62-1.03-2.641l0,0c0.44-1.01,1.621-1.47,2.632-1.029l0,0c1.011,0.439,1.481,1.619,1.032,2.63l0,0
				c-0.331,0.76-1.062,1.199-1.832,1.199l0,0C21.711,165.753,21.44,165.703,21.181,165.594z M24.453,158.273
				c-1.001-0.48-1.431-1.67-0.949-2.67l0,0c0.469-1,1.661-1.42,2.662-0.95l0,0c1.001,0.47,1.422,1.67,0.95,2.67l0,0
				c-0.34,0.72-1.062,1.14-1.812,1.14l0,0C25.015,158.463,24.724,158.403,24.453,158.273z M27.947,151.054
				c-0.981-0.5-1.38-1.71-0.87-2.69l0,0c0.501-0.979,1.711-1.37,2.692-0.87l0,0c0.981,0.5,1.37,1.71,0.87,2.69l0,0
				c-0.36,0.689-1.06,1.09-1.781,1.09l0,0C28.548,151.273,28.238,151.203,27.947,151.054z M31.65,143.963
				c-0.97-0.529-1.32-1.75-0.79-2.72l0,0c0.529-0.96,1.752-1.319,2.714-0.79l0,0c0.97,0.54,1.329,1.75,0.789,2.721l0,0
				c-0.359,0.659-1.052,1.039-1.751,1.039l0,0C32.281,144.213,31.951,144.134,31.65,143.963z M35.564,136.983
				c-0.96-0.56-1.271-1.79-0.71-2.74l0,0c0.561-0.95,1.781-1.27,2.733-0.71l0,0c0.96,0.561,1.271,1.79,0.709,2.74l0,0
				c-0.369,0.63-1.04,0.99-1.72,0.99l0,0C36.225,137.264,35.875,137.174,35.564,136.983z M39.67,130.123
				c-0.933-0.59-1.223-1.83-0.632-2.76l0,0c0.591-0.939,1.822-1.22,2.763-0.63l0,0c0.931,0.58,1.222,1.82,0.631,2.75l0,0
				c-0.381,0.61-1.032,0.94-1.702,0.94l0,0C40.369,130.424,40,130.323,39.67,130.123z M43.973,123.373
				c-0.921-0.609-1.171-1.85-0.562-2.77l0,0c0.622-0.92,1.863-1.17,2.784-0.561l0,0c0.921,0.61,1.161,1.86,0.55,2.771l0,0
				c-0.38,0.58-1.021,0.899-1.672,0.899l0,0C44.704,123.713,44.312,123.604,43.973,123.373z M48.457,116.743
				c-0.9-0.63-1.12-1.88-0.48-2.78l0,0c0.642-0.909,1.893-1.119,2.794-0.489l0,0c0.899,0.64,1.11,1.89,0.479,2.79l0,0
				c-0.389,0.55-1.011,0.85-1.64,0.85l0,0C49.208,117.113,48.808,116.993,48.457,116.743z M53.122,110.243
				c-0.892-0.66-1.071-1.92-0.41-2.8l0,0c0.66-0.89,1.912-1.07,2.804-0.41l0,0c0.879,0.66,1.06,1.91,0.408,2.8l0,0
				c-0.398,0.53-1.001,0.801-1.611,0.801l0,0C53.893,110.634,53.472,110.503,53.122,110.243z M57.947,103.863
				c-0.872-0.689-1.022-1.939-0.34-2.81l0,0c0.68-0.87,1.941-1.021,2.811-0.341l0,0c0.872,0.681,1.022,1.94,0.341,2.811l0,0
				c-0.399,0.5-0.989,0.77-1.582,0.77l0,0C58.747,104.293,58.307,104.153,57.947,103.863z M62.931,97.604
				c-0.851-0.71-0.97-1.97-0.26-2.82l0,0c0.701-0.85,1.963-0.97,2.812-0.27l0,0c0.851,0.71,0.972,1.97,0.271,2.819l0,0l0,0l0,0
				c-0.399,0.48-0.97,0.73-1.541,0.73l0,0C63.762,98.063,63.302,97.913,62.931,97.604z M68.066,91.474
				c-0.831-0.73-0.921-1.99-0.189-2.82l0,0c0.72-0.84,1.992-0.93,2.823-0.2l0,0c0.831,0.721,0.921,1.98,0.199,2.82l0,0
				c-0.401,0.45-0.962,0.68-1.521,0.68l0,0C68.917,91.953,68.447,91.793,68.066,91.474z M73.362,85.463
				c-0.82-0.75-0.882-2.01-0.141-2.829l0,0c0.751-0.82,2.012-0.881,2.833-0.131l0,0c0.821,0.74,0.88,2.011,0.129,2.82l0,0
				c-0.389,0.44-0.94,0.66-1.479,0.66l0,0C74.223,85.983,73.742,85.804,73.362,85.463z M78.776,79.573
				c-0.79-0.76-0.819-2.03-0.059-2.83l0,0c0.76-0.79,2.021-0.83,2.823-0.06l0,0c0.799,0.76,0.83,2.02,0.068,2.819l0,0
				c-0.39,0.421-0.921,0.62-1.451,0.62l0,0C79.668,80.123,79.167,79.943,78.776,79.573z M84.342,73.813
				c-0.779-0.78-0.789-2.04-0.01-2.83l0,0c0.78-0.78,2.053-0.78,2.833,0l0,0c0.78,0.78,0.78,2.05,0.01,2.83l0,0l0,0l0,0
				c-0.391,0.39-0.911,0.58-1.421,0.58l0,0C85.243,74.394,84.733,74.203,84.342,73.813z M90.027,68.184
				c-0.771-0.8-0.751-2.07,0.051-2.83l0,0c0.802-0.771,2.062-0.74,2.833,0.05l0,0c0.761,0.8,0.741,2.07-0.061,2.83l0,0
				c-0.392,0.37-0.88,0.56-1.381,0.56l0,0C90.938,68.793,90.418,68.583,90.027,68.184z M95.824,62.663
				c-0.751-0.81-0.69-2.069,0.119-2.819l0,0c0.812-0.75,2.072-0.7,2.823,0.109l0,0c0.751,0.811,0.699,2.08-0.109,2.83l0,0
				c-0.392,0.351-0.872,0.53-1.363,0.53l0,0C96.755,63.313,96.225,63.094,95.824,62.663z M101.75,57.273
				c-0.741-0.82-0.661-2.09,0.17-2.82l0,0c0.831-0.729,2.092-0.649,2.823,0.17l0,0c0.729,0.83,0.65,2.101-0.17,2.83l0,0l0,0l0,0
				c-0.392,0.33-0.862,0.5-1.332,0.5l0,0C102.69,57.953,102.141,57.724,101.75,57.273z M107.766,52.014
				c-0.712-0.851-0.61-2.11,0.24-2.82l0,0c0.841-0.72,2.102-0.61,2.813,0.23l0,0c0.72,0.84,0.609,2.1-0.23,2.819l0,0
				c-0.372,0.32-0.831,0.47-1.293,0.47l0,0C108.726,52.713,108.166,52.474,107.766,52.014z M113.902,46.863
				c-0.702-0.86-0.571-2.12,0.279-2.82l0,0c0.86-0.689,2.121-0.569,2.823,0.29l0,0c0.7,0.851,0.571,2.12-0.291,2.811l0,0
				c-0.37,0.31-0.821,0.45-1.262,0.45l0,0C114.872,47.594,114.291,47.344,113.902,46.863z M120.127,41.833
				c-0.681-0.87-0.529-2.13,0.34-2.81v0.01c0.872-0.689,2.134-0.53,2.813,0.34l0,0c0.681,0.86,0.53,2.12-0.34,2.801l0,0l0,0l0,0
				c-0.371,0.289-0.802,0.43-1.231,0.43l0,0C121.108,42.604,120.528,42.344,120.127,41.833z"/>
		</g>
		<g>
			<polygon fill="#231F20" points="97.296,475.577 97.048,471.582 116.753,470.374 114.105,450.826 118.078,450.294 
				121.294,474.101 			"/>
		</g>
	</g>
	<g>
		<ellipse fill="#FFFFFF" cx="149.966" cy="30.348" rx="28.374" ry="28.346"/>
		<path fill="#231F20" d="M149.967,60.693c-16.751,0-30.377-13.613-30.377-30.346C119.59,13.614,133.216,0,149.967,0
			c16.749,0,30.375,13.614,30.375,30.348C180.342,47.08,166.716,60.693,149.967,60.693z M149.967,4
			c-14.544,0-26.373,11.819-26.373,26.348c0,14.527,11.829,26.346,26.373,26.346c14.542,0,26.371-11.818,26.371-26.346
			C176.338,15.819,164.509,4,149.967,4z"/>
	</g>
	<g>
		<path fill="#231F20" d="M141.977,37.652l5.83-7.224l-5.494-6.804c-0.279-0.364-0.531-0.812-0.531-1.288
			c0-0.952,0.729-1.681,1.71-1.681c0.728,0,1.148,0.28,1.568,0.84l4.962,6.524l4.905-6.412c0.447-0.616,0.925-0.952,1.682-0.952
			c0.756,0,1.569,0.616,1.569,1.568c0,0.504-0.197,0.896-0.533,1.316l-5.494,6.831l5.775,7.196c0.279,0.364,0.531,0.784,0.531,1.288
			c0,0.952-0.729,1.68-1.71,1.68c-0.728,0-1.147-0.279-1.568-0.84l-5.269-6.859l-5.187,6.748c-0.476,0.615-0.925,0.951-1.682,0.951
			c-0.784,0-1.57-0.615-1.57-1.596C141.472,38.465,141.67,38.072,141.977,37.652z"/>
	</g>
</g>
</svg>
