<?xml version="1.0" encoding="utf-8"?>
<!-- Generator: Adobe Illustrator 16.0.0, SVG Export Plug-In . SVG Version: 6.00 Build 0)  -->
<!DOCTYPE svg PUBLIC "-//W3C//DTD SVG 1.1//EN" "http://www.w3.org/Graphics/SVG/1.1/DTD/svg11.dtd" [
	<!ENTITY ns_extend "http://ns.adobe.com/Extensibility/1.0/">
	<!ENTITY ns_ai "http://ns.adobe.com/AdobeIllustrator/10.0/">
	<!ENTITY ns_graphs "http://ns.adobe.com/Graphs/1.0/">
	<!ENTITY ns_vars "http://ns.adobe.com/Variables/1.0/">
	<!ENTITY ns_imrep "http://ns.adobe.com/ImageReplacement/1.0/">
	<!ENTITY ns_sfw "http://ns.adobe.com/SaveForWeb/1.0/">
	<!ENTITY ns_custom "http://ns.adobe.com/GenericCustomNamespace/1.0/">
	<!ENTITY ns_adobe_xpath "http://ns.adobe.com/XPath/1.0/">
]>
<svg version="1.1" id="Layer_1" xmlns:x="&ns_extend;" xmlns:i="&ns_ai;" xmlns:graph="&ns_graphs;"
	 xmlns="http://www.w3.org/2000/svg" xmlns:xlink="http://www.w3.org/1999/xlink" x="0px" y="0px" width="206px" height="541px"
	 viewBox="0 0 206 541" enable-background="new 0 0 206 541" xml:space="preserve">
<metadata>
	<sfw  xmlns="&ns_sfw;">
		<slices></slices>
		<sliceSourceBounds  width="2857.654" height="4704.053" bottomLeftOrigin="true" y="-4967.661" x="79.346"></sliceSourceBounds>
	</sfw>
</metadata>
<g>
	<g>
		<path opacity="0" fill="#FFFFFF" d="M205.998,58.732c0,15.654-12.66,28.346-28.273,28.346c-15.617,0-28.279-12.691-28.279-28.346
			c0-15.656,12.662-28.348,28.279-28.348C193.338,30.385,205.998,43.076,205.998,58.732z"/>
		<path opacity="0.0208" fill="#FEFEFE" d="M205.408,58.142c0,15.655-12.659,28.346-28.272,28.346
			c-15.617,0-28.28-12.69-28.28-28.346c0-15.656,12.663-28.348,28.28-28.348C192.749,29.794,205.408,42.485,205.408,58.142z"/>
		<ellipse opacity="0.0417" fill="#FDFDFD" cx="176.544" cy="57.551" rx="28.276" ry="28.347"/>
		<ellipse opacity="0.0625" fill="#FCFCFC" cx="175.955" cy="56.961" rx="28.277" ry="28.346"/>
		<path opacity="0.0833" fill="#FBFBFB" d="M203.642,56.37c0,15.654-12.66,28.346-28.273,28.346
			c-15.617,0-28.279-12.691-28.279-28.346c0-15.656,12.662-28.348,28.279-28.348C190.981,28.022,203.642,40.714,203.642,56.37z"/>
		<path opacity="0.1042" fill="#FAFAFA" d="M203.053,55.779c0,15.654-12.66,28.347-28.273,28.347
			c-15.617,0-28.279-12.692-28.279-28.347c0-15.656,12.662-28.347,28.279-28.347C190.393,27.433,203.053,40.123,203.053,55.779z"/>
		<path opacity="0.125" fill="#F9F9FA" d="M202.464,55.189c0,15.654-12.66,28.346-28.273,28.346
			c-15.617,0-28.279-12.691-28.279-28.346c0-15.656,12.662-28.348,28.279-28.348C189.804,26.842,202.464,39.533,202.464,55.189z"/>
		<ellipse opacity="0.1458" fill="#F8F8F9" cx="173.598" cy="54.598" rx="28.277" ry="28.347"/>
		<ellipse opacity="0.1667" fill="#F7F8F8" cx="173.009" cy="54.008" rx="28.276" ry="28.346"/>
		<ellipse opacity="0.1875" fill="#F6F7F7" cx="172.421" cy="53.418" rx="28.277" ry="28.346"/>
		<ellipse opacity="0.2083" fill="#F5F6F6" cx="171.831" cy="52.826" rx="28.276" ry="28.347"/>
		<ellipse opacity="0.2292" fill="#F4F5F5" cx="171.242" cy="52.236" rx="28.276" ry="28.346"/>
		<path opacity="0.25" fill="#F3F4F4" d="M198.93,51.646c0,15.655-12.66,28.347-28.273,28.347
			c-15.617,0-28.279-12.691-28.279-28.347c0-15.656,12.662-28.347,28.279-28.347C186.27,23.299,198.93,35.989,198.93,51.646z"/>
		<ellipse opacity="0.2708" fill="#F2F3F3" cx="170.064" cy="51.055" rx="28.276" ry="28.347"/>
		<ellipse opacity="0.2917" fill="#F1F2F2" cx="169.476" cy="50.465" rx="28.276" ry="28.346"/>
		<ellipse opacity="0.3125" fill="#F0F1F1" cx="168.887" cy="49.874" rx="28.276" ry="28.347"/>
		<ellipse opacity="0.3333" fill="#EFF0F0" cx="168.297" cy="49.283" rx="28.277" ry="28.347"/>
		<ellipse opacity="0.3542" fill="#EEEFEF" cx="167.708" cy="48.692" rx="28.276" ry="28.347"/>
		<ellipse opacity="0.375" fill="#EDEEEE" cx="167.119" cy="48.102" rx="28.276" ry="28.347"/>
		<ellipse opacity="0.3958" fill="#ECEDEE" cx="166.53" cy="47.512" rx="28.276" ry="28.347"/>
		<ellipse opacity="0.4167" fill="#EBECED" cx="165.941" cy="46.921" rx="28.276" ry="28.347"/>
		<ellipse opacity="0.4375" fill="#EAEBEC" cx="165.352" cy="46.33" rx="28.277" ry="28.347"/>
		<ellipse opacity="0.4583" fill="#E9EAEB" cx="164.763" cy="45.74" rx="28.276" ry="28.346"/>
		<ellipse opacity="0.4792" fill="#E8E9EA" cx="164.175" cy="45.149" rx="28.277" ry="28.347"/>
		<ellipse opacity="0.5" fill="#E7E8E9" cx="163.585" cy="44.559" rx="28.276" ry="28.347"/>
		<ellipse opacity="0.5208" fill="#E7E8E8" cx="162.996" cy="43.969" rx="28.276" ry="28.346"/>
		<ellipse opacity="0.5417" fill="#E6E7E7" cx="162.407" cy="43.377" rx="28.276" ry="28.348"/>
		<ellipse opacity="0.5625" fill="#E5E6E6" cx="161.818" cy="42.787" rx="28.276" ry="28.347"/>
		<ellipse opacity="0.5833" fill="#E4E5E5" cx="161.229" cy="42.196" rx="28.276" ry="28.347"/>
		<ellipse opacity="0.6042" fill="#E3E4E4" cx="160.64" cy="41.605" rx="28.276" ry="28.348"/>
		<ellipse opacity="0.625" fill="#E2E3E3" cx="160.051" cy="41.016" rx="28.276" ry="28.347"/>
		<ellipse opacity="0.6458" fill="#E1E2E3" cx="159.462" cy="40.425" rx="28.276" ry="28.347"/>
		<ellipse opacity="0.6667" fill="#E0E1E2" cx="158.873" cy="39.834" rx="28.276" ry="28.347"/>
		<ellipse opacity="0.6875" fill="#DFE0E1" cx="158.283" cy="39.244" rx="28.276" ry="28.346"/>
		<ellipse opacity="0.7083" fill="#DEDFE0" cx="157.694" cy="38.652" rx="28.276" ry="28.348"/>
		<ellipse opacity="0.7292" fill="#DDDEDF" cx="157.105" cy="38.062" rx="28.276" ry="28.347"/>
		<path opacity="0.75" fill="#DCDDDE" d="M184.793,37.472c0,15.656-12.659,28.348-28.275,28.348
			c-15.614,0-28.277-12.691-28.277-28.348s12.664-28.346,28.277-28.346C172.134,9.126,184.793,21.815,184.793,37.472z"/>
		<path opacity="0.7708" fill="#DBDCDD" d="M184.204,36.881c0,15.656-12.659,28.348-28.275,28.348
			c-15.614,0-28.278-12.691-28.278-28.348s12.664-28.346,28.278-28.346C171.545,8.535,184.204,21.225,184.204,36.881z"/>
		<ellipse opacity="0.7917" fill="#DADBDC" cx="155.339" cy="36.29" rx="28.276" ry="28.348"/>
		<ellipse opacity="0.8125" fill="#D9DADB" cx="154.75" cy="35.7" rx="28.277" ry="28.347"/>
		<ellipse opacity="0.8333" fill="#D8DADA" cx="154.16" cy="35.109" rx="28.276" ry="28.348"/>
		<ellipse opacity="0.8542" fill="#D7D9D9" cx="153.572" cy="34.519" rx="28.276" ry="28.348"/>
		<path opacity="0.875" fill="#D6D8D9" d="M181.259,33.929c0,15.655-12.659,28.347-28.275,28.347
			c-15.613,0-28.277-12.691-28.277-28.347c0-15.656,12.664-28.347,28.277-28.347C168.6,5.582,181.259,18.272,181.259,33.929z"/>
		<path opacity="0.8958" fill="#D5D7D8" d="M180.67,33.338c0,15.656-12.659,28.348-28.275,28.348
			c-15.613,0-28.278-12.691-28.278-28.348s12.665-28.347,28.278-28.347C168.011,4.991,180.67,17.682,180.67,33.338z"/>
		<path opacity="0.9167" fill="#D4D6D7" d="M180.081,32.747c0,15.656-12.659,28.348-28.275,28.348
			c-15.614,0-28.277-12.691-28.277-28.348s12.664-28.346,28.277-28.346C167.422,4.401,180.081,17.091,180.081,32.747z"/>
		<path opacity="0.9375" fill="#D3D5D6" d="M179.491,32.156c0,15.656-12.658,28.348-28.275,28.348
			c-15.613,0-28.277-12.691-28.277-28.348s12.664-28.346,28.277-28.346C166.833,3.811,179.491,16.5,179.491,32.156z"/>
		<path opacity="0.9583" fill="#D2D4D5" d="M178.903,31.566c0,15.656-12.66,28.347-28.276,28.347
			c-15.613,0-28.277-12.69-28.277-28.347S135.014,3.22,150.627,3.22C166.243,3.22,178.903,15.91,178.903,31.566z"/>
		<path opacity="0.9792" fill="#D1D3D4" d="M178.313,30.975c0,15.656-12.659,28.349-28.275,28.349
			c-15.613,0-28.277-12.692-28.277-28.349S134.425,2.63,150.038,2.63C165.654,2.63,178.313,15.318,178.313,30.975z"/>
		<path fill="#D0D2D3" d="M177.725,30.385c0,15.656-12.659,28.348-28.275,28.348c-15.613,0-28.277-12.691-28.277-28.348
			s12.664-28.346,28.277-28.346C165.065,2.039,177.725,14.729,177.725,30.385z"/>
	</g>
	<g>
		<path opacity="0" fill="#FFFFFF" d="M205.998,285.502c0,15.656-12.66,28.348-28.273,28.348c-15.617,0-28.279-12.691-28.279-28.348
			s12.662-28.346,28.279-28.346C193.338,257.156,205.998,269.846,205.998,285.502z"/>
		<path opacity="0.0208" fill="#FEFEFE" d="M205.408,284.911c0,15.656-12.659,28.348-28.272,28.348
			c-15.617,0-28.28-12.691-28.28-28.348s12.663-28.346,28.28-28.346C192.749,256.565,205.408,269.255,205.408,284.911z"/>
		<ellipse opacity="0.0417" fill="#FDFDFD" cx="176.544" cy="284.32" rx="28.276" ry="28.349"/>
		<ellipse opacity="0.0625" fill="#FCFCFC" cx="175.955" cy="283.73" rx="28.277" ry="28.348"/>
		<path opacity="0.0833" fill="#FBFBFB" d="M203.642,283.141c0,15.656-12.66,28.346-28.273,28.346
			c-15.617,0-28.279-12.689-28.279-28.346s12.662-28.347,28.279-28.347C190.981,254.794,203.642,267.484,203.642,283.141z"/>
		<path opacity="0.1042" fill="#FAFAFA" d="M203.053,282.549c0,15.656-12.66,28.349-28.273,28.349
			c-15.617,0-28.279-12.692-28.279-28.349s12.662-28.345,28.279-28.345C190.393,254.204,203.053,266.893,203.053,282.549z"/>
		<path opacity="0.125" fill="#F9F9FA" d="M202.464,281.959c0,15.656-12.66,28.348-28.273,28.348
			c-15.617,0-28.279-12.691-28.279-28.348s12.662-28.346,28.279-28.346C189.804,253.613,202.464,266.303,202.464,281.959z"/>
		<ellipse opacity="0.1458" fill="#F8F8F9" cx="173.598" cy="281.368" rx="28.277" ry="28.348"/>
		<ellipse opacity="0.1667" fill="#F7F8F8" cx="173.009" cy="280.777" rx="28.276" ry="28.348"/>
		<ellipse opacity="0.1875" fill="#F6F7F7" cx="172.421" cy="280.188" rx="28.277" ry="28.348"/>
		<ellipse opacity="0.2083" fill="#F5F6F6" cx="171.831" cy="279.597" rx="28.276" ry="28.347"/>
		<ellipse opacity="0.2292" fill="#F4F5F5" cx="171.242" cy="279.006" rx="28.276" ry="28.348"/>
		<path opacity="0.25" fill="#F3F4F4" d="M198.93,278.416c0,15.656-12.66,28.348-28.273,28.348
			c-15.617,0-28.279-12.691-28.279-28.348s12.662-28.346,28.279-28.346C186.27,250.07,198.93,262.76,198.93,278.416z"/>
		<ellipse opacity="0.2708" fill="#F2F3F3" cx="170.064" cy="277.825" rx="28.276" ry="28.347"/>
		<ellipse opacity="0.2917" fill="#F1F2F2" cx="169.476" cy="277.235" rx="28.276" ry="28.347"/>
		<ellipse opacity="0.3125" fill="#F0F1F1" cx="168.887" cy="276.645" rx="28.276" ry="28.348"/>
		<ellipse opacity="0.3333" fill="#EFF0F0" cx="168.297" cy="276.054" rx="28.277" ry="28.348"/>
		<ellipse opacity="0.3542" fill="#EEEFEF" cx="167.708" cy="275.463" rx="28.276" ry="28.348"/>
		<ellipse opacity="0.375" fill="#EDEEEE" cx="167.119" cy="274.873" rx="28.276" ry="28.347"/>
		<ellipse opacity="0.3958" fill="#ECEDEE" cx="166.53" cy="274.283" rx="28.276" ry="28.347"/>
		<ellipse opacity="0.4167" fill="#EBECED" cx="165.941" cy="273.691" rx="28.276" ry="28.348"/>
		<ellipse opacity="0.4375" fill="#EAEBEC" cx="165.352" cy="273.102" rx="28.277" ry="28.346"/>
		<ellipse opacity="0.4583" fill="#E9EAEB" cx="164.763" cy="272.511" rx="28.276" ry="28.347"/>
		<ellipse opacity="0.4792" fill="#E8E9EA" cx="164.175" cy="271.921" rx="28.277" ry="28.347"/>
		<ellipse opacity="0.5" fill="#E7E8E9" cx="163.585" cy="271.33" rx="28.276" ry="28.347"/>
		<ellipse opacity="0.5208" fill="#E7E8E8" cx="162.996" cy="270.74" rx="28.276" ry="28.346"/>
		<ellipse opacity="0.5417" fill="#E6E7E7" cx="162.407" cy="270.149" rx="28.276" ry="28.347"/>
		<ellipse opacity="0.5625" fill="#E5E6E6" cx="161.818" cy="269.559" rx="28.276" ry="28.347"/>
		<ellipse opacity="0.5833" fill="#E4E5E5" cx="161.229" cy="268.969" rx="28.276" ry="28.346"/>
		<ellipse opacity="0.6042" fill="#E3E4E4" cx="160.64" cy="268.378" rx="28.276" ry="28.347"/>
		<ellipse opacity="0.625" fill="#E2E3E3" cx="160.051" cy="267.787" rx="28.276" ry="28.347"/>
		<ellipse opacity="0.6458" fill="#E1E2E3" cx="159.462" cy="267.197" rx="28.276" ry="28.346"/>
		<ellipse opacity="0.6667" fill="#E0E1E2" cx="158.873" cy="266.606" rx="28.276" ry="28.346"/>
		<ellipse opacity="0.6875" fill="#DFE0E1" cx="158.283" cy="266.016" rx="28.276" ry="28.346"/>
		<ellipse opacity="0.7083" fill="#DEDFE0" cx="157.694" cy="265.426" rx="28.276" ry="28.346"/>
		<ellipse opacity="0.7292" fill="#DDDEDF" cx="157.105" cy="264.835" rx="28.276" ry="28.346"/>
		<path opacity="0.75" fill="#DCDDDE" d="M184.793,264.244c0,15.654-12.659,28.346-28.275,28.346
			c-15.614,0-28.277-12.691-28.277-28.346c0-15.656,12.664-28.348,28.277-28.348C172.134,235.896,184.793,248.588,184.793,264.244z"
			/>
		<path opacity="0.7708" fill="#DBDCDD" d="M184.204,263.654c0,15.654-12.659,28.346-28.275,28.346
			c-15.614,0-28.278-12.691-28.278-28.346c0-15.656,12.664-28.348,28.278-28.348C171.545,235.307,184.204,247.998,184.204,263.654z"
			/>
		<ellipse opacity="0.7917" fill="#DADBDC" cx="155.339" cy="263.063" rx="28.276" ry="28.346"/>
		<ellipse opacity="0.8125" fill="#D9DADB" cx="154.75" cy="262.473" rx="28.277" ry="28.346"/>
		<ellipse opacity="0.8333" fill="#D8DADA" cx="154.16" cy="261.882" rx="28.276" ry="28.347"/>
		<ellipse opacity="0.8542" fill="#D7D9D9" cx="153.572" cy="261.291" rx="28.276" ry="28.346"/>
		<path opacity="0.875" fill="#D6D8D9" d="M181.259,260.701c0,15.654-12.659,28.346-28.275,28.346
			c-15.613,0-28.277-12.691-28.277-28.346c0-15.656,12.664-28.348,28.277-28.348C168.6,232.354,181.259,245.045,181.259,260.701z"/>
		<path opacity="0.8958" fill="#D5D7D8" d="M180.67,260.11c0,15.655-12.659,28.347-28.275,28.347
			c-15.613,0-28.278-12.691-28.278-28.347c0-15.656,12.665-28.348,28.278-28.348C168.011,231.763,180.67,244.454,180.67,260.11z"/>
		<path opacity="0.9167" fill="#D4D6D7" d="M180.081,259.521c0,15.654-12.659,28.346-28.275,28.346
			c-15.614,0-28.277-12.691-28.277-28.346c0-15.656,12.664-28.348,28.277-28.348C167.422,231.173,180.081,243.864,180.081,259.521z"
			/>
		<path opacity="0.9375" fill="#D3D5D6" d="M179.491,258.93c0,15.654-12.658,28.346-28.275,28.346
			c-15.613,0-28.277-12.691-28.277-28.346c0-15.656,12.664-28.348,28.277-28.348C166.833,230.582,179.491,243.273,179.491,258.93z"
			/>
		<path opacity="0.9583" fill="#D2D4D5" d="M178.903,258.339c0,15.654-12.66,28.347-28.276,28.347
			c-15.613,0-28.277-12.692-28.277-28.347c0-15.656,12.665-28.348,28.277-28.348C166.243,229.991,178.903,242.683,178.903,258.339z"
			/>
		<path opacity="0.9792" fill="#D1D3D4" d="M178.313,257.748c0,15.655-12.659,28.347-28.275,28.347
			c-15.613,0-28.277-12.691-28.277-28.347c0-15.656,12.664-28.348,28.277-28.348C165.654,229.4,178.313,242.092,178.313,257.748z"/>
		<path fill="#D0D2D3" d="M177.725,257.158c0,15.654-12.659,28.346-28.275,28.346c-15.613,0-28.277-12.691-28.277-28.346
			c0-15.656,12.664-28.348,28.277-28.348C165.065,228.811,177.725,241.502,177.725,257.158z"/>
	</g>
	<g>
		<ellipse fill="#FFFFFF" cx="148.948" cy="257.158" rx="28.276" ry="28.346"/>
		<path fill="#231F20" d="M148.949,287.504c-16.693,0-30.272-13.613-30.272-30.346c0-16.733,13.579-30.348,30.272-30.348
			c16.69,0,30.271,13.614,30.271,30.348C179.22,273.891,165.64,287.504,148.949,287.504z M148.949,230.811
			c-14.493,0-26.283,11.819-26.283,26.348c0,14.527,11.79,26.346,26.283,26.346c14.489,0,26.28-11.818,26.28-26.346
			C175.229,242.63,163.438,230.811,148.949,230.811z"/>
	</g>
	<g>
		<path opacity="0" fill="#FFFFFF" d="M206,512.275c0,15.654-12.66,28.346-28.273,28.346c-15.617,0-28.279-12.691-28.279-28.346
			c0-15.656,12.662-28.348,28.279-28.348C193.34,483.928,206,496.619,206,512.275z"/>
		<path opacity="0.0208" fill="#FEFEFE" d="M205.41,511.685c0,15.654-12.66,28.346-28.272,28.346
			c-15.617,0-28.28-12.691-28.28-28.346c0-15.656,12.663-28.348,28.28-28.348C192.75,483.337,205.41,496.028,205.41,511.685z"/>
		<path opacity="0.0417" fill="#FDFDFD" d="M204.822,511.095c0,15.654-12.66,28.345-28.274,28.345
			c-15.616,0-28.278-12.69-28.278-28.345c0-15.656,12.662-28.349,28.278-28.349C192.162,482.746,204.822,495.438,204.822,511.095z"
			/>
		<path opacity="0.0625" fill="#FCFCFC" d="M204.233,510.504c0,15.654-12.661,28.347-28.273,28.347
			c-15.617,0-28.279-12.692-28.279-28.347c0-15.656,12.662-28.348,28.279-28.348C191.572,482.156,204.233,494.848,204.233,510.504z"
			/>
		<path opacity="0.0833" fill="#FBFBFB" d="M203.644,509.913c0,15.654-12.66,28.346-28.273,28.346
			c-15.617,0-28.279-12.691-28.279-28.346c0-15.656,12.662-28.348,28.279-28.348C190.983,481.565,203.644,494.257,203.644,509.913z"
			/>
		<path opacity="0.1042" fill="#FAFAFA" d="M203.055,509.322c0,15.654-12.66,28.347-28.273,28.347
			c-15.617,0-28.279-12.692-28.279-28.347c0-15.656,12.662-28.347,28.279-28.347C190.395,480.976,203.055,493.666,203.055,509.322z"
			/>
		<path opacity="0.125" fill="#F9F9FA" d="M202.466,508.732c0,15.654-12.66,28.346-28.273,28.346
			c-15.616,0-28.279-12.691-28.279-28.346c0-15.656,12.663-28.348,28.279-28.348C189.806,480.385,202.466,493.076,202.466,508.732z"
			/>
		<path opacity="0.1458" fill="#F8F8F9" d="M201.877,508.141c0,15.655-12.66,28.346-28.273,28.346
			c-15.617,0-28.279-12.69-28.279-28.346c0-15.656,12.662-28.347,28.279-28.347C189.217,479.794,201.877,492.484,201.877,508.141z"
			/>
		<ellipse opacity="0.1667" fill="#F7F8F8" cx="173.011" cy="507.551" rx="28.277" ry="28.346"/>
		<ellipse opacity="0.1875" fill="#F6F7F7" cx="172.423" cy="506.961" rx="28.277" ry="28.346"/>
		<path opacity="0.2083" fill="#F5F6F6" d="M200.109,506.369c0,15.654-12.66,28.346-28.273,28.346
			c-15.617,0-28.279-12.691-28.279-28.346c0-15.656,12.662-28.347,28.279-28.347C187.449,478.022,200.109,490.713,200.109,506.369z"
			/>
		<ellipse opacity="0.2292" fill="#F4F5F5" cx="171.244" cy="505.779" rx="28.276" ry="28.346"/>
		<path opacity="0.25" fill="#F3F4F4" d="M198.932,505.188c0,15.655-12.66,28.347-28.273,28.347
			c-15.617,0-28.279-12.691-28.279-28.347c0-15.656,12.662-28.347,28.279-28.347C186.271,476.842,198.932,489.532,198.932,505.188z"
			/>
		<path opacity="0.2708" fill="#F2F3F3" d="M198.342,504.598c0,15.654-12.66,28.346-28.273,28.346
			c-15.616,0-28.279-12.691-28.279-28.346c0-15.656,12.663-28.348,28.279-28.348C185.682,476.25,198.342,488.941,198.342,504.598z"
			/>
		<ellipse opacity="0.2917" fill="#F1F2F2" cx="169.478" cy="504.007" rx="28.276" ry="28.347"/>
		<ellipse opacity="0.3125" fill="#F0F1F1" cx="168.889" cy="503.417" rx="28.276" ry="28.347"/>
		<path opacity="0.3333" fill="#EFF0F0" d="M196.575,502.826c0,15.654-12.659,28.346-28.273,28.346
			c-15.616,0-28.279-12.691-28.279-28.346c0-15.656,12.663-28.348,28.279-28.348C183.916,474.479,196.575,487.17,196.575,502.826z"
			/>
		<ellipse opacity="0.3542" fill="#EEEFEF" cx="167.71" cy="502.235" rx="28.276" ry="28.347"/>
		<ellipse opacity="0.375" fill="#EDEEEE" cx="167.121" cy="501.645" rx="28.276" ry="28.347"/>
		<path opacity="0.3958" fill="#ECEDEE" d="M194.809,501.055c0,15.654-12.66,28.347-28.273,28.347
			c-15.616,0-28.279-12.692-28.279-28.347c0-15.656,12.663-28.348,28.279-28.348C182.148,472.707,194.809,485.398,194.809,501.055z"
			/>
		<ellipse opacity="0.4167" fill="#EBECED" cx="165.943" cy="500.464" rx="28.276" ry="28.347"/>
		<ellipse opacity="0.4375" fill="#EAEBEC" cx="165.354" cy="499.873" rx="28.276" ry="28.347"/>
		<path opacity="0.4583" fill="#E9EAEB" d="M193.041,499.283c0,15.654-12.659,28.346-28.273,28.346
			c-15.616,0-28.279-12.691-28.279-28.346c0-15.656,12.663-28.348,28.279-28.348C180.382,470.936,193.041,483.627,193.041,499.283z"
			/>
		<ellipse opacity="0.4792" fill="#E8E9EA" cx="164.177" cy="498.692" rx="28.277" ry="28.347"/>
		<ellipse opacity="0.5" fill="#E7E8E9" cx="163.587" cy="498.102" rx="28.276" ry="28.347"/>
		<ellipse opacity="0.5208" fill="#E7E8E8" cx="162.998" cy="497.511" rx="28.276" ry="28.347"/>
		<ellipse opacity="0.5417" fill="#E6E7E7" cx="162.409" cy="496.92" rx="28.276" ry="28.348"/>
		<ellipse opacity="0.5625" fill="#E5E6E6" cx="161.82" cy="496.33" rx="28.276" ry="28.347"/>
		<ellipse opacity="0.5833" fill="#E4E5E5" cx="161.231" cy="495.739" rx="28.276" ry="28.347"/>
		<ellipse opacity="0.6042" fill="#E3E4E4" cx="160.642" cy="495.148" rx="28.276" ry="28.348"/>
		<ellipse opacity="0.625" fill="#E2E3E3" cx="160.053" cy="494.559" rx="28.276" ry="28.347"/>
		<ellipse opacity="0.6458" fill="#E1E2E3" cx="159.464" cy="493.967" rx="28.276" ry="28.348"/>
		<ellipse opacity="0.6667" fill="#E0E1E2" cx="158.875" cy="493.377" rx="28.277" ry="28.348"/>
		<ellipse opacity="0.6875" fill="#DFE0E1" cx="158.286" cy="492.786" rx="28.276" ry="28.348"/>
		<ellipse opacity="0.7083" fill="#DEDFE0" cx="157.696" cy="492.195" rx="28.276" ry="28.348"/>
		<ellipse opacity="0.7292" fill="#DDDEDF" cx="157.108" cy="491.605" rx="28.276" ry="28.347"/>
		<path opacity="0.75" fill="#DCDDDE" d="M184.795,491.015c0,15.655-12.659,28.347-28.275,28.347
			c-15.614,0-28.277-12.691-28.277-28.347c0-15.656,12.664-28.347,28.277-28.347C172.136,462.668,184.795,475.358,184.795,491.015z"
			/>
		<path opacity="0.7708" fill="#DBDCDD" d="M184.206,490.424c0,15.656-12.659,28.348-28.275,28.348
			c-15.614,0-28.278-12.691-28.278-28.348s12.664-28.346,28.278-28.346C171.547,462.078,184.206,474.768,184.206,490.424z"/>
		<ellipse opacity="0.7917" fill="#DADBDC" cx="155.341" cy="489.834" rx="28.276" ry="28.347"/>
		<ellipse opacity="0.8125" fill="#D9DADB" cx="154.751" cy="489.242" rx="28.276" ry="28.348"/>
		<ellipse opacity="0.8333" fill="#D8DADA" cx="154.162" cy="488.652" rx="28.276" ry="28.348"/>
		<path opacity="0.8542" fill="#D7D9D9" d="M181.85,488.062c0,15.656-12.659,28.348-28.275,28.348
			c-15.614,0-28.278-12.691-28.278-28.348s12.664-28.346,28.278-28.346C169.19,459.716,181.85,472.405,181.85,488.062z"/>
		<path opacity="0.875" fill="#D6D8D9" d="M181.261,487.471c0,15.656-12.659,28.348-28.275,28.348
			c-15.614,0-28.277-12.691-28.277-28.348s12.664-28.346,28.277-28.346C168.602,459.125,181.261,471.814,181.261,487.471z"/>
		<path opacity="0.8958" fill="#D5D7D8" d="M180.672,486.881c0,15.656-12.659,28.348-28.275,28.348
			c-15.614,0-28.277-12.691-28.277-28.348s12.664-28.347,28.277-28.347C168.013,458.534,180.672,471.225,180.672,486.881z"/>
		<path opacity="0.9167" fill="#D4D6D7" d="M180.083,486.29c0,15.656-12.659,28.348-28.276,28.348
			c-15.613,0-28.277-12.691-28.277-28.348s12.664-28.346,28.277-28.346C167.424,457.944,180.083,470.634,180.083,486.29z"/>
		<path opacity="0.9375" fill="#D3D5D6" d="M179.494,485.699c0,15.656-12.66,28.348-28.276,28.348
			c-15.613,0-28.277-12.691-28.277-28.348s12.664-28.346,28.277-28.346C166.834,457.354,179.494,470.043,179.494,485.699z"/>
		<path opacity="0.9583" fill="#D2D4D5" d="M178.904,485.108c0,15.656-12.658,28.348-28.275,28.348
			c-15.614,0-28.278-12.691-28.278-28.348s12.664-28.345,28.278-28.345C166.246,456.764,178.904,469.452,178.904,485.108z"/>
		<path opacity="0.9792" fill="#D1D3D4" d="M178.315,484.519c0,15.656-12.659,28.348-28.275,28.348
			c-15.613,0-28.277-12.691-28.277-28.348s12.664-28.347,28.277-28.347C165.656,456.172,178.315,468.862,178.315,484.519z"/>
		<path fill="#D0D2D3" d="M177.727,483.928c0,15.656-12.659,28.348-28.275,28.348c-15.613,0-28.277-12.691-28.277-28.348
			s12.664-28.346,28.277-28.346C165.067,455.582,177.727,468.271,177.727,483.928z"/>
	</g>
	<g>
		<ellipse fill="#FFFFFF" cx="149.45" cy="483.928" rx="28.276" ry="28.348"/>
		<path fill="#231F20" d="M149.451,514.275c-16.692,0-30.271-13.614-30.271-30.348c0-16.732,13.579-30.346,30.271-30.346
			c16.691,0,30.271,13.613,30.271,30.346C179.722,500.661,166.143,514.275,149.451,514.275z M149.451,457.582
			c-14.492,0-26.281,11.818-26.281,26.346c0,14.528,11.789,26.348,26.281,26.348c14.49,0,26.281-11.819,26.281-26.348
			C175.732,469.4,163.941,457.582,149.451,457.582z"/>
	</g>
	<g>
		<g>
			<path fill="#231F20" d="M149.449,451.244c-1.102,0-1.994-0.896-1.994-2V285.502c0-1.104,0.893-2,1.994-2s1.996,0.896,1.996,2
				v163.742C151.445,450.349,150.551,451.244,149.449,451.244z"/>
		</g>
		<g>
			<polygon fill="#231F20" points="133.131,435.99 136.054,433.262 149.445,447.709 162.843,433.262 165.765,435.99 
				149.445,453.582 			"/>
		</g>
	</g>
	<g>
		<g>
			<path fill="#231F20" d="M149.449,224.473c-1.102,0-1.994-0.896-1.994-2V58.732c0-1.104,0.893-2,1.994-2s1.996,0.896,1.996,2
				v163.74C151.445,223.577,150.551,224.473,149.449,224.473z"/>
		</g>
		<g>
			<polygon fill="#231F20" points="133.131,209.219 136.054,206.49 149.445,220.938 162.843,206.49 165.765,209.219 
				149.445,226.811 			"/>
		</g>
	</g>
	<g>
		<path fill="#231F20" d="M147.743,486.362l-6.731-9.268c-0.223-0.336-0.391-0.729-0.391-1.204c0-0.924,0.754-1.652,1.73-1.652
			c0.756,0,1.258,0.42,1.678,1.036l5.445,7.868l5.53-7.896c0.419-0.616,0.921-1.036,1.647-1.036c1.006,0,1.676,0.756,1.676,1.68
			c0,0.476-0.222,0.896-0.474,1.232l-6.676,9.155v6.132c0,0.952-0.754,1.708-1.731,1.708c-0.95,0-1.704-0.756-1.704-1.708V486.362z"
			/>
	</g>
	<g>
		<g>
			<path fill="#231F20" d="M112.867,470.255v-0.01c-0.848-0.7-0.978-1.96-0.279-2.811l0,0c0.698-0.86,1.965-0.979,2.812-0.28l0,0
				l0,0l0,0c0.849,0.7,0.979,1.96,0.279,2.82l0,0c-0.398,0.48-0.967,0.73-1.545,0.73l0,0
				C113.686,470.705,113.236,470.555,112.867,470.255z M106.723,465.095c-0.838-0.72-0.938-1.99-0.229-2.82l0,0
				c0.718-0.84,1.976-0.939,2.813-0.229l0,0c0.838,0.72,0.938,1.979,0.229,2.819l0,0c-0.399,0.471-0.958,0.7-1.526,0.7l0,0
				C107.551,465.564,107.092,465.415,106.723,465.095z M100.668,459.805c-0.818-0.73-0.888-2-0.16-2.82l0,0
				c0.738-0.83,1.996-0.899,2.812-0.17l0,0c0.828,0.74,0.898,2,0.17,2.83l0,0c-0.398,0.44-0.947,0.67-1.496,0.67l0,0
				C101.525,460.314,101.057,460.145,100.668,459.805z M94.732,454.404c-0.808-0.75-0.857-2.02-0.109-2.83l0,0
				c0.748-0.81,2.016-0.859,2.822-0.1l0,0c0.809,0.75,0.858,2.01,0.11,2.82l0,0c-0.399,0.43-0.928,0.64-1.467,0.64l0,0
				C95.601,454.935,95.121,454.765,94.732,454.404z M88.907,448.875c-0.788-0.771-0.808-2.04-0.05-2.83l0,0
				c0.768-0.79,2.035-0.811,2.822-0.05l0,0c0.799,0.77,0.818,2.04,0.051,2.829l0,0c-0.389,0.41-0.918,0.61-1.437,0.61l0,0
				C89.795,449.435,89.297,449.245,88.907,448.875z M83.201,443.215c-0.768-0.78-0.768-2.05,0.02-2.82l0,0
				c0.779-0.78,2.046-0.77,2.814,0.01l0,0c0.777,0.79,0.777,2.051-0.011,2.83l0,0c-0.39,0.38-0.897,0.58-1.407,0.58l0,0
				C84.109,443.814,83.591,443.614,83.201,443.215z M77.625,437.435c-0.758-0.8-0.728-2.06,0.08-2.82l0,0
				c0.799-0.76,2.055-0.729,2.812,0.08l0,0c0.759,0.801,0.729,2.061-0.079,2.82l0,0c-0.379,0.37-0.878,0.55-1.366,0.55l0,0
				C78.543,438.064,78.015,437.854,77.625,437.435z M72.169,431.535c-0.737-0.82-0.669-2.08,0.149-2.82l0,0
				c0.818-0.74,2.075-0.68,2.813,0.14l0,0l0,0l0,0c0.738,0.82,0.679,2.08-0.14,2.82l0,0c-0.379,0.35-0.857,0.52-1.337,0.52l0,0
				C73.107,432.194,72.568,431.975,72.169,431.535z M66.862,425.505c-0.718-0.84-0.628-2.101,0.21-2.82l0,0
				c0.828-0.72,2.094-0.63,2.812,0.21l0,0c0.719,0.83,0.629,2.101-0.209,2.82l0,0c-0.379,0.32-0.848,0.479-1.307,0.479l0,0
				C67.811,426.194,67.252,425.965,66.862,425.505z M61.695,419.345c-0.698-0.85-0.578-2.11,0.27-2.81l0,0
				c0.857-0.7,2.115-0.58,2.812,0.27l0,0c0.698,0.86,0.568,2.12-0.279,2.82l0,0c-0.369,0.3-0.817,0.449-1.256,0.449l0,0
				C62.663,420.074,62.084,419.824,61.695,419.345z M56.678,413.064c-0.678-0.88-0.528-2.13,0.35-2.81l0,0
				c0.867-0.681,2.115-0.521,2.793,0.35l0,0c0.678,0.87,0.529,2.13-0.34,2.8l0,0c-0.369,0.29-0.798,0.431-1.227,0.431l0,0
				C57.655,413.835,57.066,413.564,56.678,413.064z M51.82,406.654c-0.658-0.89-0.469-2.14,0.418-2.8l0,0
				c0.879-0.66,2.135-0.47,2.783,0.42l0,0c0.659,0.891,0.47,2.141-0.418,2.79l0,0c-0.35,0.271-0.769,0.4-1.178,0.4l0,0
				C52.808,407.465,52.209,407.185,51.82,406.654z M47.121,400.114h0.011c-0.638-0.899-0.419-2.149,0.489-2.779l0,0
				c0.896-0.641,2.145-0.42,2.773,0.489l0,0c0.637,0.9,0.418,2.15-0.49,2.78l0,0c-0.349,0.25-0.748,0.37-1.137,0.37l0,0
				C48.139,400.975,47.511,400.675,47.121,400.114z M42.613,393.455c-0.608-0.92-0.359-2.16,0.559-2.771l0,0
				c0.918-0.61,2.154-0.35,2.764,0.57l0,0l0,0l0,0c0.607,0.92,0.358,2.16-0.56,2.77l0,0c-0.339,0.221-0.718,0.33-1.097,0.33l0,0
				C43.631,394.354,42.992,394.035,42.613,393.455z M38.273,386.675c-0.578-0.93-0.289-2.17,0.639-2.75l0,0
				c0.938-0.59,2.164-0.3,2.754,0.64l0,0c0.578,0.94,0.289,2.17-0.648,2.75l0,0c-0.33,0.21-0.689,0.311-1.048,0.311l0,0
				C39.302,387.625,38.653,387.285,38.273,386.675z M34.125,379.774c-0.549-0.95-0.23-2.18,0.717-2.729l0,0
				c0.958-0.561,2.176-0.24,2.734,0.72l0,0c0.559,0.95,0.229,2.18-0.719,2.73l0,0c-0.318,0.189-0.658,0.27-1.008,0.27l0,0
				C35.172,380.765,34.504,380.415,34.125,379.774z M30.184,372.755L30.184,372.755c-0.527-0.97-0.169-2.181,0.799-2.71l0,0
				c0.967-0.53,2.174-0.17,2.703,0.8l0,0c0.529,0.97,0.17,2.18-0.799,2.71l0,0c-0.299,0.17-0.627,0.25-0.947,0.25l0,0
				C31.232,373.805,30.543,373.425,30.184,372.755z M26.443,365.625L26.443,365.625c-0.498-0.99-0.109-2.19,0.878-2.69l0,0
				c0.978-0.5,2.185-0.1,2.683,0.88l0,0c0.5,0.99,0.101,2.19-0.877,2.69l0,0c-0.289,0.149-0.599,0.22-0.898,0.22l0,0
				C27.501,366.725,26.793,366.324,26.443,365.625z M22.922,358.385c-0.469-1-0.039-2.2,0.959-2.66l0,0
				c0.996-0.47,2.184-0.04,2.652,0.96l0,0c0.469,1,0.04,2.19-0.957,2.66l0,0c-0.279,0.13-0.568,0.19-0.848,0.19l0,0
				C23.98,359.535,23.262,359.104,22.922,358.385z M19.631,351.045c-0.439-1.01,0.029-2.19,1.037-2.63l0,0
				c1.018-0.431,2.185,0.029,2.623,1.05l0,0c0.439,1.01-0.029,2.189-1.037,2.62l0,0c-0.26,0.12-0.528,0.17-0.798,0.17l0,0
				C20.688,352.255,19.95,351.805,19.631,351.045z M16.568,343.604c-0.409-1.02,0.1-2.18,1.117-2.59l0,0
				c1.027-0.41,2.185,0.1,2.594,1.13l0,0c0.398,1.021-0.1,2.18-1.127,2.59l0,0c-0.24,0.101-0.489,0.141-0.729,0.141l0,0
				C17.626,344.875,16.877,344.395,16.568,343.604z M13.746,336.074c-0.38-1.039,0.159-2.189,1.206-2.56l0,0
				c1.028-0.37,2.175,0.17,2.544,1.21l0,0c0.369,1.04-0.17,2.19-1.207,2.561l0,0c-0.219,0.079-0.449,0.119-0.668,0.119l0,0
				C14.803,337.404,14.035,336.895,13.746,336.074z M11.162,328.444c-0.34-1.05,0.239-2.18,1.287-2.51l0,0
				c1.057-0.34,2.174,0.24,2.514,1.29l0,0c0.328,1.05-0.24,2.18-1.297,2.51l0,0c-0.199,0.07-0.399,0.101-0.609,0.101l0,0
				C12.219,329.835,11.432,329.295,11.162,328.444z M8.838,320.734c-0.299-1.06,0.309-2.17,1.367-2.47l0,0
				c1.066-0.3,2.164,0.31,2.473,1.38l0,0c0.299,1.061-0.318,2.17-1.377,2.47l0,0c-0.179,0.051-0.368,0.07-0.548,0.07l0,0
				C9.885,322.185,9.087,321.614,8.838,320.734z M6.773,312.944c-0.27-1.069,0.389-2.159,1.456-2.42l0,0
				c1.067-0.27,2.154,0.391,2.413,1.46l0,0c0.27,1.07-0.389,2.15-1.455,2.42l0,0c-0.16,0.04-0.32,0.061-0.479,0.061l0,0
				C7.811,314.465,6.992,313.854,6.773,312.944z M4.968,305.085h0.009c-0.229-1.08,0.459-2.141,1.537-2.37l0,0
				c1.077-0.23,2.135,0.46,2.363,1.54l0,0c0.23,1.08-0.458,2.149-1.546,2.37l0,0c-0.14,0.029-0.269,0.05-0.408,0.05l0,0
				C6.005,306.675,5.167,306.024,4.968,305.085z M3.441,297.165L3.441,297.165c-0.189-1.091,0.539-2.13,1.625-2.32l0,0
				c1.088-0.19,2.115,0.54,2.305,1.63l0,0l0,0l0,0c0.189,1.09-0.528,2.12-1.615,2.311l0,0c-0.12,0.02-0.229,0.029-0.35,0.029l0,0
				C4.459,298.814,3.61,298.135,3.441,297.165z M2.194,289.194c-0.159-1.1,0.608-2.109,1.696-2.26l0,0
				c1.097-0.16,2.104,0.61,2.254,1.7l0,0c0.15,1.1-0.608,2.11-1.695,2.26l0,0c-0.1,0.01-0.189,0.021-0.289,0.021l0,0
				C3.182,290.915,2.334,290.194,2.194,289.194z M1.217,281.175L1.217,281.175c-0.109-1.101,0.688-2.08,1.785-2.2l0,0
				c1.098-0.11,2.075,0.69,2.185,1.79l0,0c0.12,1.09-0.678,2.08-1.774,2.19l0,0c-0.07,0.01-0.141,0.01-0.21,0.01l0,0
				C2.194,282.965,1.326,282.205,1.217,281.175z M0.528,273.125c-0.069-1.101,0.759-2.051,1.855-2.13l0,0
				c1.107-0.08,2.055,0.76,2.125,1.859l0,0c0.079,1.101-0.748,2.061-1.856,2.13l0,0c-0.039,0-0.089,0.011-0.139,0.011l0,0
				C1.477,274.984,0.598,274.185,0.528,273.125z M0.129,265.055c-0.039-1.1,0.828-2.03,1.926-2.06l0,0
				c1.098-0.04,2.025,0.829,2.055,1.93l0,0c0.04,1.1-0.818,2.03-1.925,2.06l0,0c-0.021,0.011-0.04,0.011-0.06,0.011l0,0
				C1.047,266.995,0.159,266.135,0.129,265.055z M1.995,258.975c-1.108,0-1.995-0.9-1.995-2l0,0c0.01-1.11,0.897-2,2.005-2l0,0
				c1.097,0.01,1.995,0.9,1.985,2.01l0,0C3.99,258.085,3.102,258.975,1.995,258.975L1.995,258.975L1.995,258.975z M2.084,250.984
				c-1.097-0.05-1.965-0.97-1.925-2.08H0.17c0.039-1.1,0.957-1.96,2.064-1.92l0,0c1.098,0.04,1.965,0.971,1.915,2.07l0,0
				c-0.04,1.08-0.918,1.93-1.985,1.93l0,0C2.135,250.984,2.104,250.984,2.084,250.984z M2.453,243.005
				c-1.097-0.08-1.925-1.04-1.845-2.141l0,0c0.079-1.1,1.038-1.93,2.135-1.85l0,0c1.097,0.08,1.925,1.04,1.845,2.14l0,0
				c-0.079,1.061-0.947,1.86-1.984,1.86l0,0C2.554,243.015,2.504,243.015,2.453,243.005z M3.102,235.055
				c-1.097-0.12-1.885-1.11-1.766-2.21l0,0c0.121-1.1,1.098-1.89,2.195-1.771l0,0c1.097,0.12,1.885,1.101,1.766,2.2l0,0l0,0l0,0
				c-0.11,1.03-0.968,1.79-1.976,1.79l0,0C3.252,235.064,3.172,235.055,3.102,235.055z M4.029,227.114
				c-1.087-0.159-1.845-1.17-1.686-2.26l0,0c0.15-1.1,1.168-1.859,2.254-1.7l0,0c1.098,0.16,1.846,1.17,1.697,2.271l0,0
				c-0.15,0.99-0.998,1.71-1.977,1.71l0,0C4.219,227.135,4.129,227.135,4.029,227.114z M5.236,219.215
				c-1.087-0.19-1.805-1.23-1.605-2.32l0,0c0.189-1.09,1.227-1.81,2.314-1.609l0,0c1.087,0.189,1.805,1.229,1.605,2.319l0,0
				c-0.17,0.97-1.008,1.641-1.955,1.641l0,0C5.477,219.245,5.356,219.234,5.236,219.215z M6.723,211.364
				c-1.077-0.239-1.766-1.3-1.536-2.38l0,0c0.239-1.08,1.298-1.77,2.374-1.529l0,0c1.078,0.229,1.766,1.29,1.526,2.369l0,0l0,0l0,0
				c-0.2,0.94-1.027,1.58-1.945,1.58l0,0C7.002,211.404,6.863,211.395,6.723,211.364z M8.469,203.555
				c-1.067-0.27-1.716-1.35-1.446-2.43l0,0c0.27-1.07,1.356-1.71,2.424-1.44l0,0c1.067,0.271,1.716,1.351,1.446,2.42l0,0
				c-0.229,0.91-1.037,1.51-1.936,1.51l0,0C8.798,203.614,8.639,203.595,8.469,203.555z M10.494,195.814
				c-1.068-0.3-1.676-1.41-1.367-2.47l0,0c0.31-1.06,1.416-1.68,2.475-1.37l0,0c1.057,0.311,1.665,1.42,1.355,2.48l0,0l0,0l0,0
				c-0.249,0.869-1.047,1.439-1.915,1.439l0,0C10.862,195.895,10.673,195.875,10.494,195.814z M12.768,188.145
				c-1.047-0.34-1.615-1.47-1.276-2.52l0,0c0.339-1.051,1.466-1.62,2.514-1.28l0,0c1.048,0.34,1.626,1.47,1.276,2.52l0,0
				c-0.27,0.841-1.057,1.381-1.895,1.381l0,0C13.187,188.245,12.977,188.215,12.768,188.145z M15.302,180.555
				c-1.027-0.38-1.565-1.53-1.197-2.56l0,0c0.38-1.04,1.526-1.58,2.563-1.2l0,0c1.027,0.37,1.566,1.52,1.188,2.56l0,0
				c-0.289,0.811-1.058,1.32-1.865,1.32l0,0C15.76,180.675,15.531,180.635,15.302,180.555z M18.084,173.045
				c-1.017-0.41-1.516-1.57-1.106-2.601l0,0c0.409-1.029,1.565-1.52,2.593-1.109l0,0c1.018,0.41,1.517,1.569,1.107,2.6l0,0l0,0l0,0
				c-0.309,0.78-1.057,1.25-1.846,1.25l0,0C18.584,173.185,18.334,173.145,18.084,173.045z M21.117,165.635
				c-1.018-0.45-1.477-1.63-1.037-2.64l0,0c0.448-1.011,1.615-1.471,2.633-1.03l0,0c1.008,0.439,1.467,1.62,1.027,2.63l0,0
				c-0.329,0.76-1.057,1.2-1.835,1.2l0,0C21.646,165.795,21.376,165.745,21.117,165.635z M24.369,158.314
				c-0.998-0.479-1.417-1.67-0.947-2.67l0,0c0.469-1,1.665-1.42,2.662-0.95l0,0c0.988,0.471,1.417,1.67,0.947,2.66l0,0
				c-0.348,0.73-1.057,1.15-1.805,1.15l0,0C24.938,158.505,24.648,158.444,24.369,158.314z M27.85,151.095
				c-0.977-0.51-1.366-1.71-0.857-2.69l0,0c0.499-0.989,1.695-1.38,2.684-0.869l0,0c0.978,0.5,1.366,1.71,0.867,2.689l0,0
				c-0.359,0.69-1.057,1.09-1.785,1.09l0,0C28.459,151.314,28.14,151.245,27.85,151.095z M31.541,144.005
				c-0.968-0.54-1.316-1.75-0.778-2.72l0,0c0.528-0.971,1.735-1.32,2.703-0.79l0,0c0.968,0.529,1.317,1.75,0.788,2.72l0,0l0,0l0,0
				c-0.359,0.66-1.047,1.04-1.746,1.04l0,0C32.18,144.255,31.85,144.175,31.541,144.005z M35.441,137.024
				c-0.948-0.56-1.268-1.79-0.709-2.739l0,0c0.559-0.95,1.786-1.271,2.734-0.711l0,0c0.947,0.561,1.266,1.79,0.707,2.74l0,0
				c-0.379,0.63-1.037,0.98-1.725,0.98l0,0C36.109,137.295,35.76,137.205,35.441,137.024z M39.541,130.154
				c-0.938-0.58-1.217-1.819-0.629-2.75l0,0c0.579-0.939,1.815-1.22,2.743-0.64l0,0c0.938,0.59,1.218,1.83,0.628,2.76l0,0
				c-0.368,0.61-1.026,0.94-1.686,0.94l0,0C40.229,130.465,39.87,130.364,39.541,130.154z M43.82,123.415
				c-0.908-0.62-1.157-1.86-0.549-2.78l0,0c0.608-0.92,1.846-1.16,2.764-0.55l0,0c0.917,0.609,1.166,1.85,0.559,2.77l0,0
				c-0.39,0.58-1.018,0.891-1.666,0.891l0,0C44.549,123.745,44.16,123.645,43.82,123.415z M48.299,116.785
				c-0.908-0.641-1.117-1.881-0.488-2.79h0.01c0.629-0.9,1.875-1.11,2.773-0.48l0,0c0.896,0.64,1.117,1.89,0.479,2.79l0,0
				c-0.389,0.55-0.998,0.85-1.626,0.85l0,0C49.047,117.154,48.648,117.035,48.299,116.785z M52.938,110.274
				c-0.878-0.649-1.067-1.91-0.409-2.79l0,0c0.658-0.89,1.915-1.069,2.793-0.41l0,0c0.888,0.66,1.067,1.91,0.409,2.801l0,0l0,0l0,0
				c-0.389,0.52-0.998,0.8-1.596,0.8l0,0C53.715,110.675,53.297,110.545,52.938,110.274z M57.745,103.895
				c-0.858-0.68-1.018-1.939-0.329-2.8l0,0c0.678-0.87,1.936-1.021,2.803-0.34l0,0c0.858,0.68,1.018,1.939,0.33,2.81l0,0
				c-0.389,0.5-0.979,0.76-1.566,0.76l0,0C58.553,104.324,58.114,104.185,57.745,103.895z M62.723,97.645
				c-0.857-0.71-0.968-1.97-0.27-2.82l0,0c0.699-0.85,1.955-0.97,2.812-0.27l0,0c0.849,0.71,0.969,1.97,0.26,2.82l0,0l0,0l0,0
				c-0.389,0.479-0.957,0.729-1.535,0.729l0,0C63.541,98.104,63.092,97.944,62.723,97.645z M67.84,91.505
				c-0.828-0.72-0.918-1.98-0.199-2.82l0,0c0.729-0.83,1.984-0.92,2.812-0.2l0,0c0.838,0.73,0.928,1.99,0.199,2.82l0,0
				c-0.389,0.46-0.947,0.69-1.506,0.69l0,0C68.688,91.995,68.219,91.835,67.84,91.505z M73.107,85.495
				c-0.809-0.74-0.868-2-0.131-2.82l0,0c0.738-0.82,2.006-0.88,2.823-0.13l0,0c0.808,0.74,0.868,2,0.13,2.819l0,0
				c-0.398,0.431-0.938,0.65-1.477,0.65l0,0C73.975,86.015,73.496,85.845,73.107,85.495z M78.514,79.614
				c-0.799-0.76-0.828-2.029-0.07-2.829l0,0c0.768-0.801,2.025-0.83,2.822-0.07l0,0c0.799,0.76,0.828,2.03,0.07,2.83l0,0
				c-0.389,0.41-0.918,0.62-1.446,0.62l0,0C79.4,80.165,78.902,79.984,78.514,79.614z M84.049,73.854c-0.777-0.78-0.777-2.05,0-2.83
				l0,0c0.779-0.779,2.046-0.779,2.824,0l0,0c0.777,0.78,0.777,2.04,0,2.82l0,0c-0.39,0.4-0.898,0.59-1.407,0.59l0,0
				C84.957,74.435,84.438,74.245,84.049,73.854z M89.715,68.215c-0.758-0.79-0.738-2.061,0.061-2.82v-0.01
				c0.788-0.76,2.055-0.74,2.822,0.06l0,0c0.758,0.801,0.738,2.061-0.059,2.83l0,0l0,0l0,0c-0.39,0.37-0.889,0.561-1.387,0.561l0,0
				C90.633,68.835,90.104,68.625,89.715,68.215z M95.5,62.705c-0.748-0.811-0.697-2.08,0.11-2.83l0,0
				c0.808-0.74,2.075-0.69,2.823,0.12l0,0c0.748,0.81,0.688,2.079-0.119,2.829l0,0c-0.38,0.351-0.869,0.53-1.348,0.53l0,0
				C96.429,63.354,95.89,63.135,95.5,62.705z M101.396,57.314c-0.729-0.83-0.648-2.09,0.169-2.819l0,0
				c0.828-0.73,2.095-0.65,2.823,0.17l0,0c0.729,0.83,0.648,2.09-0.18,2.819l0,0c-0.379,0.34-0.848,0.511-1.316,0.511l0,0
				C102.334,57.995,101.785,57.765,101.396,57.314z M107.4,52.045c-0.718-0.84-0.607-2.101,0.23-2.811l0,0
				c0.838-0.72,2.095-0.62,2.812,0.221l0,0c0.708,0.84,0.608,2.109-0.229,2.819l0,0l0,0l0,0c-0.379,0.32-0.838,0.48-1.296,0.48l0,0
				C108.359,52.755,107.79,52.515,107.4,52.045z M113.506,46.904c-0.698-0.859-0.568-2.119,0.289-2.819l0,0
				c0.848-0.7,2.115-0.57,2.803,0.29l0,0c0.699,0.85,0.568,2.109-0.279,2.81l0,0c-0.369,0.3-0.817,0.45-1.257,0.45l0,0
				C114.483,47.635,113.904,47.385,113.506,46.904z M119.721,41.875c-0.689-0.87-0.529-2.13,0.339-2.811l0,0
				c0.868-0.68,2.114-0.529,2.803,0.34l0,0c0.679,0.87,0.519,2.131-0.349,2.811l0,0c0,0,0,0,0.01,0l0,0
				c-0.369,0.29-0.809,0.43-1.237,0.43l0,0C120.697,42.645,120.109,42.375,119.721,41.875z"/>
		</g>
		<g>
			<polygon fill="#231F20" points="96.965,475.616 96.715,471.621 116.352,470.413 113.715,450.865 117.674,450.333 120.879,474.14 
							"/>
		</g>
	</g>
	<g>
		<ellipse fill="#FFFFFF" cx="149.45" cy="30.385" rx="28.276" ry="28.348"/>
		<path fill="#231F20" d="M149.451,60.732c-16.692,0-30.271-13.614-30.271-30.348c0-16.732,13.579-30.346,30.271-30.346
			c16.691,0,30.271,13.613,30.271,30.346C179.722,47.118,166.143,60.732,149.451,60.732z M149.451,4.039
			c-14.492,0-26.281,11.818-26.281,26.346c0,14.528,11.789,26.348,26.281,26.348c14.49,0,26.281-11.819,26.281-26.348
			C175.732,15.857,163.941,4.039,149.451,4.039z"/>
	</g>
	<g>
		<path fill="#231F20" d="M141.49,37.691l5.809-7.224l-5.474-6.804c-0.28-0.364-0.53-0.812-0.53-1.288
			c0-0.952,0.727-1.681,1.703-1.681c0.726,0,1.145,0.28,1.564,0.84l4.943,6.524l4.889-6.412c0.446-0.616,0.922-0.952,1.676-0.952
			s1.562,0.616,1.562,1.568c0,0.504-0.195,0.896-0.53,1.316l-5.474,6.831l5.753,7.196c0.28,0.364,0.531,0.784,0.531,1.288
			c0,0.952-0.727,1.68-1.704,1.68c-0.726,0-1.144-0.279-1.562-0.84l-5.252-6.859l-5.168,6.748c-0.474,0.615-0.922,0.951-1.676,0.951
			c-0.781,0-1.563-0.615-1.563-1.596C140.987,38.504,141.184,38.111,141.49,37.691z"/>
	</g>
</g>
</svg>
