<?xml version="1.0" encoding="utf-8"?>
<!-- Generator: Adobe Illustrator 16.0.0, SVG Export Plug-In . SVG Version: 6.00 Build 0)  -->
<!DOCTYPE svg PUBLIC "-//W3C//DTD SVG 1.1//EN" "http://www.w3.org/Graphics/SVG/1.1/DTD/svg11.dtd" [
	<!ENTITY ns_extend "http://ns.adobe.com/Extensibility/1.0/">
	<!ENTITY ns_ai "http://ns.adobe.com/AdobeIllustrator/10.0/">
	<!ENTITY ns_graphs "http://ns.adobe.com/Graphs/1.0/">
	<!ENTITY ns_vars "http://ns.adobe.com/Variables/1.0/">
	<!ENTITY ns_imrep "http://ns.adobe.com/ImageReplacement/1.0/">
	<!ENTITY ns_sfw "http://ns.adobe.com/SaveForWeb/1.0/">
	<!ENTITY ns_custom "http://ns.adobe.com/GenericCustomNamespace/1.0/">
	<!ENTITY ns_adobe_xpath "http://ns.adobe.com/XPath/1.0/">
]>
<svg version="1.1" id="Layer_1" xmlns:x="&ns_extend;" xmlns:i="&ns_ai;" xmlns:graph="&ns_graphs;"
	 xmlns="http://www.w3.org/2000/svg" xmlns:xlink="http://www.w3.org/1999/xlink" x="0px" y="0px" width="339px" height="300px"
	 viewBox="0 0 339 300" enable-background="new 0 0 339 300" xml:space="preserve">
<metadata>
	<sfw  xmlns="&ns_sfw;">
		<slices></slices>
		<sliceSourceBounds  width="2857.654" height="4704.053" bottomLeftOrigin="true" y="-4967.661" x="79.346"></sliceSourceBounds>
	</sfw>
</metadata>
<g>
	<g>
		<g>
			<circle opacity="0" fill="#FFFFFF" cx="64.689" cy="271.291" r="28.348"/>
			<circle opacity="0.0208" fill="#FEFEFE" cx="64.099" cy="270.7" r="28.348"/>
			<circle opacity="0.0417" fill="#FDFDFD" cx="63.508" cy="270.109" r="28.348"/>
			<circle opacity="0.0625" fill="#FCFCFC" cx="62.918" cy="269.52" r="28.347"/>
			<circle opacity="0.0833" fill="#FBFBFB" cx="62.327" cy="268.929" r="28.348"/>
			<circle opacity="0.1042" fill="#FAFAFA" cx="61.737" cy="268.339" r="28.347"/>
			<circle opacity="0.125" fill="#F9F9FA" cx="61.146" cy="267.748" r="28.348"/>
			<circle opacity="0.1458" fill="#F8F8F9" cx="60.556" cy="267.157" r="28.348"/>
			<circle opacity="0.1667" fill="#F7F8F8" cx="59.965" cy="266.567" r="28.348"/>
			<circle opacity="0.1875" fill="#F6F7F7" cx="59.375" cy="265.977" r="28.348"/>
			<circle opacity="0.2083" fill="#F5F6F6" cx="58.784" cy="265.386" r="28.347"/>
			<circle opacity="0.2292" fill="#F4F5F5" cx="58.193" cy="264.796" r="28.347"/>
			<circle opacity="0.25" fill="#F3F4F4" cx="57.603" cy="264.205" r="28.347"/>
			<circle opacity="0.2708" fill="#F2F3F3" cx="57.012" cy="263.614" r="28.347"/>
			<circle opacity="0.2917" fill="#F1F2F2" cx="56.422" cy="263.023" r="28.347"/>
			<circle opacity="0.3125" fill="#F0F1F1" cx="55.832" cy="262.434" r="28.347"/>
			<circle opacity="0.3333" fill="#EFF0F0" cx="55.241" cy="261.843" r="28.347"/>
			<circle opacity="0.3542" fill="#EEEFEF" cx="54.65" cy="261.252" r="28.347"/>
			<circle opacity="0.375" fill="#EDEEEE" cx="54.06" cy="260.662" r="28.347"/>
			<circle opacity="0.3958" fill="#ECEDEE" cx="53.47" cy="260.072" r="28.347"/>
			<circle opacity="0.4167" fill="#EBECED" cx="52.878" cy="259.481" r="28.347"/>
			<circle opacity="0.4375" fill="#EAEBEC" cx="52.288" cy="258.891" r="28.347"/>
			<circle opacity="0.4583" fill="#E9EAEB" cx="51.698" cy="258.301" r="28.347"/>
			<circle opacity="0.4792" fill="#E8E9EA" cx="51.107" cy="257.71" r="28.347"/>
			<circle opacity="0.5" fill="#E7E8E9" cx="50.517" cy="257.119" r="28.347"/>
			<circle opacity="0.5208" fill="#E7E8E8" cx="49.926" cy="256.528" r="28.346"/>
			<circle opacity="0.5417" fill="#E6E7E7" cx="49.335" cy="255.938" r="28.346"/>
			<circle opacity="0.5625" fill="#E5E6E6" cx="48.745" cy="255.348" r="28.347"/>
			<circle opacity="0.5833" fill="#E4E5E5" cx="48.154" cy="254.757" r="28.347"/>
			<circle opacity="0.6042" fill="#E3E4E4" cx="47.563" cy="254.166" r="28.347"/>
			<circle opacity="0.625" fill="#E2E3E3" cx="46.974" cy="253.576" r="28.347"/>
			<circle opacity="0.6458" fill="#E1E2E3" cx="46.383" cy="252.986" r="28.346"/>
			<circle opacity="0.6667" fill="#E0E1E2" cx="45.792" cy="252.395" r="28.346"/>
			<circle opacity="0.6875" fill="#DFE0E1" cx="45.202" cy="251.805" r="28.347"/>
			<circle opacity="0.7083" fill="#DEDFE0" cx="44.611" cy="251.215" r="28.347"/>
			<circle opacity="0.7292" fill="#DDDEDF" cx="44.021" cy="250.623" r="28.347"/>
			<circle opacity="0.75" fill="#DCDDDE" cx="43.43" cy="250.033" r="28.346"/>
			<circle opacity="0.7708" fill="#DBDCDD" cx="42.84" cy="249.442" r="28.346"/>
			<circle opacity="0.7917" fill="#DADBDC" cx="42.25" cy="248.853" r="28.346"/>
			<circle opacity="0.8125" fill="#D9DADB" cx="41.659" cy="248.262" r="28.346"/>
			<circle opacity="0.8333" fill="#D8DADA" cx="41.068" cy="247.671" r="28.346"/>
			<circle opacity="0.8542" fill="#D7D9D9" cx="40.478" cy="247.081" r="28.346"/>
			<path opacity="0.875" fill="#D6D8D9" d="M68.233,246.49c0,15.654-12.692,28.346-28.345,28.346
				c-15.656,0-28.348-12.691-28.348-28.346c0-15.656,12.691-28.348,28.348-28.348C55.541,218.143,68.233,230.834,68.233,246.49z"/>
			<circle opacity="0.8958" fill="#D5D7D8" cx="39.296" cy="245.899" r="28.345"/>
			<circle opacity="0.9167" fill="#D4D6D7" cx="38.706" cy="245.31" r="28.346"/>
			<circle opacity="0.9375" fill="#D3D5D6" cx="38.115" cy="244.719" r="28.346"/>
			<circle opacity="0.9583" fill="#D2D4D5" cx="37.525" cy="244.128" r="28.346"/>
			<path opacity="0.9792" fill="#D1D3D4" d="M65.279,243.538c0,15.654-12.69,28.346-28.343,28.346
				c-15.656,0-28.348-12.691-28.348-28.346c0-15.656,12.691-28.349,28.348-28.349C52.589,215.189,65.279,227.882,65.279,243.538z"/>
			<circle fill="#D0D2D3" cx="36.344" cy="242.947" r="28.346"/>
		</g>
		<g>
			<path opacity="0" fill="#FFFFFF" d="M215.777,58.693c0,15.654-12.691,28.346-28.344,28.346c-15.656,0-28.35-12.691-28.35-28.346
				c0-15.656,12.693-28.348,28.35-28.348C203.086,30.346,215.777,43.037,215.777,58.693z"/>
			<path opacity="0.0208" fill="#FEFEFE" d="M215.187,58.103c0,15.654-12.691,28.346-28.344,28.346
				c-15.656,0-28.349-12.691-28.349-28.346c0-15.656,12.692-28.347,28.349-28.347C202.495,29.756,215.187,42.446,215.187,58.103z"/>
			<path opacity="0.0417" fill="#FDFDFD" d="M214.596,57.512c0,15.654-12.69,28.346-28.343,28.346
				c-15.656,0-28.351-12.691-28.351-28.346c0-15.656,12.694-28.348,28.351-28.348C201.905,29.164,214.596,41.855,214.596,57.512z"/>
			<path opacity="0.0625" fill="#FCFCFC" d="M214.007,56.922c0,15.654-12.692,28.346-28.345,28.346
				c-15.655,0-28.35-12.691-28.35-28.346c0-15.656,12.694-28.348,28.35-28.348C201.314,28.574,214.007,41.266,214.007,56.922z"/>
			<path opacity="0.0833" fill="#FBFBFB" d="M213.415,56.331c0,15.654-12.691,28.346-28.344,28.346
				c-15.656,0-28.35-12.691-28.35-28.346c0-15.656,12.693-28.348,28.35-28.348C200.724,27.983,213.415,40.675,213.415,56.331z"/>
			<path opacity="0.1042" fill="#FAFAFA" d="M212.825,55.741c0,15.654-12.692,28.345-28.344,28.345
				c-15.656,0-28.35-12.69-28.35-28.345c0-15.657,12.693-28.349,28.35-28.349C200.133,27.393,212.825,40.084,212.825,55.741z"/>
			<path opacity="0.125" fill="#F9F9FA" d="M212.234,55.15c0,15.654-12.691,28.346-28.344,28.346
				c-15.655,0-28.349-12.691-28.349-28.346c0-15.656,12.693-28.348,28.349-28.348C199.543,26.803,212.234,39.494,212.234,55.15z"/>
			<path opacity="0.1458" fill="#F8F8F9" d="M211.645,54.56c0,15.654-12.692,28.346-28.345,28.346
				c-15.656,0-28.35-12.691-28.35-28.346c0-15.656,12.693-28.348,28.35-28.348C198.952,26.212,211.645,38.903,211.645,54.56z"/>
			<circle opacity="0.1667" fill="#F7F8F8" cx="182.707" cy="53.969" r="28.347"/>
			<path opacity="0.1875" fill="#F6F7F7" d="M210.463,53.379c0,15.654-12.691,28.346-28.344,28.346
				c-15.656,0-28.35-12.691-28.35-28.346c0-15.656,12.693-28.348,28.35-28.348C197.771,25.031,210.463,37.723,210.463,53.379z"/>
			<path opacity="0.2083" fill="#F5F6F6" d="M209.872,52.787c0,15.655-12.691,28.347-28.344,28.347
				c-15.656,0-28.35-12.691-28.35-28.347c0-15.656,12.693-28.348,28.35-28.348C197.181,24.439,209.872,37.131,209.872,52.787z"/>
			<path opacity="0.2292" fill="#F4F5F5" d="M209.281,52.197c0,15.654-12.691,28.346-28.344,28.346
				c-15.655,0-28.35-12.691-28.35-28.346c0-15.656,12.694-28.348,28.35-28.348C196.59,23.85,209.281,36.541,209.281,52.197z"/>
			<path opacity="0.25" fill="#F3F4F4" d="M208.691,51.606c0,15.655-12.691,28.347-28.344,28.347
				c-15.656,0-28.35-12.691-28.35-28.347c0-15.656,12.693-28.347,28.35-28.347C196,23.26,208.691,35.95,208.691,51.606z"/>
			<path opacity="0.2708" fill="#F2F3F3" d="M208.101,51.016c0,15.655-12.691,28.346-28.344,28.346
				c-15.655,0-28.35-12.69-28.35-28.346c0-15.656,12.694-28.348,28.35-28.348C195.409,22.668,208.101,35.359,208.101,51.016z"/>
			<circle opacity="0.2917" fill="#F1F2F2" cx="179.164" cy="50.425" r="28.347"/>
			<path opacity="0.3125" fill="#F0F1F1" d="M206.92,49.835c0,15.655-12.691,28.347-28.344,28.347
				c-15.655,0-28.35-12.691-28.35-28.347c0-15.656,12.694-28.347,28.35-28.347C194.229,21.488,206.92,34.179,206.92,49.835z"/>
			<circle opacity="0.3333" fill="#EFF0F0" cx="177.983" cy="49.244" r="28.347"/>
			<path opacity="0.3542" fill="#EEEFEF" d="M205.738,48.653c0,15.655-12.691,28.347-28.344,28.347
				c-15.655,0-28.35-12.691-28.35-28.347c0-15.656,12.694-28.347,28.35-28.347C193.047,20.307,205.738,32.997,205.738,48.653z"/>
			<path opacity="0.375" fill="#EDEEEE" d="M205.148,48.062c0,15.655-12.691,28.347-28.344,28.347
				c-15.655,0-28.35-12.691-28.35-28.347c0-15.656,12.694-28.347,28.35-28.347C192.457,19.716,205.148,32.406,205.148,48.062z"/>
			<circle opacity="0.3958" fill="#ECEDEE" cx="176.212" cy="47.473" r="28.347"/>
			<circle opacity="0.4167" fill="#EBECED" cx="175.621" cy="46.882" r="28.347"/>
			<circle opacity="0.4375" fill="#EAEBEC" cx="175.03" cy="46.291" r="28.347"/>
			<circle opacity="0.4583" fill="#E9EAEB" cx="174.44" cy="45.7" r="28.347"/>
			<circle opacity="0.4792" fill="#E8E9EA" cx="173.85" cy="45.11" r="28.347"/>
			<circle opacity="0.5" fill="#E7E8E9" cx="173.259" cy="44.52" r="28.347"/>
			<circle opacity="0.5208" fill="#E7E8E8" cx="172.669" cy="43.929" r="28.347"/>
			<circle opacity="0.5417" fill="#E6E7E7" cx="172.078" cy="43.339" r="28.347"/>
			<circle opacity="0.5625" fill="#E5E6E6" cx="171.487" cy="42.748" r="28.347"/>
			<circle opacity="0.5833" fill="#E4E5E5" cx="170.896" cy="42.157" r="28.347"/>
			<circle opacity="0.6042" fill="#E3E4E4" cx="170.306" cy="41.566" r="28.347"/>
			<circle opacity="0.625" fill="#E2E3E3" cx="169.716" cy="40.977" r="28.347"/>
			<circle opacity="0.6458" fill="#E1E2E3" cx="169.125" cy="40.385" r="28.346"/>
			<circle opacity="0.6667" fill="#E0E1E2" cx="168.535" cy="39.795" r="28.346"/>
			<circle opacity="0.6875" fill="#DFE0E1" cx="167.944" cy="39.204" r="28.347"/>
			<circle opacity="0.7083" fill="#DEDFE0" cx="167.354" cy="38.614" r="28.347"/>
			<circle opacity="0.7292" fill="#DDDEDF" cx="166.764" cy="38.023" r="28.347"/>
			<path opacity="0.75" fill="#DCDDDE" d="M194.52,37.433c0,15.655-12.691,28.347-28.346,28.347
				c-15.652,0-28.348-12.691-28.348-28.347c0-15.656,12.695-28.347,28.348-28.347C181.828,9.086,194.52,21.776,194.52,37.433z"/>
			<circle opacity="0.7708" fill="#DBDCDD" cx="165.583" cy="36.842" r="28.347"/>
			<circle opacity="0.7917" fill="#DADBDC" cx="164.992" cy="36.252" r="28.347"/>
			<path opacity="0.8125" fill="#D9DADB" d="M192.748,35.661c0,15.655-12.691,28.347-28.346,28.347
				c-15.652,0-28.348-12.691-28.348-28.347c0-15.656,12.695-28.347,28.348-28.347C180.057,7.314,192.748,20.005,192.748,35.661z"/>
			<path opacity="0.8333" fill="#D8DADA" d="M192.157,35.07c0,15.656-12.691,28.348-28.346,28.348
				c-15.652,0-28.348-12.691-28.348-28.348s12.695-28.346,28.348-28.346C179.466,6.725,192.157,19.414,192.157,35.07z"/>
			<circle opacity="0.8542" fill="#D7D9D9" cx="163.221" cy="34.479" r="28.347"/>
			<circle opacity="0.875" fill="#D6D8D9" cx="162.63" cy="33.89" r="28.347"/>
			<path opacity="0.8958" fill="#D5D7D8" d="M190.387,33.299c0,15.655-12.692,28.348-28.347,28.348
				c-15.652,0-28.348-12.692-28.348-28.348c0-15.656,12.695-28.347,28.348-28.347C177.694,4.952,190.387,17.643,190.387,33.299z"/>
			<circle opacity="0.9167" fill="#D4D6D7" cx="161.449" cy="32.708" r="28.347"/>
			<path opacity="0.9375" fill="#D3D5D6" d="M189.205,32.117c0,15.656-12.691,28.348-28.346,28.348
				c-15.652,0-28.348-12.691-28.348-28.348s12.695-28.346,28.348-28.346C176.514,3.771,189.205,16.461,189.205,32.117z"/>
			<path opacity="0.9583" fill="#D2D4D5" d="M188.614,31.527c0,15.656-12.691,28.348-28.346,28.348
				c-15.652,0-28.347-12.691-28.347-28.348s12.694-28.347,28.347-28.347C175.923,3.181,188.614,15.871,188.614,31.527z"/>
			<path opacity="0.9792" fill="#D1D3D4" d="M188.024,30.937c0,15.656-12.691,28.347-28.346,28.347
				c-15.652,0-28.349-12.69-28.349-28.347s12.696-28.346,28.349-28.346C175.333,2.591,188.024,15.28,188.024,30.937z"/>
			<path fill="#D0D2D3" d="M187.434,30.346c0,15.656-12.691,28.348-28.346,28.348c-15.652,0-28.348-12.691-28.348-28.348
				S143.436,2,159.088,2C174.742,2,187.434,14.689,187.434,30.346z"/>
		</g>
		<g>
			<circle opacity="0" fill="#FFFFFF" cx="310.18" cy="271.291" r="28.348"/>
			<circle opacity="0.0208" fill="#FEFEFE" cx="309.589" cy="270.7" r="28.348"/>
			<circle opacity="0.0417" fill="#FDFDFD" cx="308.999" cy="270.109" r="28.347"/>
			<circle opacity="0.0625" fill="#FCFCFC" cx="308.408" cy="269.52" r="28.348"/>
			<circle opacity="0.0833" fill="#FBFBFB" cx="307.818" cy="268.929" r="28.347"/>
			<circle opacity="0.1042" fill="#FAFAFA" cx="307.227" cy="268.339" r="28.347"/>
			<circle opacity="0.125" fill="#F9F9FA" cx="306.637" cy="267.748" r="28.348"/>
			<circle opacity="0.1458" fill="#F8F8F9" cx="306.046" cy="267.157" r="28.348"/>
			<circle opacity="0.1667" fill="#F7F8F8" cx="305.456" cy="266.567" r="28.347"/>
			<circle opacity="0.1875" fill="#F6F7F7" cx="304.865" cy="265.977" r="28.347"/>
			<circle opacity="0.2083" fill="#F5F6F6" cx="304.274" cy="265.386" r="28.347"/>
			<circle opacity="0.2292" fill="#F4F5F5" cx="303.684" cy="264.796" r="28.347"/>
			<circle opacity="0.25" fill="#F3F4F4" cx="303.093" cy="264.205" r="28.347"/>
			<circle opacity="0.2708" fill="#F2F3F3" cx="302.502" cy="263.614" r="28.347"/>
			<circle opacity="0.2917" fill="#F1F2F2" cx="301.912" cy="263.023" r="28.348"/>
			<circle opacity="0.3125" fill="#F0F1F1" cx="301.322" cy="262.434" r="28.347"/>
			<circle opacity="0.3333" fill="#EFF0F0" cx="300.731" cy="261.843" r="28.347"/>
			<circle opacity="0.3542" fill="#EEEFEF" cx="300.14" cy="261.252" r="28.347"/>
			<circle opacity="0.375" fill="#EDEEEE" cx="299.55" cy="260.662" r="28.347"/>
			<circle opacity="0.3958" fill="#ECEDEE" cx="298.96" cy="260.072" r="28.347"/>
			<circle opacity="0.4167" fill="#EBECED" cx="298.369" cy="259.481" r="28.347"/>
			<circle opacity="0.4375" fill="#EAEBEC" cx="297.778" cy="258.891" r="28.347"/>
			<circle opacity="0.4583" fill="#E9EAEB" cx="297.188" cy="258.301" r="28.347"/>
			<circle opacity="0.4792" fill="#E8E9EA" cx="296.598" cy="257.71" r="28.347"/>
			<circle opacity="0.5" fill="#E7E8E9" cx="296.007" cy="257.119" r="28.347"/>
			<circle opacity="0.5208" fill="#E7E8E8" cx="295.417" cy="256.528" r="28.347"/>
			<circle opacity="0.5417" fill="#E6E7E7" cx="294.825" cy="255.938" r="28.347"/>
			<circle opacity="0.5625" fill="#E5E6E6" cx="294.235" cy="255.348" r="28.347"/>
			<circle opacity="0.5833" fill="#E4E5E5" cx="293.645" cy="254.757" r="28.347"/>
			<circle opacity="0.6042" fill="#E3E4E4" cx="293.054" cy="254.166" r="28.346"/>
			<circle opacity="0.625" fill="#E2E3E3" cx="292.464" cy="253.576" r="28.347"/>
			<circle opacity="0.6458" fill="#E1E2E3" cx="291.873" cy="252.986" r="28.346"/>
			<circle opacity="0.6667" fill="#E0E1E2" cx="291.283" cy="252.395" r="28.346"/>
			<circle opacity="0.6875" fill="#DFE0E1" cx="290.692" cy="251.805" r="28.346"/>
			<circle opacity="0.7083" fill="#DEDFE0" cx="290.101" cy="251.215" r="28.346"/>
			<circle opacity="0.7292" fill="#DDDEDF" cx="289.511" cy="250.623" r="28.347"/>
			<circle opacity="0.75" fill="#DCDDDE" cx="288.92" cy="250.033" r="28.346"/>
			<path opacity="0.7708" fill="#DBDCDD" d="M316.676,249.442c0,15.655-12.691,28.347-28.344,28.347
				c-15.656,0-28.349-12.691-28.349-28.347c0-15.656,12.692-28.347,28.349-28.347C303.984,221.096,316.676,233.786,316.676,249.442z
				"/>
			<circle opacity="0.7917" fill="#DADBDC" cx="287.739" cy="248.853" r="28.346"/>
			<circle opacity="0.8125" fill="#D9DADB" cx="287.149" cy="248.262" r="28.346"/>
			<circle opacity="0.8333" fill="#D8DADA" cx="286.559" cy="247.671" r="28.346"/>
			<circle opacity="0.8542" fill="#D7D9D9" cx="285.968" cy="247.081" r="28.347"/>
			<circle opacity="0.875" fill="#D6D8D9" cx="285.377" cy="246.49" r="28.346"/>
			<circle opacity="0.8958" fill="#D5D7D8" cx="284.787" cy="245.899" r="28.346"/>
			<circle opacity="0.9167" fill="#D4D6D7" cx="284.196" cy="245.31" r="28.345"/>
			<circle opacity="0.9375" fill="#D3D5D6" cx="283.605" cy="244.719" r="28.346"/>
			<circle opacity="0.9583" fill="#D2D4D5" cx="283.016" cy="244.128" r="28.346"/>
			<path opacity="0.9792" fill="#D1D3D4" d="M310.77,243.538c0,15.654-12.69,28.346-28.343,28.346
				c-15.656,0-28.348-12.691-28.348-28.346c0-15.656,12.691-28.349,28.348-28.349C298.079,215.189,310.77,227.882,310.77,243.538z"
				/>
			<circle fill="#D0D2D3" cx="281.834" cy="242.947" r="28.346"/>
		</g>
		<g>
			<g>
				<path fill="#231F20" d="M263.514,214.643c-0.694,0-1.368-0.361-1.738-1.007L171.521,55.882
					c-0.548-0.959-0.216-2.181,0.743-2.729c0.959-0.547,2.181-0.216,2.729,0.743l90.254,157.754
					c0.548,0.959,0.216,2.181-0.743,2.729C264.191,214.558,263.851,214.643,263.514,214.643z"/>
			</g>
			<g>
				<polygon fill="#231F20" points="242.73,209.263 243.918,205.439 262.746,211.312 267.229,192.104 271.126,193.017 
					265.663,216.41 				"/>
			</g>
		</g>
		<g>
			<g>
				<path fill="#231F20" d="M54.67,214.633c-0.337,0-0.678-0.085-0.991-0.264c-0.959-0.549-1.291-1.771-0.743-2.729l89.424-156.32
					c0.548-0.958,1.77-1.291,2.729-0.743c0.959,0.549,1.291,1.771,0.743,2.729l-89.424,156.32
					C56.039,214.271,55.364,214.633,54.67,214.633z"/>
			</g>
			<g>
				<polygon fill="#231F20" points="75.453,209.252 74.265,205.429 55.438,211.303 50.954,192.094 47.056,193.008 52.521,216.4 				
					"/>
			</g>
		</g>
		<g>
			<circle fill="#FFFFFF" cx="159.087" cy="30.346" r="28.347"/>
			<path fill="#231F20" d="M159.088,60.693c-16.733,0-30.348-13.614-30.348-30.348C128.74,13.613,142.354,0,159.088,0
				c16.732,0,30.346,13.613,30.346,30.346C189.434,47.079,175.82,60.693,159.088,60.693z M159.088,4
				C144.56,4,132.74,15.818,132.74,30.346c0,14.528,11.819,26.348,26.348,26.348c14.527,0,26.346-11.819,26.346-26.348
				C185.434,15.818,173.615,4,159.088,4z"/>
		</g>
		<g>
			<circle fill="#FFFFFF" cx="36.344" cy="242.945" r="28.346"/>
			<path fill="#231F20" d="M36.346,273.291c-16.733,0-30.348-13.613-30.348-30.346S19.612,212.6,36.346,212.6
				c16.731,0,30.344,13.613,30.344,30.346S53.077,273.291,36.346,273.291z M36.346,216.6c-14.528,0-26.348,11.818-26.348,26.346
				s11.819,26.346,26.348,26.346c14.526,0,26.344-11.818,26.344-26.346S50.872,216.6,36.346,216.6z"/>
		</g>
		<g>
			<circle fill="#FFFFFF" cx="281.834" cy="242.945" r="28.346"/>
			<path fill="#231F20" d="M281.832,273.291c-16.731,0-30.344-13.613-30.344-30.346s13.612-30.346,30.344-30.346
				c16.733,0,30.348,13.613,30.348,30.346S298.565,273.291,281.832,273.291z M281.832,216.6c-14.526,0-26.344,11.818-26.344,26.346
				s11.817,26.346,26.344,26.346c14.528,0,26.348-11.818,26.348-26.346S296.36,216.6,281.832,216.6z"/>
		</g>
		<g>
			<path fill="#231F20" d="M28.364,249.102l5.824-7.224l-5.488-6.804c-0.279-0.364-0.531-0.812-0.531-1.288
				c0-0.952,0.728-1.681,1.708-1.681c0.728,0,1.147,0.28,1.567,0.84l4.956,6.524l4.9-6.412c0.448-0.616,0.924-0.952,1.68-0.952
				s1.568,0.616,1.568,1.568c0,0.504-0.196,0.896-0.532,1.316l-5.488,6.831l5.769,7.196c0.279,0.364,0.531,0.784,0.531,1.288
				c0,0.952-0.728,1.68-1.708,1.68c-0.728,0-1.147-0.279-1.567-0.84l-5.264-6.859l-5.181,6.748c-0.476,0.615-0.924,0.951-1.68,0.951
				c-0.784,0-1.568-0.615-1.568-1.596C27.86,249.914,28.057,249.521,28.364,249.102z"/>
		</g>
		<g>
			<path fill="#231F20" d="M280.127,244.229l-6.748-9.268c-0.224-0.336-0.392-0.729-0.392-1.204c0-0.924,0.756-1.652,1.735-1.652
				c0.756,0,1.26,0.42,1.68,1.036l5.46,7.868l5.545-7.896c0.42-0.616,0.924-1.036,1.651-1.036c1.008,0,1.68,0.756,1.68,1.68
				c0,0.476-0.224,0.896-0.476,1.232l-6.692,9.155v6.132c0,0.952-0.756,1.708-1.735,1.708c-0.952,0-1.708-0.756-1.708-1.708V244.229
				z"/>
		</g>
		<g>
			<g>
				<path fill="#231F20" d="M245.15,244.946c-0.53,0-1.04-0.22-1.41-0.59c-0.38-0.37-0.59-0.89-0.59-1.41
					c0-0.529,0.21-1.04,0.59-1.42c0.73-0.74,2.08-0.74,2.82,0c0.38,0.38,0.59,0.891,0.59,1.42c0,0.521-0.21,1.04-0.58,1.41
					C246.19,244.727,245.681,244.946,245.15,244.946z"/>
			</g>
			<g>
				<path fill="#231F20" d="M235.221,242.946c0-1.109,0.899-2,2-2l0,0c1.1,0,2,0.891,2,2l0,0c0,1.101-0.9,2-2,2l0,0
					C236.12,244.946,235.221,244.047,235.221,242.946z M227.29,242.946c0-1.109,0.891-2,2-2l0,0c1.101,0,2,0.891,2,2l0,0
					c0,1.101-0.899,2-2,2l0,0C228.181,244.946,227.29,244.047,227.29,242.946z M219.36,242.946c0-1.109,0.891-2,2-2l0,0
					c1.101,0,2,0.891,2,2l0,0c0,1.101-0.899,2-2,2l0,0C220.251,244.946,219.36,244.047,219.36,242.946z M211.431,242.946
					c0-1.109,0.89-2,2-2l0,0c1.1,0,2,0.891,2,2l0,0c0,1.101-0.9,2-2,2l0,0C212.32,244.946,211.431,244.047,211.431,242.946z
					 M203.501,242.946c0-1.109,0.89-2,2-2l0,0c1.1,0,2,0.891,2,2l0,0c0,1.101-0.9,2-2,2l0,0
					C204.391,244.946,203.501,244.047,203.501,242.946z M195.57,242.946c0-1.109,0.891-2,2-2l0,0c1.101,0,2,0.891,2,2l0,0
					c0,1.101-0.899,2-2,2l0,0C196.461,244.946,195.57,244.047,195.57,242.946z M187.641,242.946c0-1.109,0.89-2,2-2l0,0
					c1.1,0,2,0.891,2,2l0,0c0,1.101-0.9,2-2,2l0,0C188.53,244.946,187.641,244.047,187.641,242.946z M179.711,242.946
					c0-1.109,0.89-2,2-2l0,0c1.1,0,2,0.891,2,2l0,0c0,1.101-0.9,2-2,2l0,0C180.601,244.946,179.711,244.047,179.711,242.946z
					 M171.78,242.946c0-1.109,0.891-2,2-2l0,0c1.101,0,2,0.891,2,2l0,0c0,1.101-0.899,2-2,2l0,0
					C172.671,244.946,171.78,244.047,171.78,242.946z M163.851,242.946c0-1.109,0.89-2,2-2l0,0c1.1,0,2,0.891,2,2l0,0
					c0,1.101-0.9,2-2,2l0,0C164.74,244.946,163.851,244.047,163.851,242.946z M155.921,242.946c0-1.109,0.89-2,2-2l0,0
					c1.1,0,2,0.891,2,2l0,0c0,1.101-0.9,2-2,2l0,0C156.811,244.946,155.921,244.047,155.921,242.946z M147.99,242.946
					c0-1.109,0.891-2,2-2l0,0c1.101,0,2,0.891,2,2l0,0c0,1.101-0.899,2-2,2l0,0C148.881,244.946,147.99,244.047,147.99,242.946z
					 M140.061,242.946c0-1.109,0.89-2,2-2l0,0c1.1,0,2,0.891,2,2l0,0c0,1.101-0.9,2-2,2l0,0
					C140.95,244.946,140.061,244.047,140.061,242.946z M132.131,242.946c0-1.109,0.89-2,2-2l0,0c1.1,0,2,0.891,2,2l0,0
					c0,1.101-0.9,2-2,2l0,0C133.021,244.946,132.131,244.047,132.131,242.946z M124.2,242.946c0-1.109,0.891-2,2-2l0,0
					c1.101,0,2,0.891,2,2l0,0c0,1.101-0.899,2-2,2l0,0C125.091,244.946,124.2,244.047,124.2,242.946z M116.271,242.946
					c0-1.109,0.89-2,2-2l0,0c1.1,0,2,0.891,2,2l0,0c0,1.101-0.9,2-2,2l0,0C117.16,244.946,116.271,244.047,116.271,242.946z
					 M108.341,242.946c0-1.109,0.89-2,2-2l0,0c1.1,0,2,0.891,2,2l0,0c0,1.101-0.9,2-2,2l0,0
					C109.23,244.946,108.341,244.047,108.341,242.946z M100.41,242.946c0-1.109,0.891-2,2-2l0,0c1.101,0,2,0.891,2,2l0,0
					c0,1.101-0.899,2-2,2l0,0C101.301,244.946,100.41,244.047,100.41,242.946z M92.48,242.946c0-1.109,0.89-2,2-2l0,0
					c1.1,0,2,0.891,2,2l0,0c0,1.101-0.9,2-2,2l0,0C93.37,244.946,92.48,244.047,92.48,242.946z M84.551,242.946c0-1.109,0.89-2,2-2
					l0,0c1.1,0,2,0.891,2,2l0,0c0,1.101-0.9,2-2,2l0,0C85.44,244.946,84.551,244.047,84.551,242.946z M76.62,242.946
					c0-1.109,0.891-2,2-2l0,0c1.101,0,2,0.891,2,2l0,0c0,1.101-0.899,2-2,2l0,0C77.511,244.946,76.62,244.047,76.62,242.946z"/>
			</g>
			<g>
				<path fill="#231F20" d="M70.69,244.946c-0.53,0-1.04-0.22-1.41-0.59c-0.38-0.37-0.59-0.88-0.59-1.41
					c0-0.529,0.21-1.04,0.59-1.42c0.74-0.74,2.08-0.74,2.82,0c0.38,0.38,0.59,0.891,0.59,1.42c0,0.521-0.21,1.04-0.59,1.41
					C71.73,244.727,71.211,244.946,70.69,244.946z"/>
			</g>
			<g>
				<polygon fill="#231F20" points="231.896,226.586 229.168,229.516 243.615,242.941 229.168,256.371 231.896,259.301 
					249.488,242.941 				"/>
			</g>
		</g>
	</g>
	<g>
		<g>
			<path fill="#231F20" d="M2,224.361c-1.104,0-2-0.896-2-2v-14.309c0-1.104,0.896-2,2-2h14.172c1.104,0,2,0.896,2,2s-0.896,2-2,2H4
				v12.309C4,223.466,3.104,224.361,2,224.361z"/>
		</g>
		<g>
			<path fill="#231F20" d="M16.578,224.631c-0.512,0-1.023-0.195-1.414-0.586L0.586,209.467c-0.781-0.781-0.781-2.047,0-2.828
				s2.047-0.781,2.828,0l14.578,14.578c0.781,0.781,0.781,2.047,0,2.828C17.602,224.436,17.09,224.631,16.578,224.631z"/>
		</g>
	</g>
</g>
</svg>
