<?xml version="1.0" encoding="utf-8"?>
<!-- Generator: Adobe Illustrator 16.0.0, SVG Export Plug-In . SVG Version: 6.00 Build 0)  -->
<!DOCTYPE svg PUBLIC "-//W3C//DTD SVG 1.1//EN" "http://www.w3.org/Graphics/SVG/1.1/DTD/svg11.dtd" [
	<!ENTITY ns_extend "http://ns.adobe.com/Extensibility/1.0/">
	<!ENTITY ns_ai "http://ns.adobe.com/AdobeIllustrator/10.0/">
	<!ENTITY ns_graphs "http://ns.adobe.com/Graphs/1.0/">
	<!ENTITY ns_vars "http://ns.adobe.com/Variables/1.0/">
	<!ENTITY ns_imrep "http://ns.adobe.com/ImageReplacement/1.0/">
	<!ENTITY ns_sfw "http://ns.adobe.com/SaveForWeb/1.0/">
	<!ENTITY ns_custom "http://ns.adobe.com/GenericCustomNamespace/1.0/">
	<!ENTITY ns_adobe_xpath "http://ns.adobe.com/XPath/1.0/">
]>
<svg version="1.1" id="Layer_1" xmlns:x="&ns_extend;" xmlns:i="&ns_ai;" xmlns:graph="&ns_graphs;"
	 xmlns="http://www.w3.org/2000/svg" xmlns:xlink="http://www.w3.org/1999/xlink" x="0px" y="0px" width="314px" height="314px"
	 viewBox="0 0 314 314" enable-background="new 0 0 314 314" xml:space="preserve">
<metadata>
	<sfw  xmlns="&ns_sfw;">
		<slices></slices>
		<sliceSourceBounds  width="2857.654" height="4704.053" bottomLeftOrigin="true" y="-4967.661" x="79.346"></sliceSourceBounds>
	</sfw>
</metadata>
<g>
	<g>
		<path opacity="0" fill="#FFFFFF" d="M87.037,58.692c0,15.656-12.693,28.348-28.344,28.348c-15.656,0-28.352-12.691-28.352-28.348
			s12.695-28.346,28.352-28.346C74.344,30.347,87.037,43.036,87.037,58.692z"/>
		<path opacity="0.0208" fill="#FEFEFE" d="M86.446,58.102c0,15.656-12.692,28.348-28.344,28.348
			c-15.656,0-28.352-12.691-28.352-28.348s12.695-28.346,28.352-28.346C73.754,29.756,86.446,42.445,86.446,58.102z"/>
		<path opacity="0.0417" fill="#FDFDFD" d="M85.856,57.512c0,15.656-12.694,28.348-28.345,28.348
			c-15.656,0-28.351-12.691-28.351-28.348s12.694-28.346,28.351-28.346C73.162,29.166,85.856,41.855,85.856,57.512z"/>
		<path opacity="0.0625" fill="#FCFCFC" d="M85.266,56.921c0,15.656-12.693,28.348-28.344,28.348
			c-15.656,0-28.352-12.691-28.352-28.348s12.695-28.346,28.352-28.346C72.572,28.575,85.266,41.265,85.266,56.921z"/>
		<path opacity="0.0833" fill="#FBFBFB" d="M84.675,56.33c0,15.656-12.692,28.348-28.344,28.348
			c-15.656,0-28.352-12.691-28.352-28.348s12.695-28.346,28.352-28.346C71.982,27.984,84.675,40.674,84.675,56.33z"/>
		<path opacity="0.1042" fill="#FAFAFA" d="M84.084,55.74c0,15.655-12.693,28.347-28.344,28.347
			c-15.655,0-28.351-12.691-28.351-28.347c0-15.656,12.695-28.346,28.351-28.346C71.391,27.395,84.084,40.084,84.084,55.74z"/>
		<path opacity="0.125" fill="#F9F9FA" d="M83.495,55.15c0,15.655-12.694,28.347-28.345,28.347
			C39.495,83.497,26.8,70.806,26.8,55.15c0-15.656,12.695-28.347,28.351-28.347C70.801,26.804,83.495,39.494,83.495,55.15z"/>
		<path opacity="0.1458" fill="#F8F8F9" d="M82.903,54.559c0,15.655-12.692,28.348-28.344,28.348
			c-15.655,0-28.351-12.692-28.351-28.348c0-15.656,12.695-28.346,28.351-28.346C70.211,26.213,82.903,38.902,82.903,54.559z"/>
		<path opacity="0.1667" fill="#F7F8F8" d="M82.312,53.969c0,15.655-12.693,28.347-28.344,28.347
			c-15.656,0-28.352-12.691-28.352-28.347c0-15.656,12.695-28.346,28.352-28.346C69.619,25.623,82.312,38.312,82.312,53.969z"/>
		<path opacity="0.1875" fill="#F6F7F7" d="M81.723,53.378c0,15.655-12.692,28.348-28.345,28.348
			c-15.655,0-28.351-12.692-28.351-28.348c0-15.656,12.695-28.346,28.351-28.346C69.03,25.032,81.723,37.722,81.723,53.378z"/>
		<path opacity="0.2083" fill="#F5F6F6" d="M81.132,52.787c0,15.656-12.693,28.348-28.345,28.348
			c-15.655,0-28.351-12.691-28.351-28.348S37.132,24.44,52.787,24.44C68.438,24.44,81.132,37.131,81.132,52.787z"/>
		<path opacity="0.2292" fill="#F4F5F5" d="M80.541,52.197c0,15.655-12.692,28.347-28.344,28.347
			c-15.656,0-28.351-12.691-28.351-28.347c0-15.656,12.694-28.347,28.351-28.347C67.849,23.851,80.541,36.541,80.541,52.197z"/>
		<path opacity="0.25" fill="#F3F4F4" d="M79.951,51.606c0,15.655-12.692,28.347-28.345,28.347
			c-15.655,0-28.351-12.691-28.351-28.347c0-15.656,12.695-28.347,28.351-28.347C67.259,23.26,79.951,35.95,79.951,51.606z"/>
		<path opacity="0.2708" fill="#F2F3F3" d="M79.36,51.016c0,15.656-12.692,28.348-28.345,28.348
			c-15.655,0-28.351-12.691-28.351-28.348S35.36,22.67,51.016,22.67C66.668,22.67,79.36,35.359,79.36,51.016z"/>
		<path opacity="0.2917" fill="#F1F2F2" d="M78.771,50.426c0,15.655-12.693,28.347-28.346,28.347
			c-15.655,0-28.35-12.691-28.35-28.347c0-15.656,12.694-28.347,28.35-28.347C66.077,22.079,78.771,34.77,78.771,50.426z"/>
		<path opacity="0.3125" fill="#F0F1F1" d="M78.18,49.835c0,15.655-12.692,28.348-28.345,28.348
			c-15.655,0-28.351-12.692-28.351-28.348c0-15.656,12.695-28.346,28.351-28.346C65.487,21.489,78.18,34.179,78.18,49.835z"/>
		<path opacity="0.3333" fill="#EFF0F0" d="M77.59,49.244c0,15.656-12.693,28.348-28.346,28.348
			c-15.655,0-28.35-12.691-28.35-28.348s12.694-28.346,28.35-28.346C64.896,20.898,77.59,33.588,77.59,49.244z"/>
		<path opacity="0.3542" fill="#EEEFEF" d="M76.998,48.654C76.998,64.31,64.306,77,48.653,77c-15.655,0-28.351-12.69-28.351-28.346
			c0-15.656,12.695-28.347,28.351-28.347C64.306,20.308,76.998,32.998,76.998,48.654z"/>
		<path opacity="0.375" fill="#EDEEEE" d="M76.408,48.063c0,15.655-12.693,28.347-28.346,28.347
			c-15.654,0-28.35-12.691-28.35-28.347c0-15.656,12.695-28.347,28.35-28.347C63.715,19.717,76.408,32.407,76.408,48.063z"/>
		<path opacity="0.3958" fill="#ECEDEE" d="M75.818,47.473c0,15.656-12.693,28.348-28.346,28.348
			c-15.654,0-28.35-12.691-28.35-28.348s12.695-28.346,28.35-28.346C63.125,19.127,75.818,31.816,75.818,47.473z"/>
		<circle opacity="0.4167" fill="#EBECED" cx="46.879" cy="46.883" r="28.348"/>
		<path opacity="0.4375" fill="#EAEBEC" d="M74.637,46.292c0,15.655-12.693,28.347-28.346,28.347
			c-15.654,0-28.35-12.691-28.35-28.347c0-15.656,12.695-28.347,28.35-28.347C61.943,17.945,74.637,30.636,74.637,46.292z"/>
		<path opacity="0.4583" fill="#E9EAEB" d="M74.047,45.701c0,15.656-12.693,28.348-28.346,28.348
			c-15.655,0-28.35-12.691-28.35-28.348s12.694-28.346,28.35-28.346C61.354,17.355,74.047,30.045,74.047,45.701z"/>
		<circle opacity="0.4792" fill="#E8E9EA" cx="45.108" cy="45.111" r="28.348"/>
		<circle opacity="0.5" fill="#E7E8E9" cx="44.518" cy="44.521" r="28.348"/>
		<path opacity="0.5208" fill="#E7E8E8" d="M72.274,43.93c0,15.656-12.692,28.347-28.345,28.347
			c-15.654,0-28.351-12.69-28.351-28.347S28.275,15.583,43.93,15.583C59.582,15.583,72.274,28.273,72.274,43.93z"/>
		<circle opacity="0.5417" fill="#E6E7E7" cx="43.336" cy="43.34" r="28.347"/>
		<circle opacity="0.5625" fill="#E5E6E6" cx="42.746" cy="42.749" r="28.348"/>
		<circle opacity="0.5833" fill="#E4E5E5" cx="42.156" cy="42.158" r="28.348"/>
		<circle opacity="0.6042" fill="#E3E4E4" cx="41.564" cy="41.568" r="28.348"/>
		<circle opacity="0.625" fill="#E2E3E3" cx="40.975" cy="40.978" r="28.348"/>
		<circle opacity="0.6458" fill="#E1E2E3" cx="40.384" cy="40.387" r="28.348"/>
		<circle opacity="0.6667" fill="#E0E1E2" cx="39.794" cy="39.797" r="28.348"/>
		<circle opacity="0.6875" fill="#DFE0E1" cx="39.203" cy="39.206" r="28.348"/>
		<path opacity="0.7083" fill="#DEDFE0" d="M66.961,38.615c0,15.655-12.692,28.347-28.348,28.347
			c-15.652,0-28.348-12.691-28.348-28.347c0-15.656,12.695-28.347,28.348-28.347C54.269,10.269,66.961,22.959,66.961,38.615z"/>
		<circle opacity="0.7292" fill="#DDDEDF" cx="38.021" cy="38.025" r="28.348"/>
		<circle opacity="0.75" fill="#DCDDDE" cx="37.432" cy="37.435" r="28.348"/>
		<circle opacity="0.7708" fill="#DBDCDD" cx="36.841" cy="36.844" r="28.348"/>
		<circle opacity="0.7917" fill="#DADBDC" cx="36.251" cy="36.254" r="28.348"/>
		<circle opacity="0.8125" fill="#D9DADB" cx="35.66" cy="35.663" r="28.348"/>
		<circle opacity="0.8333" fill="#D8DADA" cx="35.069" cy="35.072" r="28.348"/>
		<path opacity="0.8542" fill="#D7D9D9" d="M62.826,34.482c0,15.654-12.691,28.346-28.347,28.346
			c-15.652,0-28.348-12.691-28.348-28.346c0-15.656,12.695-28.348,28.348-28.348C50.135,6.135,62.826,18.826,62.826,34.482z"/>
		<path opacity="0.875" fill="#D6D8D9" d="M62.236,33.892c0,15.654-12.691,28.346-28.348,28.346
			c-15.652,0-28.348-12.691-28.348-28.346c0-15.656,12.695-28.348,28.348-28.348C49.545,5.544,62.236,18.235,62.236,33.892z"/>
		<path opacity="0.8958" fill="#D5D7D8" d="M61.646,33.302c0,15.654-12.692,28.346-28.349,28.346
			c-15.652,0-28.348-12.691-28.348-28.346c0-15.656,12.695-28.349,28.348-28.349C48.954,4.953,61.646,17.646,61.646,33.302z"/>
		<path opacity="0.9167" fill="#D4D6D7" d="M61.056,32.71c0,15.655-12.692,28.347-28.348,28.347
			C17.056,61.057,4.36,48.365,4.36,32.71c0-15.656,12.695-28.348,28.348-28.348C48.363,4.362,61.056,17.054,61.056,32.71z"/>
		<path opacity="0.9375" fill="#D3D5D6" d="M60.465,32.12c0,15.654-12.692,28.346-28.348,28.346
			C16.465,60.466,3.77,47.774,3.77,32.12c0-15.656,12.695-28.347,28.348-28.347C47.772,3.773,60.465,16.464,60.465,32.12z"/>
		<path opacity="0.9583" fill="#D2D4D5" d="M59.874,31.529c0,15.654-12.691,28.347-28.347,28.347
			c-15.652,0-28.349-12.692-28.349-28.347c0-15.656,12.696-28.347,28.349-28.347C47.183,3.183,59.874,15.873,59.874,31.529z"/>
		<path opacity="0.9792" fill="#D1D3D4" d="M59.284,30.939c0,15.654-12.692,28.345-28.349,28.345
			c-15.652,0-28.348-12.69-28.348-28.345c0-15.656,12.695-28.348,28.348-28.348C46.592,2.592,59.284,15.283,59.284,30.939z"/>
		<path fill="#D0D2D3" d="M58.693,30.349c0,15.654-12.691,28.346-28.348,28.346c-15.652,0-28.348-12.691-28.348-28.346
			c0-15.656,12.695-28.348,28.348-28.348C46.002,2.001,58.693,14.692,58.693,30.349z"/>
	</g>
	<g>
		<circle fill="#FFFFFF" cx="30.347" cy="30.348" r="28.346"/>
		<path fill="#231F20" d="M30.347,60.694c-8.105,0-15.726-3.156-21.458-8.889C3.157,46.074,0,38.453,0,30.347
			C0,22.241,3.157,14.62,8.889,8.89C14.62,3.157,22.24,0,30.346,0s15.727,3.157,21.459,8.89c11.83,11.832,11.83,31.084,0.001,42.916
			C46.072,57.538,38.451,60.694,30.347,60.694z M30.346,4c-7.037,0-13.652,2.741-18.628,7.718C6.741,16.693,4,23.31,4,30.347
			c0,7.038,2.741,13.654,7.717,18.631c4.977,4.977,11.593,7.717,18.63,7.717c7.036,0,13.653-2.74,18.63-7.717
			c10.271-10.272,10.271-26.987,0-37.26C43.999,6.741,37.383,4,30.346,4z"/>
	</g>
	<g>
		<path opacity="0" fill="#FFFFFF" d="M313.809,58.692c0,15.656-12.693,28.348-28.346,28.348c-15.654,0-28.35-12.691-28.35-28.348
			s12.695-28.346,28.35-28.346C301.115,30.347,313.809,43.036,313.809,58.692z"/>
		<path opacity="0.0208" fill="#FEFEFE" d="M313.218,58.102c0,15.656-12.693,28.348-28.345,28.348
			c-15.654,0-28.351-12.691-28.351-28.348s12.696-28.346,28.351-28.346C300.524,29.756,313.218,42.445,313.218,58.102z"/>
		<path opacity="0.0417" fill="#FDFDFD" d="M312.627,57.512c0,15.656-12.692,28.348-28.345,28.348
			c-15.654,0-28.35-12.691-28.35-28.348s12.695-28.346,28.35-28.346C299.935,29.166,312.627,41.855,312.627,57.512z"/>
		<path opacity="0.0625" fill="#FCFCFC" d="M312.037,56.921c0,15.656-12.693,28.348-28.345,28.348
			c-15.655,0-28.351-12.691-28.351-28.348s12.695-28.346,28.351-28.346C299.344,28.575,312.037,41.265,312.037,56.921z"/>
		<path opacity="0.0833" fill="#FBFBFB" d="M311.446,56.33c0,15.656-12.693,28.348-28.346,28.348
			c-15.653,0-28.35-12.691-28.35-28.348s12.696-28.346,28.35-28.346C298.753,27.984,311.446,40.674,311.446,56.33z"/>
		<path opacity="0.1042" fill="#FAFAFA" d="M310.855,55.74c0,15.655-12.693,28.347-28.345,28.347
			c-15.654,0-28.35-12.691-28.35-28.347c0-15.656,12.695-28.346,28.35-28.346C298.162,27.395,310.855,40.084,310.855,55.74z"/>
		<path opacity="0.125" fill="#F9F9FA" d="M310.266,55.15c0,15.655-12.693,28.347-28.346,28.347
			c-15.653,0-28.349-12.691-28.349-28.347c0-15.656,12.695-28.347,28.349-28.347C297.572,26.804,310.266,39.494,310.266,55.15z"/>
		<path opacity="0.1458" fill="#F8F8F9" d="M309.674,54.559c0,15.655-12.692,28.348-28.345,28.348
			c-15.654,0-28.349-12.692-28.349-28.348c0-15.656,12.694-28.346,28.349-28.346C296.981,26.213,309.674,38.902,309.674,54.559z"/>
		<circle opacity="0.1667" fill="#F7F8F8" cx="280.737" cy="53.969" r="28.348"/>
		<path opacity="0.1875" fill="#F6F7F7" d="M308.494,53.378c0,15.655-12.693,28.348-28.346,28.348
			c-15.654,0-28.35-12.692-28.35-28.348c0-15.656,12.695-28.346,28.35-28.346C295.801,25.032,308.494,37.722,308.494,53.378z"/>
		<path opacity="0.2083" fill="#F5F6F6" d="M307.902,52.787c0,15.656-12.692,28.348-28.345,28.348
			c-15.653,0-28.35-12.691-28.35-28.348s12.696-28.347,28.35-28.347C295.21,24.44,307.902,37.131,307.902,52.787z"/>
		<path opacity="0.2292" fill="#F4F5F5" d="M307.312,52.197c0,15.655-12.693,28.347-28.346,28.347
			c-15.653,0-28.349-12.691-28.349-28.347c0-15.656,12.695-28.347,28.349-28.347C294.619,23.851,307.312,36.541,307.312,52.197z"/>
		<path opacity="0.25" fill="#F3F4F4" d="M306.722,51.606c0,15.655-12.692,28.347-28.345,28.347
			c-15.654,0-28.35-12.691-28.35-28.347c0-15.656,12.695-28.347,28.35-28.347C294.029,23.26,306.722,35.95,306.722,51.606z"/>
		<path opacity="0.2708" fill="#F2F3F3" d="M306.131,51.016c0,15.656-12.692,28.348-28.345,28.348
			c-15.653,0-28.349-12.691-28.349-28.348s12.695-28.346,28.349-28.346C293.438,22.67,306.131,35.359,306.131,51.016z"/>
		<circle opacity="0.2917" fill="#F1F2F2" cx="277.194" cy="50.426" r="28.347"/>
		<path opacity="0.3125" fill="#F0F1F1" d="M304.951,49.835c0,15.655-12.693,28.348-28.346,28.348
			c-15.653,0-28.349-12.692-28.349-28.348c0-15.656,12.695-28.346,28.349-28.346C292.258,21.489,304.951,34.179,304.951,49.835z"/>
		<circle opacity="0.3333" fill="#EFF0F0" cx="276.013" cy="49.244" r="28.347"/>
		<path opacity="0.3542" fill="#EEEFEF" d="M303.77,48.654C303.77,64.31,291.076,77,275.424,77
			c-15.653,0-28.349-12.69-28.349-28.346c0-15.656,12.695-28.347,28.349-28.347C291.076,20.308,303.77,32.998,303.77,48.654z"/>
		<path opacity="0.375" fill="#EDEEEE" d="M303.179,48.063c0,15.655-12.692,28.347-28.345,28.347
			c-15.654,0-28.35-12.691-28.35-28.347c0-15.656,12.695-28.347,28.35-28.347C290.486,19.717,303.179,32.407,303.179,48.063z"/>
		<path opacity="0.3958" fill="#ECEDEE" d="M302.589,47.473c0,15.656-12.692,28.348-28.345,28.348
			c-15.654,0-28.35-12.691-28.35-28.348s12.695-28.346,28.35-28.346C289.896,19.127,302.589,31.816,302.589,47.473z"/>
		<path opacity="0.4167" fill="#EBECED" d="M301.998,46.883c0,15.655-12.692,28.347-28.346,28.347
			c-15.652,0-28.348-12.691-28.348-28.347c0-15.656,12.695-28.348,28.348-28.348C289.306,18.535,301.998,31.227,301.998,46.883z"/>
		<path opacity="0.4375" fill="#EAEBEC" d="M301.406,46.292c0,15.655-12.691,28.347-28.344,28.347
			c-15.654,0-28.35-12.691-28.35-28.347c0-15.656,12.695-28.347,28.35-28.347C288.715,17.945,301.406,30.636,301.406,46.292z"/>
		<circle opacity="0.4583" fill="#E9EAEB" cx="272.47" cy="45.701" r="28.347"/>
		<path opacity="0.4792" fill="#E8E9EA" d="M300.227,45.111c0,15.655-12.692,28.347-28.345,28.347
			c-15.653,0-28.349-12.691-28.349-28.347c0-15.656,12.695-28.347,28.349-28.347C287.534,16.765,300.227,29.455,300.227,45.111z"/>
		<path opacity="0.5" fill="#E7E8E9" d="M299.636,44.521c0,15.655-12.692,28.347-28.345,28.347
			c-15.653,0-28.349-12.691-28.349-28.347c0-15.656,12.695-28.347,28.349-28.347C286.943,16.174,299.636,28.864,299.636,44.521z"/>
		<path opacity="0.5208" fill="#E7E8E8" d="M299.045,43.93c0,15.656-12.691,28.347-28.344,28.347
			c-15.654,0-28.35-12.69-28.35-28.347s12.695-28.347,28.35-28.347C286.354,15.583,299.045,28.273,299.045,43.93z"/>
		<path opacity="0.5417" fill="#E6E7E7" d="M298.455,43.34c0,15.654-12.693,28.346-28.346,28.346s-28.348-12.691-28.348-28.346
			c0-15.656,12.695-28.348,28.348-28.348S298.455,27.684,298.455,43.34z"/>
		<path opacity="0.5625" fill="#E5E6E6" d="M297.864,42.749c0,15.655-12.692,28.347-28.345,28.347
			c-15.653,0-28.349-12.691-28.349-28.347c0-15.656,12.695-28.347,28.349-28.347C285.172,14.402,297.864,27.093,297.864,42.749z"/>
		<path opacity="0.5833" fill="#E4E5E5" d="M297.273,42.158c0,15.656-12.691,28.348-28.344,28.348
			c-15.654,0-28.35-12.691-28.35-28.348s12.695-28.347,28.35-28.347C284.582,13.812,297.273,26.502,297.273,42.158z"/>
		<path opacity="0.6042" fill="#E3E4E4" d="M296.684,41.568c0,15.654-12.692,28.346-28.346,28.346
			c-15.652,0-28.348-12.691-28.348-28.346c0-15.656,12.695-28.348,28.348-28.348C283.991,13.221,296.684,25.912,296.684,41.568z"/>
		<path opacity="0.625" fill="#E2E3E3" d="M296.093,40.978c0,15.655-12.692,28.347-28.345,28.347
			c-15.653,0-28.349-12.691-28.349-28.347c0-15.656,12.695-28.347,28.349-28.347C283.4,12.631,296.093,25.321,296.093,40.978z"/>
		<path opacity="0.6458" fill="#E1E2E3" d="M295.502,40.387c0,15.655-12.691,28.347-28.344,28.347
			c-15.653,0-28.35-12.691-28.35-28.347c0-15.656,12.696-28.347,28.35-28.347C282.811,12.04,295.502,24.73,295.502,40.387z"/>
		<path opacity="0.6667" fill="#E0E1E2" d="M294.911,39.797c0,15.654-12.691,28.346-28.345,28.346
			c-15.652,0-28.348-12.691-28.348-28.346c0-15.656,12.695-28.348,28.348-28.348C282.22,11.449,294.911,24.141,294.911,39.797z"/>
		<path opacity="0.6875" fill="#DFE0E1" d="M294.32,39.206c0,15.655-12.691,28.347-28.344,28.347
			c-15.653,0-28.349-12.691-28.349-28.347c0-15.656,12.695-28.347,28.349-28.347C281.629,10.859,294.32,23.55,294.32,39.206z"/>
		<path opacity="0.7083" fill="#DEDFE0" d="M293.73,38.615c0,15.655-12.692,28.347-28.344,28.347
			c-15.654,0-28.349-12.691-28.349-28.347c0-15.656,12.694-28.347,28.349-28.347C281.038,10.269,293.73,22.959,293.73,38.615z"/>
		<path opacity="0.7292" fill="#DDDEDF" d="M293.14,38.025c0,15.654-12.691,28.346-28.345,28.346
			c-15.652,0-28.348-12.691-28.348-28.346c0-15.656,12.695-28.348,28.348-28.348C280.448,9.678,293.14,22.369,293.14,38.025z"/>
		<circle opacity="0.75" fill="#DCDDDE" cx="264.203" cy="37.435" r="28.346"/>
		<path opacity="0.7708" fill="#DBDCDD" d="M291.959,36.844c0,15.655-12.691,28.347-28.344,28.347
			c-15.653,0-28.349-12.691-28.349-28.347c0-15.656,12.695-28.347,28.349-28.347C279.268,8.497,291.959,21.188,291.959,36.844z"/>
		<path opacity="0.7917" fill="#DADBDC" d="M291.368,36.254c0,15.654-12.691,28.346-28.345,28.346
			c-15.652,0-28.348-12.691-28.348-28.346c0-15.656,12.695-28.348,28.348-28.348C278.677,7.906,291.368,20.598,291.368,36.254z"/>
		<circle opacity="0.8125" fill="#D9DADB" cx="262.432" cy="35.663" r="28.346"/>
		<path opacity="0.8333" fill="#D8DADA" d="M290.188,35.072c0,15.654-12.692,28.346-28.345,28.346s-28.348-12.691-28.348-28.346
			c0-15.656,12.695-28.347,28.348-28.347S290.188,19.416,290.188,35.072z"/>
		<path opacity="0.8542" fill="#D7D9D9" d="M289.597,34.482c0,15.654-12.692,28.346-28.344,28.346
			c-15.653,0-28.349-12.691-28.349-28.346c0-15.656,12.695-28.348,28.349-28.348C276.904,6.135,289.597,18.826,289.597,34.482z"/>
		<path opacity="0.875" fill="#D6D8D9" d="M289.006,33.892c0,15.654-12.691,28.346-28.344,28.346
			c-15.653,0-28.349-12.691-28.349-28.346c0-15.656,12.695-28.348,28.349-28.348C276.314,5.544,289.006,18.235,289.006,33.892z"/>
		<path opacity="0.8958" fill="#D5D7D8" d="M288.416,33.302c0,15.654-12.691,28.346-28.345,28.346
			c-15.652,0-28.348-12.691-28.348-28.346c0-15.656,12.695-28.349,28.348-28.349C275.725,4.953,288.416,17.646,288.416,33.302z"/>
		<circle opacity="0.9167" fill="#D4D6D7" cx="259.479" cy="32.71" r="28.346"/>
		<circle opacity="0.9375" fill="#D3D5D6" cx="258.889" cy="32.12" r="28.346"/>
		<circle opacity="0.9583" fill="#D2D4D5" cx="258.298" cy="31.529" r="28.346"/>
		<path opacity="0.9792" fill="#D1D3D4" d="M286.054,30.939c0,15.654-12.691,28.345-28.344,28.345s-28.349-12.69-28.349-28.345
			c0-15.656,12.696-28.348,28.349-28.348S286.054,15.283,286.054,30.939z"/>
		<circle fill="#D0D2D3" cx="257.117" cy="30.349" r="28.346"/>
	</g>
	<g>
		<circle fill="#FFFFFF" cx="257.117" cy="30.349" r="28.346"/>
		<path fill="#231F20" d="M257.119,60.694c-16.732,0-30.348-13.613-30.348-30.346c0-16.733,13.615-30.348,30.348-30.348
			s30.344,13.614,30.344,30.348C287.463,47.081,273.852,60.694,257.119,60.694z M257.119,4.001
			c-14.527,0-26.348,11.819-26.348,26.348c0,14.527,11.82,26.346,26.348,26.346s26.344-11.818,26.344-26.346
			C283.463,15.82,271.646,4.001,257.119,4.001z"/>
	</g>
	<g>
		<path opacity="0" fill="#FFFFFF" d="M313.809,285.466c0,15.654-12.693,28.346-28.346,28.346c-15.654,0-28.35-12.691-28.35-28.346
			c0-15.656,12.695-28.348,28.35-28.348C301.115,257.118,313.809,269.81,313.809,285.466z"/>
		<path opacity="0.0208" fill="#FEFEFE" d="M313.218,284.875c0,15.654-12.693,28.346-28.345,28.346
			c-15.654,0-28.351-12.691-28.351-28.346c0-15.656,12.696-28.348,28.351-28.348C300.524,256.527,313.218,269.219,313.218,284.875z"
			/>
		<path opacity="0.0417" fill="#FDFDFD" d="M312.627,284.285c0,15.654-12.692,28.345-28.345,28.345
			c-15.654,0-28.35-12.69-28.35-28.345c0-15.656,12.695-28.349,28.35-28.349C299.935,255.937,312.627,268.629,312.627,284.285z"/>
		<path opacity="0.0625" fill="#FCFCFC" d="M312.037,283.694c0,15.654-12.693,28.346-28.345,28.346
			c-15.655,0-28.351-12.691-28.351-28.346c0-15.656,12.695-28.348,28.351-28.348C299.344,255.347,312.037,268.038,312.037,283.694z"
			/>
		<path opacity="0.0833" fill="#FBFBFB" d="M311.446,283.104c0,15.654-12.693,28.346-28.346,28.346
			c-15.653,0-28.35-12.691-28.35-28.346c0-15.656,12.696-28.348,28.35-28.348C298.753,254.756,311.446,267.447,311.446,283.104z"/>
		<path opacity="0.1042" fill="#FAFAFA" d="M310.855,282.513c0,15.654-12.693,28.346-28.345,28.346
			c-15.654,0-28.35-12.691-28.35-28.346c0-15.656,12.695-28.347,28.35-28.347C298.162,254.166,310.855,266.856,310.855,282.513z"/>
		<path opacity="0.125" fill="#F9F9FA" d="M310.266,281.923c0,15.654-12.693,28.346-28.346,28.346
			c-15.653,0-28.349-12.691-28.349-28.346c0-15.656,12.695-28.348,28.349-28.348C297.572,253.575,310.266,266.267,310.266,281.923z"
			/>
		<path opacity="0.1458" fill="#F8F8F9" d="M309.674,281.332c0,15.654-12.692,28.346-28.345,28.346
			c-15.654,0-28.349-12.691-28.349-28.346c0-15.656,12.694-28.348,28.349-28.348C296.981,252.984,309.674,265.676,309.674,281.332z"
			/>
		<circle opacity="0.1667" fill="#F7F8F8" cx="280.737" cy="280.741" r="28.348"/>
		<path opacity="0.1875" fill="#F6F7F7" d="M308.494,280.151c0,15.654-12.693,28.345-28.346,28.345
			c-15.654,0-28.35-12.69-28.35-28.345c0-15.656,12.695-28.348,28.35-28.348C295.801,251.804,308.494,264.495,308.494,280.151z"/>
		<path opacity="0.2083" fill="#F5F6F6" d="M307.902,279.561c0,15.654-12.692,28.346-28.345,28.346
			c-15.653,0-28.35-12.691-28.35-28.346c0-15.656,12.696-28.349,28.35-28.349C295.21,251.212,307.902,263.904,307.902,279.561z"/>
		<path opacity="0.2292" fill="#F4F5F5" d="M307.312,278.97c0,15.654-12.693,28.346-28.346,28.346
			c-15.653,0-28.349-12.691-28.349-28.346c0-15.656,12.695-28.348,28.349-28.348C294.619,250.622,307.312,263.313,307.312,278.97z"
			/>
		<path opacity="0.25" fill="#F3F4F4" d="M306.722,278.379c0,15.654-12.692,28.346-28.345,28.346
			c-15.654,0-28.35-12.691-28.35-28.346c0-15.656,12.695-28.348,28.35-28.348C294.029,250.031,306.722,262.723,306.722,278.379z"/>
		<path opacity="0.2708" fill="#F2F3F3" d="M306.131,277.788c0,15.655-12.692,28.346-28.345,28.346
			c-15.653,0-28.349-12.69-28.349-28.346c0-15.656,12.695-28.348,28.349-28.348C293.438,249.44,306.131,262.132,306.131,277.788z"/>
		<circle opacity="0.2917" fill="#F1F2F2" cx="277.194" cy="277.197" r="28.347"/>
		<path opacity="0.3125" fill="#F0F1F1" d="M304.951,276.607c0,15.654-12.693,28.347-28.346,28.347
			c-15.653,0-28.349-12.692-28.349-28.347c0-15.656,12.695-28.347,28.349-28.347C292.258,248.261,304.951,260.951,304.951,276.607z"
			/>
		<circle opacity="0.3333" fill="#EFF0F0" cx="276.013" cy="276.017" r="28.347"/>
		<path opacity="0.3542" fill="#EEEFEF" d="M303.77,275.426c0,15.655-12.693,28.346-28.346,28.346
			c-15.653,0-28.349-12.69-28.349-28.346c0-15.656,12.695-28.347,28.349-28.347C291.076,247.079,303.77,259.77,303.77,275.426z"/>
		<path opacity="0.375" fill="#EDEEEE" d="M303.179,274.835c0,15.655-12.692,28.347-28.345,28.347
			c-15.654,0-28.35-12.691-28.35-28.347c0-15.656,12.695-28.347,28.35-28.347C290.486,246.488,303.179,259.179,303.179,274.835z"/>
		<path opacity="0.3958" fill="#ECEDEE" d="M302.589,274.246c0,15.654-12.692,28.346-28.345,28.346
			c-15.654,0-28.35-12.691-28.35-28.346c0-15.656,12.695-28.348,28.35-28.348C289.896,245.898,302.589,258.59,302.589,274.246z"/>
		<path opacity="0.4167" fill="#EBECED" d="M301.998,273.654c0,15.654-12.692,28.346-28.346,28.346
			c-15.652,0-28.348-12.691-28.348-28.346c0-15.656,12.695-28.347,28.348-28.347C289.306,245.308,301.998,257.998,301.998,273.654z"
			/>
		<path opacity="0.4375" fill="#EAEBEC" d="M301.406,273.062c0,15.656-12.691,28.348-28.344,28.348
			c-15.654,0-28.35-12.691-28.35-28.348s12.695-28.346,28.35-28.346C288.715,244.717,301.406,257.406,301.406,273.062z"/>
		<circle opacity="0.4583" fill="#E9EAEB" cx="272.47" cy="272.473" r="28.347"/>
		<path opacity="0.4792" fill="#E8E9EA" d="M300.227,271.883c0,15.655-12.692,28.347-28.345,28.347
			c-15.653,0-28.349-12.691-28.349-28.347c0-15.656,12.695-28.347,28.349-28.347C287.534,243.536,300.227,256.227,300.227,271.883z"
			/>
		<path opacity="0.5" fill="#E7E8E9" d="M299.636,271.292c0,15.655-12.692,28.347-28.345,28.347
			c-15.653,0-28.349-12.691-28.349-28.347c0-15.656,12.695-28.347,28.349-28.347C286.943,242.945,299.636,255.636,299.636,271.292z"
			/>
		<path opacity="0.5208" fill="#E7E8E8" d="M299.045,270.701c0,15.655-12.691,28.348-28.344,28.348
			c-15.654,0-28.35-12.692-28.35-28.348c0-15.656,12.695-28.346,28.35-28.346C286.354,242.355,299.045,255.045,299.045,270.701z"/>
		<path opacity="0.5417" fill="#E6E7E7" d="M298.455,270.111c0,15.654-12.693,28.346-28.346,28.346s-28.348-12.691-28.348-28.346
			c0-15.656,12.695-28.348,28.348-28.348S298.455,254.455,298.455,270.111z"/>
		<path opacity="0.5625" fill="#E5E6E6" d="M297.864,269.52c0,15.656-12.692,28.348-28.345,28.348
			c-15.653,0-28.349-12.691-28.349-28.348s12.695-28.346,28.349-28.346C285.172,241.174,297.864,253.863,297.864,269.52z"/>
		<path opacity="0.5833" fill="#E4E5E5" d="M297.273,268.93c0,15.655-12.691,28.347-28.344,28.347
			c-15.654,0-28.35-12.691-28.35-28.347c0-15.656,12.695-28.346,28.35-28.346C284.582,240.584,297.273,253.273,297.273,268.93z"/>
		<path opacity="0.6042" fill="#E3E4E4" d="M296.684,268.34c0,15.654-12.692,28.346-28.346,28.346
			c-15.652,0-28.348-12.691-28.348-28.346c0-15.656,12.695-28.348,28.348-28.348C283.991,239.992,296.684,252.684,296.684,268.34z"
			/>
		<path opacity="0.625" fill="#E2E3E3" d="M296.093,267.748c0,15.656-12.692,28.348-28.345,28.348
			c-15.653,0-28.349-12.691-28.349-28.348s12.695-28.346,28.349-28.346C283.4,239.402,296.093,252.092,296.093,267.748z"/>
		<path opacity="0.6458" fill="#E1E2E3" d="M295.502,267.158c0,15.655-12.691,28.347-28.344,28.347
			c-15.653,0-28.35-12.691-28.35-28.347c0-15.656,12.696-28.347,28.35-28.347C282.811,238.812,295.502,251.502,295.502,267.158z"/>
		<path opacity="0.6667" fill="#E0E1E2" d="M294.911,266.567c0,15.655-12.691,28.347-28.345,28.347
			c-15.652,0-28.348-12.691-28.348-28.347c0-15.656,12.695-28.347,28.348-28.347C282.22,238.221,294.911,250.911,294.911,266.567z"
			/>
		<path opacity="0.6875" fill="#DFE0E1" d="M294.32,265.977c0,15.656-12.691,28.348-28.344,28.348
			c-15.653,0-28.349-12.691-28.349-28.348s12.695-28.346,28.349-28.346C281.629,237.631,294.32,250.32,294.32,265.977z"/>
		<path opacity="0.7083" fill="#DEDFE0" d="M293.73,265.387c0,15.655-12.692,28.347-28.344,28.347
			c-15.654,0-28.349-12.691-28.349-28.347c0-15.656,12.694-28.347,28.349-28.347C281.038,237.04,293.73,249.73,293.73,265.387z"/>
		<path opacity="0.7292" fill="#DDDEDF" d="M293.14,264.795c0,15.656-12.691,28.348-28.345,28.348
			c-15.652,0-28.348-12.691-28.348-28.348s12.695-28.346,28.348-28.346C280.448,236.449,293.14,249.139,293.14,264.795z"/>
		<circle opacity="0.75" fill="#DCDDDE" cx="264.203" cy="264.205" r="28.346"/>
		<path opacity="0.7708" fill="#DBDCDD" d="M291.959,263.614c0,15.656-12.691,28.347-28.344,28.347
			c-15.653,0-28.349-12.69-28.349-28.347s12.695-28.347,28.349-28.347C279.268,235.268,291.959,247.958,291.959,263.614z"/>
		<path opacity="0.7917" fill="#DADBDC" d="M291.368,263.024c0,15.655-12.691,28.347-28.345,28.347
			c-15.652,0-28.348-12.691-28.348-28.347c0-15.656,12.695-28.347,28.348-28.347C278.677,234.678,291.368,247.368,291.368,263.024z"
			/>
		<circle opacity="0.8125" fill="#D9DADB" cx="262.432" cy="262.434" r="28.346"/>
		<path opacity="0.8333" fill="#D8DADA" d="M290.188,261.843c0,15.656-12.692,28.348-28.345,28.348s-28.348-12.691-28.348-28.348
			s12.695-28.346,28.348-28.346S290.188,246.187,290.188,261.843z"/>
		<path opacity="0.8542" fill="#D7D9D9" d="M289.597,261.252c0,15.656-12.692,28.348-28.344,28.348
			c-15.653,0-28.349-12.691-28.349-28.348s12.695-28.346,28.349-28.346C276.904,232.906,289.597,245.596,289.597,261.252z"/>
		<path opacity="0.875" fill="#D6D8D9" d="M289.006,260.661c0,15.656-12.691,28.349-28.344,28.349
			c-15.653,0-28.349-12.692-28.349-28.349s12.695-28.346,28.349-28.346C276.314,232.315,289.006,245.005,289.006,260.661z"/>
		<path opacity="0.8958" fill="#D5D7D8" d="M288.416,260.071c0,15.656-12.691,28.347-28.345,28.347
			c-15.652,0-28.348-12.69-28.348-28.347s12.695-28.347,28.348-28.347C275.725,231.725,288.416,244.415,288.416,260.071z"/>
		<circle opacity="0.9167" fill="#D4D6D7" cx="259.479" cy="259.48" r="28.346"/>
		<circle opacity="0.9375" fill="#D3D5D6" cx="258.889" cy="258.89" r="28.346"/>
		<circle opacity="0.9583" fill="#D2D4D5" cx="258.298" cy="258.3" r="28.346"/>
		<path opacity="0.9792" fill="#D1D3D4" d="M286.054,257.708c0,15.656-12.691,28.349-28.344,28.349s-28.349-12.692-28.349-28.349
			s12.696-28.345,28.349-28.345S286.054,242.052,286.054,257.708z"/>
		<circle fill="#D0D2D3" cx="257.117" cy="257.118" r="28.346"/>
	</g>
	<g>
		<circle fill="#FFFFFF" cx="257.117" cy="257.119" r="28.347"/>
		<path fill="#231F20" d="M257.117,287.466c-8.105,0-15.727-3.156-21.459-8.889c-11.832-11.832-11.832-31.084,0-42.916
			c5.732-5.732,13.354-8.889,21.459-8.889c8.107,0,15.729,3.156,21.459,8.889c11.832,11.832,11.832,31.084,0,42.916
			C272.846,284.31,265.225,287.466,257.117,287.466z M257.117,230.772c-7.037,0-13.654,2.74-18.631,7.717
			c-10.271,10.272-10.271,26.987,0,37.26c4.977,4.977,11.594,7.717,18.631,7.717c7.039,0,13.654-2.74,18.631-7.717
			c10.273-10.272,10.273-26.987,0-37.26C270.771,233.513,264.156,230.772,257.117,230.772z"/>
	</g>
	<g>
		<g>
			<path fill="#231F20" d="M257.115,224.435c-1.104,0-2-0.896-2-2V58.692c0-1.104,0.896-2,2-2c1.105,0,2,0.896,2,2v163.742
				C259.115,223.539,258.221,224.435,257.115,224.435z"/>
		</g>
		<g>
			<polygon fill="#231F20" points="240.756,209.181 243.686,206.452 257.111,220.899 270.541,206.452 273.471,209.181 
				257.111,226.772 			"/>
		</g>
	</g>
	<g>
		<g>
			<path fill="#231F20" d="M222.434,32.347H58.693c-1.104,0-2-0.896-2-2s0.896-2,2-2h163.74c1.105,0,2,0.896,2,2
				S223.539,32.347,222.434,32.347z"/>
		</g>
		<g>
			<polygon fill="#231F20" points="209.18,46.706 206.451,43.776 220.898,30.351 206.451,16.921 209.18,13.991 226.771,30.351 			
				"/>
		</g>
	</g>
	<g>
		<g>
			<path fill="#231F20" d="M230,232.826c-0.791-0.78-0.791-2.05,0-2.83l0,0c0.77-0.78,2.039-0.78,2.82,0l0,0
				c0.779,0.78,0.779,2.05,0,2.83l0,0c-0.391,0.39-0.9,0.58-1.41,0.58l0,0C230.9,233.406,230.379,233.216,230,232.826z
				 M224.34,227.166c-0.779-0.78-0.779-2.04,0-2.83l0,0c0.779-0.78,2.051-0.78,2.83,0l0,0c0.779,0.79,0.779,2.05,0,2.83l0,0
				c-0.391,0.39-0.91,0.59-1.42,0.59l0,0C225.24,227.756,224.73,227.556,224.34,227.166z M218.68,221.516
				c-0.779-0.79-0.779-2.05,0-2.83l0,0c0.779-0.779,2.051-0.779,2.83,0l0,0c0.779,0.78,0.779,2.04,0,2.83l0,0
				c-0.391,0.391-0.9,0.58-1.42,0.58l0,0C219.58,222.096,219.07,221.906,218.68,221.516z M213.02,215.855
				c-0.779-0.779-0.779-2.05,0-2.829l0,0c0.781-0.78,2.051-0.78,2.83,0l0,0c0.779,0.779,0.779,2.05,0,2.829l0,0
				c-0.391,0.391-0.9,0.58-1.41,0.58l0,0C213.92,216.436,213.41,216.246,213.02,215.855z M207.369,210.196
				c-0.789-0.78-0.789-2.051,0-2.83l0,0c0.781-0.78,2.041-0.78,2.83,0l0,0c0.781,0.779,0.781,2.05,0,2.83l0,0
				c-0.389,0.39-0.91,0.59-1.42,0.59l0,0C208.27,210.786,207.76,210.586,207.369,210.196z M201.709,204.536
				c-0.779-0.78-0.779-2.04,0-2.82l0,0c0.781-0.78,2.051-0.78,2.83,0l0,0c0.781,0.78,0.781,2.04,0,2.82l0,0
				c-0.389,0.39-0.898,0.59-1.42,0.59l0,0C202.609,205.126,202.1,204.926,201.709,204.536z M196.051,198.886
				c-0.781-0.78-0.781-2.05,0-2.83l0,0c0.779-0.779,2.049-0.779,2.828,0l0,0c0.781,0.78,0.781,2.05,0,2.83l0,0
				c-0.389,0.391-0.898,0.58-1.408,0.58l0,0C196.959,199.466,196.439,199.276,196.051,198.886z M190.4,193.226
				c-0.781-0.779-0.781-2.04,0-2.83l0,0c0.779-0.779,2.039-0.779,2.83,0l0,0c0.77,0.79,0.77,2.051,0,2.83l0,0
				c-0.4,0.391-0.91,0.591-1.42,0.591l0,0C191.301,193.816,190.789,193.616,190.4,193.226z M184.74,187.566
				c-0.781-0.78-0.781-2.04,0-2.82l0,0c0.779-0.79,2.049-0.79,2.83,0l0,0c0.779,0.78,0.779,2.04,0,2.82l0,0
				c-0.391,0.39-0.9,0.59-1.42,0.59l0,0C185.641,188.156,185.129,187.956,184.74,187.566z M179.08,181.916
				c-0.78-0.79-0.78-2.05,0-2.83l0,0c0.779-0.78,2.049-0.78,2.83,0l0,0c0.779,0.78,0.779,2.04,0,2.83l0,0
				c-0.391,0.39-0.9,0.58-1.41,0.58l0,0C179.98,182.496,179.471,182.306,179.08,181.916z M173.43,176.256
				c-0.79-0.78-0.79-2.05,0-2.83l0,0c0.78-0.78,2.04-0.78,2.82,0l0,0c0.79,0.78,0.79,2.05,0,2.83l0,0
				c-0.391,0.39-0.9,0.59-1.41,0.59l0,0C174.33,176.846,173.82,176.646,173.43,176.256z M167.77,170.596
				c-0.779-0.779-0.779-2.04,0-2.819l0,0c0.78-0.78,2.051-0.78,2.83,0l0,0c0.78,0.779,0.78,2.04,0,2.819l0,0
				c-0.39,0.391-0.9,0.59-1.42,0.59l0,0C168.67,171.186,168.16,170.986,167.77,170.596z M162.109,164.946
				c-0.779-0.78-0.779-2.051,0-2.83l0,0c0.78-0.78,2.051-0.78,2.83,0l0,0c0.78,0.779,0.78,2.05,0,2.83l0,0
				c-0.39,0.39-0.899,0.58-1.41,0.58l0,0C163.01,165.526,162.5,165.336,162.109,164.946z M156.46,159.286
				c-0.78-0.78-0.78-2.05,0-2.83l0,0c0.78-0.78,2.04-0.78,2.83,0l0,0c0.771,0.78,0.771,2.05,0,2.83l0,0
				c-0.4,0.39-0.91,0.59-1.42,0.59l0,0C157.359,159.876,156.85,159.676,156.46,159.286z M150.8,153.626c-0.78-0.78-0.78-2.04,0-2.83
				l0,0c0.78-0.78,2.05-0.78,2.83,0l0,0c0.78,0.79,0.78,2.05,0,2.83l0,0c-0.39,0.39-0.899,0.59-1.42,0.59l0,0
				C151.699,154.216,151.189,154.016,150.8,153.626z M145.14,147.976c-0.78-0.79-0.78-2.05,0-2.83l0,0c0.78-0.779,2.05-0.779,2.83,0
				l0,0c0.78,0.78,0.78,2.04,0,2.83l0,0c-0.39,0.391-0.899,0.58-1.409,0.58l0,0C146.04,148.556,145.529,148.366,145.14,147.976z
				 M139.49,142.316c-0.791-0.78-0.791-2.051,0-2.83l0,0c0.779-0.78,2.039-0.78,2.82,0l0,0c0.789,0.779,0.789,2.05,0,2.83l0,0
				c-0.391,0.39-0.9,0.59-1.41,0.59l0,0C140.39,142.906,139.88,142.706,139.49,142.316z M133.83,136.656
				c-0.78-0.78-0.78-2.051,0-2.83l0,0c0.779-0.78,2.04-0.78,2.83,0l0,0c0.779,0.779,0.779,2.05,0,2.83l0,0
				c-0.391,0.39-0.91,0.59-1.42,0.59l0,0C134.73,137.246,134.22,137.046,133.83,136.656z M128.17,131.006
				c-0.78-0.78-0.78-2.05,0-2.83l0,0c0.779-0.78,2.05-0.78,2.83,0l0,0c0.779,0.78,0.779,2.05,0,2.83l0,0
				c-0.391,0.39-0.9,0.58-1.41,0.58l0,0C129.07,131.586,128.561,131.396,128.17,131.006z M122.52,125.346
				c-0.779-0.779-0.779-2.05,0-2.83l0,0c0.78-0.779,2.041-0.779,2.82,0l0,0c0.78,0.78,0.78,2.051,0,2.83l0,0
				c-0.391,0.391-0.9,0.58-1.41,0.58l0,0C123.42,125.926,122.91,125.736,122.52,125.346z M116.859,119.686
				c-0.779-0.779-0.779-2.05,0-2.83l0,0c0.78-0.779,2.051-0.779,2.83,0l0,0c0.78,0.78,0.78,2.051,0,2.83l0,0
				c-0.39,0.391-0.899,0.591-1.42,0.591l0,0C117.76,120.276,117.25,120.076,116.859,119.686z M111.199,114.036
				c-0.779-0.79-0.779-2.05,0-2.83l0,0c0.781-0.79,2.051-0.79,2.83,0l0,0c0.781,0.78,0.781,2.04,0,2.83l0,0
				c-0.39,0.39-0.899,0.58-1.409,0.58l0,0C112.1,114.616,111.59,114.426,111.199,114.036z M105.54,108.376
				c-0.78-0.78-0.78-2.05,0-2.83l0,0c0.79-0.78,2.05-0.78,2.83,0l0,0c0.78,0.78,0.78,2.05,0,2.83l0,0c-0.39,0.39-0.9,0.58-1.41,0.58
				l0,0C106.449,108.956,105.939,108.766,105.54,108.376z M99.89,102.716c-0.78-0.78-0.78-2.05,0-2.83l0,0
				c0.78-0.78,2.04-0.78,2.83,0l0,0c0.78,0.78,0.78,2.05,0,2.83l0,0c-0.39,0.39-0.909,0.59-1.42,0.59l0,0
				C100.79,103.306,100.279,103.105,99.89,102.716z M94.23,97.066c-0.781-0.79-0.781-2.051,0-2.83l0,0c0.779-0.78,2.049-0.78,2.83,0
				l0,0c0.779,0.779,0.779,2.04,0,2.83l0,0c-0.391,0.38-0.9,0.579-1.41,0.579l0,0C95.13,97.646,94.62,97.446,94.23,97.066z
				 M88.58,91.406c-0.79-0.78-0.79-2.051,0-2.83l0,0c0.77-0.78,2.04-0.78,2.82,0l0,0c0.779,0.779,0.779,2.05,0,2.83l0,0
				c-0.391,0.39-0.9,0.58-1.41,0.58l0,0C89.48,91.986,88.96,91.796,88.58,91.406z M82.92,85.746c-0.78-0.78-0.78-2.05,0-2.83l0,0
				c0.779-0.78,2.05-0.78,2.83,0l0,0c0.779,0.78,0.779,2.05,0,2.83l0,0c-0.391,0.39-0.91,0.59-1.42,0.59l0,0
				C83.82,86.336,83.311,86.136,82.92,85.746z M77.26,80.086c-0.779-0.78-0.779-2.04,0-2.83l0,0c0.78-0.78,2.051-0.78,2.83,0l0,0
				c0.78,0.79,0.78,2.05,0,2.83l0,0c-0.391,0.39-0.9,0.59-1.42,0.59l0,0C78.16,80.676,77.65,80.476,77.26,80.086z M71.6,74.436
				c-0.779-0.779-0.779-2.05,0-2.83l0,0c0.79-0.779,2.051-0.779,2.83,0l0,0c0.78,0.78,0.78,2.051,0,2.83l0,0
				c-0.39,0.391-0.9,0.58-1.41,0.58l0,0C72.51,75.016,71.99,74.826,71.6,74.436z M65.949,68.776c-0.789-0.78-0.789-2.051,0-2.83l0,0
				c0.781-0.78,2.041-0.78,2.83,0l0,0c0.781,0.779,0.781,2.05,0,2.83l0,0c-0.39,0.39-0.909,0.59-1.42,0.59l0,0
				C66.85,69.366,66.34,69.166,65.949,68.776z M60.29,63.116c-0.78-0.78-0.78-2.05,0-2.83l0,0c0.78-0.78,2.05-0.78,2.83,0l0,0
				c0.78,0.78,0.78,2.05,0,2.83l0,0c-0.39,0.39-0.9,0.59-1.421,0.59l0,0C61.189,63.706,60.68,63.506,60.29,63.116z M54.63,57.466
				c-0.78-0.78-0.78-2.05,0-2.83l0,0c0.78-0.78,2.05-0.78,2.83,0l0,0c0.78,0.78,0.78,2.05,0,2.83l0,0
				c-0.39,0.39-0.899,0.58-1.41,0.58l0,0C55.54,58.046,55.02,57.855,54.63,57.466z M48.98,51.806c-0.781-0.779-0.781-2.05,0-2.83
				l0,0c0.779-0.779,2.039-0.779,2.83,0l0,0c0.779,0.78,0.779,2.051,0,2.83l0,0c-0.4,0.391-0.91,0.59-1.421,0.59l0,0
				C49.88,52.396,49.37,52.196,48.98,51.806z"/>
		</g>
		<g>
			<polygon fill="#231F20" points="211.066,234.204 211.209,230.202 230.918,230.925 230.197,211.213 234.199,211.071 
				235.07,235.078 			"/>
		</g>
	</g>
	<g>
		<path fill="#231F20" d="M22.366,37.653l5.823-7.224l-5.487-6.804c-0.28-0.364-0.532-0.812-0.532-1.288
			c0-0.952,0.729-1.681,1.708-1.681c0.728,0,1.147,0.28,1.568,0.84l4.956,6.524l4.9-6.412c0.447-0.616,0.924-0.952,1.68-0.952
			s1.567,0.616,1.567,1.568c0,0.504-0.196,0.896-0.532,1.316l-5.487,6.831l5.768,7.196c0.28,0.364,0.532,0.784,0.532,1.288
			c0,0.952-0.729,1.68-1.708,1.68c-0.728,0-1.147-0.279-1.567-0.84l-5.265-6.859l-5.181,6.748c-0.475,0.615-0.924,0.951-1.68,0.951
			c-0.783,0-1.567-0.615-1.567-1.596C21.862,38.466,22.059,38.073,22.366,37.653z"/>
	</g>
	<g>
		<path fill="#231F20" d="M255.41,259.553l-6.748-9.268c-0.223-0.336-0.391-0.729-0.391-1.204c0-0.924,0.756-1.652,1.734-1.652
			c0.758,0,1.262,0.42,1.682,1.036l5.459,7.868l5.545-7.896c0.42-0.616,0.924-1.036,1.65-1.036c1.01,0,1.682,0.756,1.682,1.68
			c0,0.476-0.225,0.896-0.477,1.232l-6.691,9.155v6.132c0,0.952-0.756,1.708-1.736,1.708c-0.953,0-1.709-0.756-1.709-1.708V259.553z
			"/>
	</g>
</g>
</svg>
