<?xml version="1.0" encoding="utf-8"?>
<!-- Generator: Adobe Illustrator 16.0.0, SVG Export Plug-In . SVG Version: 6.00 Build 0)  -->
<!DOCTYPE svg PUBLIC "-//W3C//DTD SVG 1.1//EN" "http://www.w3.org/Graphics/SVG/1.1/DTD/svg11.dtd" [
	<!ENTITY ns_extend "http://ns.adobe.com/Extensibility/1.0/">
	<!ENTITY ns_ai "http://ns.adobe.com/AdobeIllustrator/10.0/">
	<!ENTITY ns_graphs "http://ns.adobe.com/Graphs/1.0/">
	<!ENTITY ns_vars "http://ns.adobe.com/Variables/1.0/">
	<!ENTITY ns_imrep "http://ns.adobe.com/ImageReplacement/1.0/">
	<!ENTITY ns_sfw "http://ns.adobe.com/SaveForWeb/1.0/">
	<!ENTITY ns_custom "http://ns.adobe.com/GenericCustomNamespace/1.0/">
	<!ENTITY ns_adobe_xpath "http://ns.adobe.com/XPath/1.0/">
]>
<svg version="1.1" id="Layer_1" xmlns:x="&ns_extend;" xmlns:i="&ns_ai;" xmlns:graph="&ns_graphs;"
	 xmlns="http://www.w3.org/2000/svg" xmlns:xlink="http://www.w3.org/1999/xlink" x="0px" y="0px" width="333px" height="302px"
	 viewBox="0 0 333 302" enable-background="new 0 0 333 302" xml:space="preserve">
<metadata>
	<sfw  xmlns="&ns_sfw;">
		<slices></slices>
		<sliceSourceBounds  width="2857.654" height="4704.053" bottomLeftOrigin="true" y="-4967.661" x="79.346"></sliceSourceBounds>
	</sfw>
</metadata>
<g>
	<g>
		<circle opacity="0" fill="#FFFFFF" cx="58.692" cy="271.293" r="28.348"/>
		<circle opacity="0.0208" fill="#FEFEFE" cx="58.101" cy="270.702" r="28.348"/>
		<circle opacity="0.0417" fill="#FDFDFD" cx="57.511" cy="270.112" r="28.347"/>
		<circle opacity="0.0625" fill="#FCFCFC" cx="56.92" cy="269.521" r="28.347"/>
		<circle opacity="0.0833" fill="#FBFBFB" cx="56.33" cy="268.931" r="28.348"/>
		<circle opacity="0.1042" fill="#FAFAFA" cx="55.739" cy="268.341" r="28.348"/>
		<circle opacity="0.125" fill="#F9F9FA" cx="55.149" cy="267.75" r="28.347"/>
		<circle opacity="0.1458" fill="#F8F8F9" cx="54.558" cy="267.159" r="28.347"/>
		<circle opacity="0.1667" fill="#F7F8F8" cx="53.968" cy="266.569" r="28.347"/>
		<circle opacity="0.1875" fill="#F6F7F7" cx="53.377" cy="265.979" r="28.347"/>
		<circle opacity="0.2083" fill="#F5F6F6" cx="52.786" cy="265.388" r="28.347"/>
		<circle opacity="0.2292" fill="#F4F5F5" cx="52.196" cy="264.798" r="28.347"/>
		<circle opacity="0.25" fill="#F3F4F4" cx="51.605" cy="264.207" r="28.347"/>
		<circle opacity="0.2708" fill="#F2F3F3" cx="51.015" cy="263.616" r="28.347"/>
		<circle opacity="0.2917" fill="#F1F2F2" cx="50.424" cy="263.026" r="28.347"/>
		<circle opacity="0.3125" fill="#F0F1F1" cx="49.834" cy="262.437" r="28.347"/>
		<circle opacity="0.3333" fill="#EFF0F0" cx="49.243" cy="261.845" r="28.347"/>
		<circle opacity="0.3542" fill="#EEEFEF" cx="48.653" cy="261.254" r="28.347"/>
		<circle opacity="0.375" fill="#EDEEEE" cx="48.062" cy="260.664" r="28.347"/>
		<circle opacity="0.3958" fill="#ECEDEE" cx="47.472" cy="260.073" r="28.347"/>
		<circle opacity="0.4167" fill="#EBECED" cx="46.881" cy="259.483" r="28.347"/>
		<circle opacity="0.4375" fill="#EAEBEC" cx="46.291" cy="258.893" r="28.347"/>
		<circle opacity="0.4583" fill="#E9EAEB" cx="45.7" cy="258.302" r="28.346"/>
		<circle opacity="0.4792" fill="#E8E9EA" cx="45.11" cy="257.712" r="28.347"/>
		<circle opacity="0.5" fill="#E7E8E9" cx="44.519" cy="257.121" r="28.347"/>
		<circle opacity="0.5208" fill="#E7E8E8" cx="43.929" cy="256.53" r="28.347"/>
		<circle opacity="0.5417" fill="#E6E7E7" cx="43.338" cy="255.94" r="28.346"/>
		<circle opacity="0.5625" fill="#E5E6E6" cx="42.748" cy="255.35" r="28.347"/>
		<circle opacity="0.5833" fill="#E4E5E5" cx="42.157" cy="254.759" r="28.347"/>
		<circle opacity="0.6042" fill="#E3E4E4" cx="41.566" cy="254.169" r="28.346"/>
		<circle opacity="0.625" fill="#E2E3E3" cx="40.976" cy="253.578" r="28.346"/>
		<circle opacity="0.6458" fill="#E1E2E3" cx="40.385" cy="252.987" r="28.347"/>
		<circle opacity="0.6667" fill="#E0E1E2" cx="39.795" cy="252.397" r="28.346"/>
		<circle opacity="0.6875" fill="#DFE0E1" cx="39.204" cy="251.807" r="28.346"/>
		<circle opacity="0.7083" fill="#DEDFE0" cx="38.614" cy="251.216" r="28.346"/>
		<circle opacity="0.7292" fill="#DDDEDF" cx="38.023" cy="250.626" r="28.346"/>
		<circle opacity="0.75" fill="#DCDDDE" cx="37.433" cy="250.035" r="28.346"/>
		<circle opacity="0.7708" fill="#DBDCDD" cx="36.842" cy="249.444" r="28.346"/>
		<circle opacity="0.7917" fill="#DADBDC" cx="36.251" cy="248.854" r="28.346"/>
		<circle opacity="0.8125" fill="#D9DADB" cx="35.661" cy="248.264" r="28.346"/>
		<circle opacity="0.8333" fill="#D8DADA" cx="35.071" cy="247.673" r="28.346"/>
		<circle opacity="0.8542" fill="#D7D9D9" cx="34.48" cy="247.083" r="28.346"/>
		<circle opacity="0.875" fill="#D6D8D9" cx="33.889" cy="246.492" r="28.346"/>
		<circle opacity="0.8958" fill="#D5D7D8" cx="33.299" cy="245.902" r="28.346"/>
		<circle opacity="0.9167" fill="#D4D6D7" cx="32.708" cy="245.312" r="28.346"/>
		<circle opacity="0.9375" fill="#D3D5D6" cx="32.118" cy="244.721" r="28.346"/>
		<circle opacity="0.9583" fill="#D2D4D5" cx="31.527" cy="244.13" r="28.346"/>
		<circle opacity="0.9792" fill="#D1D3D4" cx="30.937" cy="243.54" r="28.346"/>
		<circle fill="#D0D2D3" cx="30.346" cy="242.949" r="28.346"/>
	</g>
	<g>
		<path opacity="0" fill="#FFFFFF" d="M209.781,58.693c0,15.654-12.691,28.346-28.344,28.346c-15.656,0-28.351-12.691-28.351-28.346
			c0-15.656,12.694-28.348,28.351-28.348C197.089,30.346,209.781,43.037,209.781,58.693z"/>
		<path opacity="0.0208" fill="#FEFEFE" d="M209.19,58.103c0,15.654-12.691,28.346-28.344,28.346
			c-15.656,0-28.351-12.691-28.351-28.346c0-15.656,12.694-28.348,28.351-28.348C196.499,29.755,209.19,42.446,209.19,58.103z"/>
		<path opacity="0.0417" fill="#FDFDFD" d="M208.6,57.513c0,15.654-12.691,28.345-28.345,28.345
			c-15.655,0-28.35-12.691-28.35-28.345c0-15.656,12.694-28.348,28.35-28.348C195.909,29.165,208.6,41.856,208.6,57.513z"/>
		<path opacity="0.0625" fill="#FCFCFC" d="M208.009,56.922c0,15.654-12.691,28.346-28.344,28.346
			c-15.656,0-28.351-12.691-28.351-28.346c0-15.656,12.694-28.348,28.351-28.348C195.318,28.574,208.009,41.266,208.009,56.922z"/>
		<path opacity="0.0833" fill="#FBFBFB" d="M207.418,56.331c0,15.654-12.691,28.346-28.344,28.346
			c-15.656,0-28.351-12.691-28.351-28.346c0-15.656,12.694-28.348,28.351-28.348C194.727,27.983,207.418,40.675,207.418,56.331z"/>
		<path opacity="0.1042" fill="#FAFAFA" d="M206.829,55.741c0,15.654-12.691,28.345-28.345,28.345
			c-15.655,0-28.35-12.691-28.35-28.345c0-15.656,12.694-28.348,28.35-28.348C194.137,27.393,206.829,40.085,206.829,55.741z"/>
		<path opacity="0.125" fill="#F9F9FA" d="M206.238,55.15c0,15.654-12.691,28.346-28.344,28.346
			c-15.656,0-28.35-12.691-28.35-28.346c0-15.656,12.694-28.348,28.35-28.348C193.546,26.803,206.238,39.494,206.238,55.15z"/>
		<path opacity="0.1458" fill="#F8F8F9" d="M205.647,54.56c0,15.654-12.691,28.346-28.344,28.346
			c-15.656,0-28.35-12.691-28.35-28.346c0-15.656,12.694-28.348,28.35-28.348C192.956,26.212,205.647,38.903,205.647,54.56z"/>
		<path opacity="0.1667" fill="#F7F8F8" d="M205.057,53.969c0,15.654-12.691,28.346-28.345,28.346
			c-15.655,0-28.35-12.691-28.35-28.346c0-15.656,12.695-28.348,28.35-28.348C192.366,25.621,205.057,38.312,205.057,53.969z"/>
		<path opacity="0.1875" fill="#F6F7F7" d="M204.466,53.379c0,15.654-12.691,28.346-28.345,28.346
			c-15.655,0-28.35-12.692-28.35-28.346c0-15.656,12.694-28.348,28.35-28.348C191.775,25.031,204.466,37.723,204.466,53.379z"/>
		<path opacity="0.2083" fill="#F5F6F6" d="M203.875,52.788c0,15.655-12.691,28.346-28.344,28.346
			c-15.655,0-28.351-12.691-28.351-28.346c0-15.656,12.695-28.348,28.351-28.348C191.184,24.44,203.875,37.131,203.875,52.788z"/>
		<path opacity="0.2292" fill="#F4F5F5" d="M203.285,52.197c0,15.654-12.69,28.346-28.344,28.346
			c-15.655,0-28.35-12.691-28.35-28.346c0-15.656,12.695-28.348,28.35-28.348C190.594,23.85,203.285,36.541,203.285,52.197z"/>
		<circle opacity="0.25" fill="#F3F4F4" cx="174.348" cy="51.607" r="28.347"/>
		<path opacity="0.2708" fill="#F2F3F3" d="M202.104,51.016c0,15.654-12.691,28.345-28.345,28.345
			c-15.655,0-28.35-12.691-28.35-28.345c0-15.656,12.694-28.348,28.35-28.348C189.413,22.668,202.104,35.36,202.104,51.016z"/>
		<path opacity="0.2917" fill="#F1F2F2" d="M201.514,50.426c0,15.654-12.691,28.346-28.345,28.346
			c-15.655,0-28.35-12.691-28.35-28.346c0-15.656,12.695-28.348,28.35-28.348C188.823,22.078,201.514,34.77,201.514,50.426z"/>
		<circle opacity="0.3125" fill="#F0F1F1" cx="172.576" cy="49.835" r="28.347"/>
		<circle opacity="0.3333" fill="#EFF0F0" cx="171.986" cy="49.245" r="28.347"/>
		<path opacity="0.3542" fill="#EEEFEF" d="M199.742,48.654C199.742,64.308,187.05,77,171.398,77
			c-15.655,0-28.351-12.692-28.351-28.346c0-15.656,12.695-28.348,28.351-28.348C187.05,20.307,199.742,32.998,199.742,48.654z"/>
		<circle opacity="0.375" fill="#EDEEEE" cx="170.805" cy="48.063" r="28.347"/>
		<circle opacity="0.3958" fill="#ECEDEE" cx="170.215" cy="47.474" r="28.347"/>
		<circle opacity="0.4167" fill="#EBECED" cx="169.624" cy="46.883" r="28.347"/>
		<circle opacity="0.4375" fill="#EAEBEC" cx="169.033" cy="46.292" r="28.347"/>
		<circle opacity="0.4583" fill="#E9EAEB" cx="168.442" cy="45.701" r="28.347"/>
		<circle opacity="0.4792" fill="#E8E9EA" cx="167.853" cy="45.111" r="28.347"/>
		<circle opacity="0.5" fill="#E7E8E9" cx="167.262" cy="44.521" r="28.347"/>
		<circle opacity="0.5208" fill="#E7E8E8" cx="166.672" cy="43.93" r="28.347"/>
		<circle opacity="0.5417" fill="#E6E7E7" cx="166.081" cy="43.339" r="28.347"/>
		<circle opacity="0.5625" fill="#E5E6E6" cx="165.49" cy="42.749" r="28.347"/>
		<circle opacity="0.5833" fill="#E4E5E5" cx="164.899" cy="42.158" r="28.347"/>
		<circle opacity="0.6042" fill="#E3E4E4" cx="164.309" cy="41.567" r="28.347"/>
		<circle opacity="0.625" fill="#E2E3E3" cx="163.719" cy="40.978" r="28.347"/>
		<circle opacity="0.6458" fill="#E1E2E3" cx="163.128" cy="40.387" r="28.348"/>
		<circle opacity="0.6667" fill="#E0E1E2" cx="162.538" cy="39.796" r="28.347"/>
		<circle opacity="0.6875" fill="#DFE0E1" cx="161.947" cy="39.206" r="28.347"/>
		<circle opacity="0.7083" fill="#DEDFE0" cx="161.357" cy="38.615" r="28.347"/>
		<circle opacity="0.7292" fill="#DDDEDF" cx="160.766" cy="38.024" r="28.347"/>
		<circle opacity="0.75" fill="#DCDDDE" cx="160.176" cy="37.434" r="28.347"/>
		<circle opacity="0.7708" fill="#DBDCDD" cx="159.585" cy="36.844" r="28.347"/>
		<path opacity="0.7917" fill="#DADBDC" d="M187.342,36.253c0,15.654-12.691,28.346-28.347,28.346
			c-15.653,0-28.348-12.691-28.348-28.346c0-15.656,12.695-28.348,28.348-28.348C174.651,7.905,187.342,20.597,187.342,36.253z"/>
		<circle opacity="0.8125" fill="#D9DADB" cx="158.404" cy="35.662" r="28.347"/>
		<circle opacity="0.8333" fill="#D8DADA" cx="157.814" cy="35.072" r="28.347"/>
		<path opacity="0.8542" fill="#D7D9D9" d="M185.571,34.481c0,15.654-12.691,28.346-28.347,28.346
			c-15.653,0-28.348-12.691-28.348-28.346c0-15.656,12.695-28.348,28.348-28.348C172.879,6.134,185.571,18.825,185.571,34.481z"/>
		<circle opacity="0.875" fill="#D6D8D9" cx="156.633" cy="33.891" r="28.347"/>
		<circle opacity="0.8958" fill="#D5D7D8" cx="156.042" cy="33.301" r="28.347"/>
		<path opacity="0.9167" fill="#D4D6D7" d="M183.799,32.71c0,15.654-12.691,28.346-28.347,28.346
			c-15.653,0-28.348-12.691-28.348-28.346c0-15.656,12.695-28.348,28.348-28.348C171.108,4.362,183.799,17.054,183.799,32.71z"/>
		<path opacity="0.9375" fill="#D3D5D6" d="M183.208,32.119c0,15.654-12.691,28.346-28.347,28.346
			c-15.652,0-28.348-12.691-28.348-28.346c0-15.656,12.695-28.347,28.348-28.347C170.517,3.772,183.208,16.463,183.208,32.119z"/>
		<path opacity="0.9583" fill="#D2D4D5" d="M182.618,31.528c0,15.655-12.691,28.346-28.347,28.346
			c-15.652,0-28.348-12.691-28.348-28.346c0-15.656,12.696-28.348,28.348-28.348C169.926,3.181,182.618,15.872,182.618,31.528z"/>
		<path opacity="0.9792" fill="#D1D3D4" d="M182.028,30.938c0,15.654-12.691,28.345-28.347,28.345
			c-15.653,0-28.348-12.691-28.348-28.345c0-15.656,12.695-28.348,28.348-28.348C169.336,2.59,182.028,15.282,182.028,30.938z"/>
		<path fill="#D0D2D3" d="M181.437,30.348c0,15.654-12.691,28.346-28.347,28.346c-15.652,0-28.348-12.691-28.348-28.346
			C124.743,14.691,137.438,2,153.09,2C168.746,2,181.437,14.691,181.437,30.348z"/>
	</g>
	<g>
		<circle opacity="0" fill="#FFFFFF" cx="304.183" cy="271.293" r="28.348"/>
		<circle opacity="0.0208" fill="#FEFEFE" cx="303.592" cy="270.702" r="28.348"/>
		<circle opacity="0.0417" fill="#FDFDFD" cx="303.002" cy="270.112" r="28.348"/>
		<circle opacity="0.0625" fill="#FCFCFC" cx="302.412" cy="269.521" r="28.348"/>
		<circle opacity="0.0833" fill="#FBFBFB" cx="301.821" cy="268.931" r="28.348"/>
		<circle opacity="0.1042" fill="#FAFAFA" cx="301.23" cy="268.341" r="28.348"/>
		<circle opacity="0.125" fill="#F9F9FA" cx="300.64" cy="267.75" r="28.348"/>
		<circle opacity="0.1458" fill="#F8F8F9" cx="300.049" cy="267.159" r="28.347"/>
		<circle opacity="0.1667" fill="#F7F8F8" cx="299.459" cy="266.569" r="28.347"/>
		<circle opacity="0.1875" fill="#F6F7F7" cx="298.868" cy="265.979" r="28.347"/>
		<circle opacity="0.2083" fill="#F5F6F6" cx="298.277" cy="265.388" r="28.347"/>
		<circle opacity="0.2292" fill="#F4F5F5" cx="297.687" cy="264.798" r="28.347"/>
		<circle opacity="0.25" fill="#F3F4F4" cx="297.097" cy="264.207" r="28.347"/>
		<circle opacity="0.2708" fill="#F2F3F3" cx="296.506" cy="263.616" r="28.347"/>
		<circle opacity="0.2917" fill="#F1F2F2" cx="295.916" cy="263.026" r="28.347"/>
		<circle opacity="0.3125" fill="#F0F1F1" cx="295.325" cy="262.437" r="28.347"/>
		<circle opacity="0.3333" fill="#EFF0F0" cx="294.734" cy="261.845" r="28.347"/>
		<circle opacity="0.3542" fill="#EEEFEF" cx="294.144" cy="261.254" r="28.347"/>
		<circle opacity="0.375" fill="#EDEEEE" cx="293.553" cy="260.664" r="28.347"/>
		<circle opacity="0.3958" fill="#ECEDEE" cx="292.963" cy="260.073" r="28.347"/>
		<circle opacity="0.4167" fill="#EBECED" cx="292.373" cy="259.483" r="28.347"/>
		<circle opacity="0.4375" fill="#EAEBEC" cx="291.782" cy="258.893" r="28.347"/>
		<circle opacity="0.4583" fill="#E9EAEB" cx="291.192" cy="258.302" r="28.347"/>
		<circle opacity="0.4792" fill="#E8E9EA" cx="290.601" cy="257.712" r="28.347"/>
		<circle opacity="0.5" fill="#E7E8E9" cx="290.01" cy="257.121" r="28.347"/>
		<circle opacity="0.5208" fill="#E7E8E8" cx="289.419" cy="256.53" r="28.347"/>
		<circle opacity="0.5417" fill="#E6E7E7" cx="288.829" cy="255.94" r="28.347"/>
		<circle opacity="0.5625" fill="#E5E6E6" cx="288.239" cy="255.35" r="28.347"/>
		<circle opacity="0.5833" fill="#E4E5E5" cx="287.648" cy="254.759" r="28.346"/>
		<circle opacity="0.6042" fill="#E3E4E4" cx="287.058" cy="254.169" r="28.346"/>
		<circle opacity="0.625" fill="#E2E3E3" cx="286.467" cy="253.578" r="28.347"/>
		<circle opacity="0.6458" fill="#E1E2E3" cx="285.876" cy="252.987" r="28.347"/>
		<circle opacity="0.6667" fill="#E0E1E2" cx="285.286" cy="252.397" r="28.347"/>
		<circle opacity="0.6875" fill="#DFE0E1" cx="284.695" cy="251.807" r="28.346"/>
		<circle opacity="0.7083" fill="#DEDFE0" cx="284.105" cy="251.216" r="28.346"/>
		<circle opacity="0.7292" fill="#DDDEDF" cx="283.515" cy="250.626" r="28.346"/>
		<circle opacity="0.75" fill="#DCDDDE" cx="282.924" cy="250.035" r="28.346"/>
		<path opacity="0.7708" fill="#DBDCDD" d="M310.679,249.444c0,15.655-12.691,28.347-28.344,28.347
			c-15.656,0-28.349-12.691-28.349-28.347c0-15.656,12.692-28.347,28.349-28.347C297.988,221.098,310.679,233.788,310.679,249.444z"
			/>
		<circle opacity="0.7917" fill="#DADBDC" cx="281.743" cy="248.854" r="28.347"/>
		<circle opacity="0.8125" fill="#D9DADB" cx="281.152" cy="248.264" r="28.346"/>
		<circle opacity="0.8333" fill="#D8DADA" cx="280.562" cy="247.673" r="28.346"/>
		<circle opacity="0.8542" fill="#D7D9D9" cx="279.971" cy="247.083" r="28.346"/>
		<circle opacity="0.875" fill="#D6D8D9" cx="279.38" cy="246.492" r="28.346"/>
		<path opacity="0.8958" fill="#D5D7D8" d="M307.136,245.902c0,15.654-12.691,28.345-28.344,28.345
			c-15.656,0-28.349-12.69-28.349-28.345c0-15.656,12.692-28.349,28.349-28.349C294.445,217.554,307.136,230.246,307.136,245.902z"
			/>
		<circle opacity="0.9167" fill="#D4D6D7" cx="278.199" cy="245.312" r="28.346"/>
		<circle opacity="0.9375" fill="#D3D5D6" cx="277.609" cy="244.721" r="28.346"/>
		<circle opacity="0.9583" fill="#D2D4D5" cx="277.019" cy="244.13" r="28.346"/>
		<circle opacity="0.9792" fill="#D1D3D4" cx="276.428" cy="243.54" r="28.346"/>
		<circle fill="#D0D2D3" cx="275.837" cy="242.949" r="28.346"/>
	</g>
	<g>
		<g>
			<path fill="#231F20" d="M259.502,216.653c-0.691,0-1.363-0.358-1.734-1L165.529,55.891c-0.552-0.957-0.225-2.18,0.732-2.732
				c0.955-0.554,2.179-0.224,2.732,0.732l92.239,159.763c0.552,0.957,0.225,2.18-0.732,2.732
				C260.186,216.567,259.841,216.653,259.502,216.653z"/>
		</g>
		<g>
			<polygon fill="#231F20" points="238.706,211.354 239.878,207.527 258.73,213.326 263.136,194.1 267.038,194.997 261.667,218.412 
							"/>
		</g>
	</g>
	<g>
		<g>
			<path fill="#231F20" d="M46.681,216.653c-0.34,0-0.684-0.086-0.998-0.268c-0.957-0.553-1.284-1.775-0.732-2.732l92.235-159.759
				c0.552-0.956,1.775-1.285,2.732-0.732c0.956,0.552,1.284,1.775,0.731,2.732L48.415,215.653
				C48.044,216.295,47.373,216.653,46.681,216.653z"/>
		</g>
		<g>
			<polygon fill="#231F20" points="67.477,211.354 66.304,207.527 47.454,213.326 43.046,194.1 39.145,194.997 44.517,218.412 			
				"/>
		</g>
	</g>
	<g>
		<circle fill="#FFFFFF" cx="153.09" cy="30.348" r="28.347"/>
		<path fill="#231F20" d="M153.09,60.693c-16.734,0-30.348-13.613-30.348-30.346C122.743,13.614,136.356,0,153.09,0
			c16.733,0,30.347,13.614,30.347,30.348C183.437,47.081,169.824,60.693,153.09,60.693z M153.09,4
			c-14.528,0-26.348,11.819-26.348,26.348c0,14.527,11.819,26.346,26.348,26.346c14.527,0,26.347-11.819,26.347-26.346
			C179.437,15.819,167.618,4,153.09,4z"/>
	</g>
	<g>
		<circle fill="#FFFFFF" cx="30.346" cy="242.947" r="28.346"/>
		<path fill="#231F20" d="M30.348,273.293C13.614,273.293,0,259.68,0,242.947s13.613-30.346,30.348-30.346
			c16.731,0,30.344,13.613,30.344,30.346S47.08,273.293,30.348,273.293z M30.348,216.602C15.82,216.602,4,228.42,4,242.947
			s11.819,26.346,26.348,26.346c14.525,0,26.344-11.818,26.344-26.346S44.874,216.602,30.348,216.602z"/>
	</g>
	<g>
		<circle fill="#FFFFFF" cx="275.837" cy="242.947" r="28.346"/>
		<path fill="#231F20" d="M275.835,273.293c-16.731,0-30.344-13.613-30.344-30.346s13.612-30.346,30.344-30.346
			c16.733,0,30.348,13.613,30.348,30.346S292.569,273.293,275.835,273.293z M275.835,216.602c-14.526,0-26.344,11.818-26.344,26.346
			s11.817,26.346,26.344,26.346c14.528,0,26.348-11.818,26.348-26.346S290.364,216.602,275.835,216.602z"/>
	</g>
	<g>
		<path fill="#231F20" d="M22.367,249.103l5.824-7.224l-5.488-6.804c-0.28-0.364-0.532-0.812-0.532-1.288
			c0-0.952,0.729-1.681,1.708-1.681c0.729,0,1.148,0.28,1.568,0.84l4.956,6.524l4.9-6.412c0.447-0.616,0.924-0.952,1.68-0.952
			s1.567,0.616,1.567,1.568c0,0.504-0.195,0.896-0.531,1.316l-5.488,6.831l5.768,7.196c0.28,0.364,0.532,0.784,0.532,1.288
			c0,0.952-0.728,1.68-1.708,1.68c-0.728,0-1.147-0.279-1.567-0.84l-5.265-6.859l-5.18,6.748c-0.476,0.615-0.924,0.951-1.68,0.951
			c-0.784,0-1.568-0.615-1.568-1.596C21.863,249.915,22.059,249.522,22.367,249.103z"/>
	</g>
	<g>
		<path fill="#231F20" d="M274.128,244.23l-6.748-9.268c-0.223-0.336-0.391-0.729-0.391-1.204c0-0.924,0.756-1.652,1.734-1.652
			c0.756,0,1.26,0.42,1.68,1.036l5.461,7.868l5.545-7.896c0.42-0.616,0.924-1.036,1.65-1.036c1.008,0,1.68,0.756,1.68,1.68
			c0,0.476-0.223,0.896-0.475,1.232l-6.693,9.155v6.132c0,0.952-0.756,1.708-1.734,1.708c-0.953,0-1.709-0.756-1.709-1.708V244.23z"
			/>
	</g>
	<g>
		<g>
			<path fill="#231F20" d="M239.149,244.945c-0.52,0-1.04-0.21-1.41-0.58c-0.369-0.38-0.59-0.89-0.59-1.42s0.221-1.04,0.59-1.41
				c0.75-0.75,2.091-0.74,2.83,0c0.37,0.37,0.58,0.88,0.58,1.41s-0.21,1.04-0.58,1.42
				C240.189,244.735,239.679,244.945,239.149,244.945z"/>
		</g>
		<g>
			<path fill="#231F20" d="M229.229,242.945c0-1.1,0.891-2,2-2l0,0c1.101,0,2,0.9,2,2l0,0c0,1.11-0.899,2-2,2l0,0
				C230.12,244.945,229.229,244.056,229.229,242.945z M221.29,242.945c0-1.1,0.899-2,2-2l0,0c1.109,0,2,0.9,2,2l0,0
				c0,1.11-0.891,2-2,2l0,0C222.189,244.945,221.29,244.056,221.29,242.945z M213.359,242.945c0-1.1,0.9-2,2.011-2l0,0
				c1.1,0,1.989,0.9,1.989,2l0,0c0,1.11-0.89,2-1.989,2l0,0C214.259,244.945,213.359,244.056,213.359,242.945z M205.429,242.945
				c0-1.1,0.9-2,2-2l0,0c1.11,0,2,0.9,2,2l0,0c0,1.11-0.89,2-2,2l0,0C206.33,244.945,205.429,244.056,205.429,242.945z
				 M197.5,242.945c0-1.1,0.899-2,2-2l0,0c1.109,0,2,0.9,2,2l0,0c0,1.11-0.891,2-2,2l0,0
				C198.399,244.945,197.5,244.056,197.5,242.945z M189.569,242.945c0-1.1,0.9-2,2-2l0,0c1.11,0,2,0.9,2,2l0,0c0,1.11-0.89,2-2,2
				l0,0C190.469,244.945,189.569,244.056,189.569,242.945z M181.639,242.945c0-1.1,0.9-2,2-2l0,0c1.11,0,2,0.9,2,2l0,0
				c0,1.11-0.89,2-2,2l0,0C182.54,244.945,181.639,244.056,181.639,242.945z M173.709,242.945c0-1.1,0.899-2,2-2l0,0
				c1.109,0,2,0.9,2,2l0,0c0,1.11-0.891,2-2,2l0,0C174.609,244.945,173.709,244.056,173.709,242.945z M165.779,242.945
				c0-1.1,0.9-2,2-2l0,0c1.11,0,2,0.9,2,2l0,0c0,1.11-0.89,2-2,2l0,0C166.679,244.945,165.779,244.056,165.779,242.945z
				 M157.849,242.945c0-1.1,0.9-2,2-2l0,0c1.11,0,2,0.9,2,2l0,0c0,1.11-0.89,2-2,2l0,0
				C158.75,244.945,157.849,244.056,157.849,242.945z M149.919,242.945c0-1.1,0.9-2,2-2l0,0c1.11,0,2,0.9,2,2l0,0c0,1.11-0.89,2-2,2
				l0,0C150.82,244.945,149.919,244.056,149.919,242.945z M141.99,242.945c0-1.1,0.899-2,2-2l0,0c1.109,0,2,0.9,2,2l0,0
				c0,1.11-0.891,2-2,2l0,0C142.889,244.945,141.99,244.056,141.99,242.945z M134.059,242.945c0-1.1,0.9-2,2-2l0,0c1.11,0,2,0.9,2,2
				l0,0c0,1.11-0.89,2-2,2l0,0C134.959,244.945,134.059,244.056,134.059,242.945z M126.129,242.945c0-1.1,0.9-2,2-2l0,0
				c1.11,0,2,0.9,2,2l0,0c0,1.11-0.89,2-2,2l0,0C127.03,244.945,126.129,244.056,126.129,242.945z M118.2,242.945c0-1.1,0.899-2,2-2
				l0,0c1.109,0,2,0.9,2,2l0,0c0,1.11-0.891,2-2,2l0,0C119.099,244.945,118.2,244.056,118.2,242.945z M110.269,242.945
				c0-1.1,0.9-2,2-2l0,0c1.11,0,2,0.9,2,2l0,0c0,1.11-0.89,2-2,2l0,0C111.169,244.945,110.269,244.056,110.269,242.945z
				 M102.339,242.945c0-1.1,0.9-2,2-2l0,0c1.11,0,2,0.9,2,2l0,0c0,1.11-0.89,2-2,2l0,0
				C103.24,244.945,102.339,244.056,102.339,242.945z M94.41,242.945c0-1.1,0.899-2,2-2l0,0c1.109,0,2,0.9,2,2l0,0
				c0,1.11-0.891,2-2,2l0,0C95.309,244.945,94.41,244.056,94.41,242.945z M86.479,242.945c0-1.1,0.9-2,2-2l0,0c1.11,0,2,0.9,2,2l0,0
				c0,1.11-0.89,2-2,2l0,0C87.379,244.945,86.479,244.056,86.479,242.945z M78.549,242.945c0-1.1,0.9-2,2-2l0,0c1.11,0,2,0.9,2,2
				l0,0c0,1.11-0.89,2-2,2l0,0C79.45,244.945,78.549,244.056,78.549,242.945z M70.62,242.945c0-1.1,0.899-2,2-2l0,0
				c1.109,0,2,0.9,2,2l0,0c0,1.11-0.891,2-2,2l0,0C71.519,244.945,70.62,244.056,70.62,242.945z"/>
		</g>
		<g>
			<path fill="#231F20" d="M64.689,244.945c-0.52,0-1.039-0.21-1.409-0.58c-0.38-0.38-0.591-0.89-0.591-1.42s0.211-1.04,0.591-1.41
				c0.75-0.75,2.08-0.75,2.83,0c0.369,0.37,0.579,0.88,0.579,1.41s-0.21,1.04-0.579,1.42
				C65.729,244.735,65.219,244.945,64.689,244.945z"/>
		</g>
		<g>
			<polygon fill="#231F20" points="225.9,226.588 223.171,229.518 237.619,242.943 223.171,256.373 225.9,259.303 243.492,242.943 
							"/>
		</g>
	</g>
	<g>
		<g>
			<line fill="#FFFFFF" x1="30.344" y1="299.641" x2="30.344" y2="271.293"/>
			<path fill="#231F20" d="M30.344,301.641c-1.104,0-2-0.896-2-2v-28.348c0-1.104,0.896-2,2-2s2,0.896,2,2v28.348
				C32.344,300.745,31.449,301.641,30.344,301.641z"/>
		</g>
		<g>
			<line fill="#FFFFFF" x1="19.008" y1="288.301" x2="41.684" y2="288.301"/>
			<path fill="#231F20" d="M41.684,290.301H19.008c-1.104,0-2-0.896-2-2s0.896-2,2-2h22.676c1.104,0,2,0.896,2,2
				S42.789,290.301,41.684,290.301z"/>
		</g>
	</g>
</g>
</svg>
